﻿{
  "culture": "vi",
  "texts": {
    "Menu:LeptonThemeSettings": "Chủ đề Lepton",
    "Permission:LeptonThemeSettings": "Thiết lập chủ đề Lepton",
    "Permission:LeptonThemeManagement": "Quản lý chủ đề Lepton",
    "DisplayName:BoxedLayout": "Bố cục đóng hộp",
    "DisplayName:MenuPlacement": "Vị trí menu",
    "DisplayName:MenuStatus": "Trạng thái menu",
    "SuccessfullySaved": "Đã lưu thành công",
    "Left": "Bên trái",
    "Top": "Bên trên",
    "AlwaysOpened": "Luôn mở",
    "OpenOnHover": "Mở khi di chuột",
    "DisplayName:Style": "Kiểu",
    "DisplayName:PublicLayoutStyle": "Kiểu trang web công khai",
    "Authentication:YouAreLoggedOut": "Bạn đã đăng xuất."
  }
}
