﻿{
  "culture": "en",
  "texts": {
    "Menu:KhaiThac": "Exploit",
    "Main:ListDataLayer": "List data layer",
    "Main:SearchDataLayer": "Search data layer",
    "Main:ListObject": "List object",
    "Main:Search": "Search",
    "Main:InformationData": "Infomation data",
    "Main:BasicInformation": "Basic Information",
    "Main:Details": "Details",
    "Main:OperationInformation": "Operation Information",
    "Main:No.": "No.",
    "Main:OperationName": "Operation Name",
    "Main:Date": "Date",
    "Main:Manipulation": "Manipulation",
    "Main:Download": "Download",
    "Main:DocumentViewer": "Document viewer",
    "Main:Close": "Close",
    "Main:SelectMapType": "Select the map type",
    "Main:DisplayObjectAreNotManagedByTheOBject": "Display objects that are not managed by the object",
    "Main:Title": "Title",
    "Main:Content": "Content",
    "Main:Detail": "Detail",
    "Main:UploadFile": "Upload file",
    "Main:NoData": "No data",
    "Main:Info": "Information",
    "Main:Document": "Document",
    "Main:Operation": "Operation",
    "Main:OpenList": "Open the list",
    "Main:Previous": "Previous",
    "Main:Next": "Next",
    "Main:ChooseMapType": "Choose Map Type",
    "Main:ActivityDetail": "Activity detail",
    "Main:Extend": "Extend",
    "Main:Image": "Image",
    "Main:Link": "Link",
    "Main:Name": "Name",
    "Main:Path": "Path",
    "Main:Folder": "Folder",
    "Main:Default": "Default",
    "Main:HideNoneManagedObject": "Hide non managed objects",
    "Main:Notification": "Notification",
    "Main:FileCannotViewedPleaseDowload": "This file format cannot be viewed, please download",
    "Main:SeeAllPicture": "View all picture",
    "Main:OpenLink": "Open link",
    "Main:View": "View",
    "Main:Action": "Action",
    "Main:OperationDate": "Operation date",
    "Main:DrawOnMap": "Draw on map",
    "Main:DrawPoint": "Get point",
    "Main:DrawLine": "Measure the length",
    "Main:DrawArea": "Measure area",
    "Main:ClosePanel": "Close panel",
    "Main:OpenPanel": "Open panel",
    "FolderSearch": "Chossen Folder",
    "LayerSearch": "Layer",
    "Refesh": "Refresh",
    "Polygon": "Polygon",
    "Circle": "Circle",
    "Line": "Line",
    "LayerName": "Layer name",
    "SearchResult": "List of search results",
    "ChossenLayer": "Choosen layer",
    "ChoosenFolder": "Choosen folder",
    "OpenSearch": "Open search",
    "CloseSearch": "Close search",
    "CancelAction": "Cancel",
    "LayerBaseMap": "Layer base map",
    "Default": "Default",
    "SearchResultNull": "Not found",
    "Acreage": "Acreage",
    "Radius": "Radius",
    "Length": "Length",
    "BufferZone": "Buffer zone",
    "NotInformation": "Not information",
    "Latitude": "Latitude",
    "Longitude": "Longitude",
    "KhaiThac:Warn:SearchWithShape": "Please, draw the search area",
    "KhaiThac:Properties:ButtonReference": "Reference",
    "KhaiThac:Properties:TileReference": "Reference",
    "KhaiThac:Properties:SelectReferenceLayer": "Select reference layer",
    "KhaiThac:Properties:SelectReferencedMultiLayer": "Select referenced layer",
    "KhaiThac:Properties:BtnCancel": "Cancel",
    "KhaiThac:Error:ErrorReference": "Please, select reference layer",
    "KhaiThac:Error:ErrorReferenced": "Please, select referenced layer",
    "KhaiThac:SearchNull": "No result",
    "KhaiThac:PleasInputNameObject": "Pleas input name object",
    "KhaiThac:ERROR_LOADING": "Loading error",
    "KhaiThac:NO_RESULTS": "No result data",
    "KhaiThac:SEARCHING": "Searching",
    "KhaiThac:LOADING_MORE": "Loading more result",
    "KhaiThac:PleaseInputLayerName": "Please input layer name",
    "Permission:KhaiThac": "Exploit",
    "Permission:ManagementData.Create": "Create",
    "Permission:ManagementData.Edit": "Edit",
    "Permission:ManagementData.Delete": "Delete",
    "Permission:ManagementData": "Management Data",
    "Exploit:True": "True",
    "Exploit:False": "False",
    "Main:ViewAttributes": "View Attributes",
    "KhaiThac:PleaseInputNameOrTitleOrDescription": "Please input name, title, description main object",
    "KhaiThac:BufferZone": "Buffer"
  }
}