﻿{
  "culture": "vi",
  "texts": {
    "Menu:KhaiThac": "Khai thác",
    "Main:ListDataLayer": "Danh sách lớp dữ liệu",
    "Main:SearchDataLayer": "Tìm kiếm lớp dữ liệu",
    "Main:ListObject": "Danh sách đối tượng",
    "Main:Search": "Tìm kiếm",
    "Main:InformationData": "Thông tin dữ liệu",
    "Main:BasicInformation": "Thông tin cơ bản",
    "Main:Details": "Thông tin chi tiết",
    "Main:OperationInformation": "Thông tin hoạt động",
    "Main:No.": "STT",
    "Main:OperationName": "Tên hoạt động",
    "Main:Date": "Ngày tháng",
    "Main:Manipulation": "Thao tác",
    "Main:Download": "Tải xuống",
    "Main:DocumentViewer": "Xem tài liệu",
    "Main:Close": "Đóng",
    "Main:SelectMapType": "Chọn loại bản đồ",
    "Main:DisplayObjectAreNotManagedByTheOBject": "Hiển thị đối tượng không thuộc đối tượng quản lý",
    "Main:Title": "Tiêu đề",
    "Main:Content": "Mô tả",
    "Main:Detail": "Chi tiết",
    "Main:UploadFile": "Tải tệp lên",
    "Main:NoData": "Không có dữ liệu",
    "Main:Info": "Thông tin",
    "Main:Operation": "Hoạt động",
    "Main:OpenList": "Mở danh sách",
    "Main:Previous": "Lùi",
    "Main:Next": "Tiếp",
    "Main:ChooseMapType": "Chọn loại bản đồ",
    "Main:ActivityDetail": "Chi tiết hoạt động",
    "Main:Extend": "Mở rộng",
    "Main:Image": "Hình ảnh",
    "Main:Link": "Liên kết",
    "Main:Name": "Tên",
    "Main:Path": "Đường dẫn",
    "Main:Folder": "Thư mục",
    "Main:Default": "Mặc định",
    "Main:HideNoneManagedObject": "Ẩn các đối tượng không thuộc đối tượng quản lý",
    "Main:Notification": "Thông báo",
    "Main:FileCannotViewedPleaseDowload": "Định dạng file này không thể xem, vui lòng tải xuống",
    "Main:SeeAllPicture": "Xem toàn bộ hình",
    "Main:OpenLink": "Mở đường dẫn",
    "Main:View": "Xem",
    "Main:Action": "Hành động",
    "Main:OperationDate": "Ngày hoạt động",
    "Main:DrawOnMap": "Vẽ trên bản đồ",
    "Main:DrawPoint": "Lấy tọa độ điểm",
    "Main:DrawLine": "Đo chiều dài",
    "Main:DrawArea": "Đo diện tích",
    "Main:ClosePanel": "Đóng panel",
    "Main:OpenPanel": "Mở panel",
    "FolderSearch": "Chọn thư mục tìm kiếm",
    "LayerSearch": "Theo lớp",
    "Refesh": "Làm mới",
    "Polygon": "Đa giác",
    "Circle": "Vòng tròn",
    "Line": "Đoạn thẳng",
    "LayerName": "Tên lớp",
    "SearchResult": "Danh sách kết quả tìm kiếm",
    "ChossenLayer": "Chọn lớp",
    "ChoosenFolder": "Chọn thư mục",
    "OpenSearch": "Mở tìm kiếm",
    "CloseSearch": "Đóng tìm kiếm",
    "CancelAction": "Hủy thao tác",
    "LayerBaseMap": "Bản đồ nền",
    "Default": "Mặc định",
    "SearchResultNull": "Không tìm thấy kết quả tìm kiếm",
    "Acreage": "Diện tích",
    "Radius": "Bán kính",
    "Length": "Chiều dài",
    "BufferZone": "Vùng đệm",
    "NotInformation": "Không có thông tin",
    "Latitude": "Vĩ độ (Y)",
    "Longitude": "Kinh độ (X)",
    "KhaiThac:Warn:SearchWithShape": "Vui lòng vẽ vùng tìm kiếm",
    "KhaiThac:Properties:ButtonReference": "Tham chiếu",
    "KhaiThac:Properties:TileReference": "Tham chiếu dữ liệu",
    "KhaiThac:Properties:SelectReferenceLayer": "Chọn lớp tham chiếu",
    "KhaiThac:Properties:SelectReferencedMultiLayer": "Chọn các lớp được tham chiếu",
    "KhaiThac:Properties:BtnCancel": "Hủy",
    "KhaiThac:Error:ErrorReference": "Vui lòng chọn lớp tham chiếu",
    "KhaiThac:Error:ErrorReferenced": "Vui lòng chọn lớp được tham chiếu",
    "KhaiThac:SearchNull": "Không tìm thấy kết quả tìm kiếm",
    "KhaiThac:PleasInputNameObject": "Nhập tên đối tượng",
    "KhaiThac:ERROR_LOADING": "Lỗi",
    "KhaiThac:NO_RESULTS": "Không tìm thấy kết quả",
    "KhaiThac:SEARCHING": "Tìm kiếm",
    "KhaiThac:LOADING_MORE": "Hiển thị thêm kết quả",
    "KhaiThac:PleaseInputLayerName": "Nhập tên lớp dữ liệu",
    "Permission:KhaiThac": "Khai thác",
    "Permission:ManagementData.Create": "Thêm mới",
    "Permission:ManagementData.Edit": "Chỉnh sửa",
    "Permission:ManagementData.Delete": "Xóa",
    "Permission:ManagementData": "Quản lý dữ liệu",
    "Exploit:True": "Có",
    "Exploit:False": "Không",
    "Main:ViewAttributes": "Xem thuộc tính",
    "KhaiThac:PleaseInputNameOrTitleOrDescription": "Nhập tên, tiêu đề hoặc mô tả đối tượng",
    "KhaiThac:BufferZone": "Bán kính vùng đệm"
  }
}
