﻿{
  "culture": "vi",
  "texts": {
    "LanguageManagement": "Quản lý ngôn ngữ",
    "Languages": "Ngôn ngữ",
    "OnlyEmptyValues": "Chỉ các giá trị rỗng",
    "All": "Tất cả",
    "BaseValue": "Giá trị cơ sở",
    "LanguageTexts": "Nội dung ngôn ngữ",
    "BaseCultureName": "Base Culture Name",
    "BaseCultureValue": "Base Culture Value",
    "TargetCultureValue": "Target Culture Value",
    "TargetCultureName": "Target Culture Name",
    "CultureName": "Culture Name",
    "UiCultureName": "Ui Culture Name",
    "ResourceName": "Tên tài nguyên",
    "RestoreToDefault": "Khôi phục về mặc định",
    "SaveAndNext": "Lưu để tiếp tục",
    "TargetValue": "Giá trị mục tiêu",
    "Value": "Giá trị",
    "Key": "Khóa",
    "Edit": "Chỉnh sửa",
    "CreateNewLanguage": "Tạo mới ngôn ngữ",
    "Delete": "Xóa",
    "DisplayName": "Tên hiển thị",
    "FlagIcon": "Quốc kỳ",
    "IsEnabled": "Đã kích hoạt",
    "SetAsDefaultLanguage": "Đặt làm ngôn ngữ mặc định",
    "DefaultLanguage": "Ngôn ngữ mặc định",
    "Menu:Languages": "Quản lý ngôn ngữ",
    "LanguageDeletionConfirmationMessage": "Ngôn ngữ '{0}' sẽ bị xóa. Xác nhận muốn xóa?",
    "Filter": "Bộ lọc"
  }
}