﻿{
  "culture": "en",
  "texts": {
    "Permissions": "Permissions",
    "Permission:Edit": "Edit",
    "Permission:Create": "Create",
    "Permission:Delete": "Delete",
    "Permission:ApiResources": "Api Resources",
    "Permission:ApiScope": "Api Scopes",
    "Permission:IdentityResources": "Identity Resources",
    "Permission:Clients": "Clients",
    "Permission:ManagePermissions": "Manage Permissions",
    "Permission:IdentityServer": "Identity Server",
    "Permission:ViewChangeHistory": "View change history",
    "Id": "Id",
    "ClientId": "Client Id",
    "Resources": "Resources",
    "Tokens": "Tokens",
    "IdentityProviderRestrictions": "Restrictions",
    "Details": "Details",
    "Properties": "Properties",
    "GrantTypes": "Grant Types",
    "AllowRememberConsent": "Allow Remember Consent",
    "AllowOfflineAccess": "Allow Offline Access",
    "ApplicationUrls": "Application Urls",
    "ApplicationUrl": "Application Url",
    "PairWiseSubjectSalt": "Pair Wise Subject Salt",
    "UserSsoLifetime": "User Sso Lifetime",
    "UserCodeType": "User Code Type",
    "DeviceCodeLifetime": "Device Code Type",
    "CustomGrantType": "Custom Grant Type",
    "IncludeJwtId": "Include Jwt Id",
    "AccessTokenType": "Access Token Type",
    "ConsentLifetime": "Consent Lifetime",
    "ClientName": "Client Name",
    "ClientUri": "Client Uri",
    "LogoUri": "Logo Uri",
    "LogoutUrl": "Logout Url",
    "CallbackUrl": "Callback Url",
    "SignoutUrl": "Signout Url",
    "AllowedIdentityTokenSigningAlgorithms": "Allowed identity token signing algorithms",
    "AllowedAccessTokenSigningAlgorithms": "Allowed access token signing algorithms",
    "FrontChannelLogoutUri": "Front channel logout uri",
    "FrontChannelLogoutSessionRequired": "Front channel logout session required",
    "BackChannelLogoutUri": "Back channel logout uri",
    "BackChannelLogoutSessionRequired": "Back channel logout session required",
    "AllowedCorsOrigins": "Allowed CORS Origins",
    "RequireConsent": "Require Consent",
    "RequirePkce": "Require pkce",
    "RequireRequestObject": "Require request object",
    "RequireClientSecret": "Require client secret",
    "AlwaysSendClientClaims": "Always send client claims",
    "EnableLocalLogin": "Enable local login",
    "AccessTokenLifetime": "Access Token Lifetime",
    "Menu:IdentityServer": "Identity Server",
    "Menu:IdentityResources": "Identity resources",
    "Menu:ApiResources": "Api resources",
    "Menu:ApiScopes": "Api scopes",
    "Menu:Clients": "Clients",
    "Clients": "Clients",
    "CreateANewResource": "Create a new resource",
    "CreateANewScope": "Create a new api scope",
    "CreateANewClient": "Create a new client",
    "IdentityResources": "Identity resources",
    "ApiResources": "Api resources",
    "ApiScopes": "Api scopes",
    "NotOwnedClaims": "Not owned claims:",
    "OwnedClaims": "Owned claims:",
    "Claims": "Claims",
    "DisplayName": "Display Name",
    "Description": "Description",
    "Name": "Name",
    "Type": "Type",
    "Value": "Value",
    "Expiration": "Expiration",
    "AddNew": "Add new",
    "Secrets": "Secrets",
    "ShowInDiscoveryDocument": "Show In Discovery Document",
    "Required": "Required",
    "Enabled": "Enabled",
    "Add": "Add",
    "Info": "Info",
    "Scopes": "Scopes",
    "Create": "Create",
    "Delete": "Delete",
    "Edit": "Edit",
    "Emphasize": "Emphasize",
    "CreateStandardResources": "Create standard resources",
    "CreateStandardIdentityResourcesWarningMessage": "This will create all standard identity resources and assign to the standard claims. You can delete later if you do not need any of them. Do you want to continue?",
    "ApiResourcesDeletionWarningMessage": "This Api Resource will be deleted. Do you want to continue?",
    "IdentityResourcesDeletionWarningMessage": "This Identity Resource will be deleted. Do you want to continue?",
    "ClientsDeletionWarningMessage": "This Client will be deleted. Do you want to continue?",
    "ApiScopesDeletionWarningMessage": "This Api Scope will be deleted. Do you want to continue?",
    "MissingRequiredField": "'{0}' field is required!",
    "ChangeHistory": "Change History"
  }
}
