﻿{
  "culture": "sl",
  "texts": {
    "Permissions": "Dovoljenja",
    "Permission:Edit": "Urejanje",
    "Permission:Create": "Ustvarjanje",
    "Permission:Delete": "Brisanje",
    "Permission:ApiResources": "Viri za Api",
    "Permission:IdentityResources": "Viri za identiteto",
    "Permission:Clients": "Odjemalci",
    "Permission:ManagePermissions": "Upravljanje dovoljenj",
    "Permission:IdentityServer": "Identity Server",
    "Id": "Id",
    "ClientId": "Id odjemalca",
    "Resources": "Viri",
    "Tokens": "Žetoni",
    "IdentityProviderRestrictions": "Omejitve",
    "Details": "Podrobnosti",
    "Properties": "Lastnosti",
    "GrantTypes": "Tipi dovoljenj",
    "AllowRememberConsent": "Dovoli si zapomniti soglasje",
    "AllowOfflineAccess": "Dovoli dostop brez povezave",
    "ApplicationUrls": "Url-ji aplikacije",
    "ApplicationUrl": "Url aplikacije",
    "PairWiseSubjectSalt": "Pair Wise Subject Salt",
    "UserSsoLifetime": "Življenska doba uporabnikovega Sso",
    "UserCodeType": "Vrsta uporabniške kode",
    "DeviceCodeLifetime": "Vrsta kode naprave",
    "CustomGrantType": "Tip dovoljenj po meri",
    "IncludeJwtId": "Vključi Jwt Id",
    "AccessTokenType": "Vrsta žetona za dostop",
    "ConsentLifetime": "Consent Lifetime",
    "ClientName": "Ime odjemalca",
    "ClientUri": "Uri odjemalca",
    "LogoUri": "Logo Uri",
    "LogoutUrl": "Url za odjavo",
    "CallbackUrl": "Povratni Url",
    "SignoutUrl": "Url za odjavo",
    "AllowedCorsOrigins": "Dovoljeni CORS viri",
    "RequireConsent": "Zahteva soglasje",
    "AlwaysSendClientClaims": "Vedno pošlji zahtevke odjemalca",
    "EnableLocalLogin": "Omogoči lokalno prijavo",
    "AccessTokenLifetime": "Življenska doba žetona",
    "Menu:IdentityServer": "Identity Server",
    "Menu:IdentityResources": "Viri za identiteto",
    "Menu:ApiResources": "Viri za Api",
    "Menu:Clients": "Odjemalci",
    "Clients": "Odjemalci",
    "CreateANewResource": "Ustvari nov vir",
    "CreateANewClient": "Ustvari novega odjemalca",
    "IdentityResources": "Viri za identiteto",
    "ApiResources": "Viri za Api",
    "NotOwnedClaims": "Zahtevki, ki niso v lasti:",
    "OwnedClaims": "Zahtevki v lasti:",
    "Claims": "Zahtevki",
    "DisplayName": "Ime za prikaz",
    "Description": "Opis",
    "Name": "Ime",
    "Type": "Vrsta",
    "Value": "Vrednost",
    "Expiration": "Poteče",
    "AddNew": "Dodaj nov",
    "Secrets": "Skrivnosti",
    "ShowInDiscoveryDocument": "Prikaži v dokumentu Discovery",
    "Required": "Zahtevano",
    "Enabled": "Omogočeno",
    "Add": "Dodaj",
    "Info": "Informacije",
    "Scopes": "Področja",
    "Create": "Ustvari",
    "Delete": "Izbriši",
    "Edit": "Uredi",
    "Emphasize": "Poudari",
    "CreateStandardResources": "Ustvari standardne vire",
    "CreateStandardIdentityResourcesWarningMessage": "To bo ustvarilo vse standardne vire identitete in jih dodelilo standardnim zahtevkom. Kasneje jih lahko izbrišete, če jih ne potrebujete. Ali želite nadaljevati?",
    "ApiResourcesDeletionWarningMessage": "Ta Api vir bo izbrisan. Ali želite nadaljevati?",
    "IdentityResourcesDeletionWarningMessage": "Ta vir identitete bo izbrisan. Ali želite nadaljevati?",
    "ClientsDeletionWarningMessage": "Ta odjemalec bo izbrisan. Ali želite nadaljevati?",
    "MissingRequiredField": "Polje '{0}' je zahtevano!"
  }
}