{
  "runtimeTarget": {
    "name": ".NETCoreApp,Version=v5.0",
    "signature": ""
  },
  "compilationOptions": {},
  "targets": {
    ".NETCoreApp,Version=v5.0": {
      "Volo.FileManagement.MongoDB/1.0.0": {
        "dependencies": {
          "Volo.Abp.Commercial.Core": "4.3.0",
          "Volo.Abp.MongoDB": "4.3.0",
          "Volo.FileManagement.Domain": "1.0.0"
        },
        "runtime": {
          "Volo.FileManagement.MongoDB.dll": {}
        }
      },
      "AutoMapper/10.1.1": {
        "dependencies": {
          "Microsoft.CSharp": "4.7.0",
          "System.Reflection.Emit": "4.7.0"
        },
        "runtime": {
          "lib/netstandard2.0/AutoMapper.dll": {
            "assemblyVersion": "10.0.0.0",
            "fileVersion": "10.1.1.0"
          }
        }
      },
      "DnsClient/1.4.0": {
        "runtime": {
          "lib/netstandard2.1/DnsClient.dll": {
            "assemblyVersion": "1.4.0.0",
            "fileVersion": "1.4.0.0"
          }
        }
      },
      "JetBrains.Annotations/2020.3.0": {
        "runtime": {
          "lib/netstandard2.0/JetBrains.Annotations.dll": {
            "assemblyVersion": "2020.3.0.0",
            "fileVersion": "2020.3.0.0"
          }
        }
      },
      "Microsoft.AspNetCore.Authorization/5.0.5": {
        "dependencies": {
          "Microsoft.AspNetCore.Metadata": "5.0.5",
          "Microsoft.Extensions.Logging.Abstractions": "5.0.0",
          "Microsoft.Extensions.Options": "5.0.0"
        },
        "runtime": {
          "lib/net5.0/Microsoft.AspNetCore.Authorization.dll": {
            "assemblyVersion": "5.0.0.0",
            "fileVersion": "5.0.521.16708"
          }
        }
      },
      "Microsoft.AspNetCore.Metadata/5.0.5": {
        "runtime": {
          "lib/net5.0/Microsoft.AspNetCore.Metadata.dll": {
            "assemblyVersion": "5.0.0.0",
            "fileVersion": "5.0.521.16708"
          }
        }
      },
      "Microsoft.CSharp/4.7.0": {},
      "Microsoft.Extensions.Configuration/5.0.0": {
        "dependencies": {
          "Microsoft.Extensions.Configuration.Abstractions": "5.0.0",
          "Microsoft.Extensions.Primitives": "5.0.0"
        },
        "runtime": {
          "lib/netstandard2.0/Microsoft.Extensions.Configuration.dll": {
            "assemblyVersion": "5.0.0.0",
            "fileVersion": "5.0.20.51904"
          }
        }
      },
      "Microsoft.Extensions.Configuration.Abstractions/5.0.0": {
        "dependencies": {
          "Microsoft.Extensions.Primitives": "5.0.0"
        },
        "runtime": {
          "lib/netstandard2.0/Microsoft.Extensions.Configuration.Abstractions.dll": {
            "assemblyVersion": "5.0.0.0",
            "fileVersion": "5.0.20.51904"
          }
        }
      },
      "Microsoft.Extensions.Configuration.Binder/5.0.0": {
        "dependencies": {
          "Microsoft.Extensions.Configuration.Abstractions": "5.0.0"
        },
        "runtime": {
          "lib/netstandard2.0/Microsoft.Extensions.Configuration.Binder.dll": {
            "assemblyVersion": "5.0.0.0",
            "fileVersion": "5.0.20.51904"
          }
        }
      },
      "Microsoft.Extensions.Configuration.CommandLine/5.0.0": {
        "dependencies": {
          "Microsoft.Extensions.Configuration": "5.0.0",
          "Microsoft.Extensions.Configuration.Abstractions": "5.0.0"
        },
        "runtime": {
          "lib/netstandard2.0/Microsoft.Extensions.Configuration.CommandLine.dll": {
            "assemblyVersion": "5.0.0.0",
            "fileVersion": "5.0.20.51904"
          }
        }
      },
      "Microsoft.Extensions.Configuration.EnvironmentVariables/5.0.0": {
        "dependencies": {
          "Microsoft.Extensions.Configuration": "5.0.0",
          "Microsoft.Extensions.Configuration.Abstractions": "5.0.0"
        },
        "runtime": {
          "lib/netstandard2.0/Microsoft.Extensions.Configuration.EnvironmentVariables.dll": {
            "assemblyVersion": "5.0.0.0",
            "fileVersion": "5.0.20.51904"
          }
        }
      },
      "Microsoft.Extensions.Configuration.FileExtensions/5.0.0": {
        "dependencies": {
          "Microsoft.Extensions.Configuration": "5.0.0",
          "Microsoft.Extensions.Configuration.Abstractions": "5.0.0",
          "Microsoft.Extensions.FileProviders.Abstractions": "5.0.0",
          "Microsoft.Extensions.FileProviders.Physical": "5.0.0",
          "Microsoft.Extensions.Primitives": "5.0.0"
        },
        "runtime": {
          "lib/netstandard2.0/Microsoft.Extensions.Configuration.FileExtensions.dll": {
            "assemblyVersion": "5.0.0.0",
            "fileVersion": "5.0.20.51904"
          }
        }
      },
      "Microsoft.Extensions.Configuration.Json/5.0.0": {
        "dependencies": {
          "Microsoft.Extensions.Configuration": "5.0.0",
          "Microsoft.Extensions.Configuration.Abstractions": "5.0.0",
          "Microsoft.Extensions.Configuration.FileExtensions": "5.0.0",
          "Microsoft.Extensions.FileProviders.Abstractions": "5.0.0"
        },
        "runtime": {
          "lib/netstandard2.1/Microsoft.Extensions.Configuration.Json.dll": {
            "assemblyVersion": "5.0.0.0",
            "fileVersion": "5.0.20.51904"
          }
        }
      },
      "Microsoft.Extensions.Configuration.UserSecrets/5.0.0": {
        "dependencies": {
          "Microsoft.Extensions.Configuration.Abstractions": "5.0.0",
          "Microsoft.Extensions.Configuration.Json": "5.0.0",
          "Microsoft.Extensions.FileProviders.Abstractions": "5.0.0",
          "Microsoft.Extensions.FileProviders.Physical": "5.0.0"
        },
        "runtime": {
          "lib/netstandard2.0/Microsoft.Extensions.Configuration.UserSecrets.dll": {
            "assemblyVersion": "5.0.0.0",
            "fileVersion": "5.0.20.51904"
          }
        }
      },
      "Microsoft.Extensions.DependencyInjection/5.0.1": {
        "dependencies": {
          "Microsoft.Extensions.DependencyInjection.Abstractions": "5.0.0"
        },
        "runtime": {
          "lib/net5.0/Microsoft.Extensions.DependencyInjection.dll": {
            "assemblyVersion": "5.0.0.1",
            "fileVersion": "5.0.120.57516"
          }
        }
      },
      "Microsoft.Extensions.DependencyInjection.Abstractions/5.0.0": {
        "runtime": {
          "lib/netstandard2.0/Microsoft.Extensions.DependencyInjection.Abstractions.dll": {
            "assemblyVersion": "5.0.0.0",
            "fileVersion": "5.0.20.51904"
          }
        }
      },
      "Microsoft.Extensions.FileProviders.Abstractions/5.0.0": {
        "dependencies": {
          "Microsoft.Extensions.Primitives": "5.0.0"
        },
        "runtime": {
          "lib/netstandard2.0/Microsoft.Extensions.FileProviders.Abstractions.dll": {
            "assemblyVersion": "5.0.0.0",
            "fileVersion": "5.0.20.51904"
          }
        }
      },
      "Microsoft.Extensions.FileProviders.Composite/5.0.0": {
        "dependencies": {
          "Microsoft.Extensions.FileProviders.Abstractions": "5.0.0",
          "Microsoft.Extensions.Primitives": "5.0.0"
        },
        "runtime": {
          "lib/netstandard2.0/Microsoft.Extensions.FileProviders.Composite.dll": {
            "assemblyVersion": "5.0.0.0",
            "fileVersion": "5.0.20.51904"
          }
        }
      },
      "Microsoft.Extensions.FileProviders.Embedded/5.0.17": {
        "dependencies": {
          "Microsoft.Extensions.FileProviders.Abstractions": "5.0.0"
        },
        "runtime": {
          "lib/net5.0/Microsoft.Extensions.FileProviders.Embedded.dll": {
            "assemblyVersion": "5.0.0.0",
            "fileVersion": "5.0.1722.21507"
          }
        }
      },
      "Microsoft.Extensions.FileProviders.Physical/5.0.0": {
        "dependencies": {
          "Microsoft.Extensions.FileProviders.Abstractions": "5.0.0",
          "Microsoft.Extensions.FileSystemGlobbing": "5.0.0",
          "Microsoft.Extensions.Primitives": "5.0.0"
        },
        "runtime": {
          "lib/netstandard2.0/Microsoft.Extensions.FileProviders.Physical.dll": {
            "assemblyVersion": "5.0.0.0",
            "fileVersion": "5.0.20.51904"
          }
        }
      },
      "Microsoft.Extensions.FileSystemGlobbing/5.0.0": {
        "runtime": {
          "lib/netstandard2.0/Microsoft.Extensions.FileSystemGlobbing.dll": {
            "assemblyVersion": "5.0.0.0",
            "fileVersion": "5.0.20.51904"
          }
        }
      },
      "Microsoft.Extensions.Hosting.Abstractions/5.0.0": {
        "dependencies": {
          "Microsoft.Extensions.Configuration.Abstractions": "5.0.0",
          "Microsoft.Extensions.DependencyInjection.Abstractions": "5.0.0",
          "Microsoft.Extensions.FileProviders.Abstractions": "5.0.0"
        },
        "runtime": {
          "lib/netstandard2.1/Microsoft.Extensions.Hosting.Abstractions.dll": {
            "assemblyVersion": "5.0.0.0",
            "fileVersion": "5.0.20.51904"
          }
        }
      },
      "Microsoft.Extensions.Localization/5.0.5": {
        "dependencies": {
          "Microsoft.Extensions.DependencyInjection.Abstractions": "5.0.0",
          "Microsoft.Extensions.Localization.Abstractions": "5.0.5",
          "Microsoft.Extensions.Logging.Abstractions": "5.0.0",
          "Microsoft.Extensions.Options": "5.0.0"
        },
        "runtime": {
          "lib/net5.0/Microsoft.Extensions.Localization.dll": {
            "assemblyVersion": "5.0.0.0",
            "fileVersion": "5.0.521.16708"
          }
        }
      },
      "Microsoft.Extensions.Localization.Abstractions/5.0.5": {
        "runtime": {
          "lib/net5.0/Microsoft.Extensions.Localization.Abstractions.dll": {
            "assemblyVersion": "5.0.0.0",
            "fileVersion": "5.0.521.16708"
          }
        }
      },
      "Microsoft.Extensions.Logging/5.0.0": {
        "dependencies": {
          "Microsoft.Extensions.DependencyInjection": "5.0.1",
          "Microsoft.Extensions.DependencyInjection.Abstractions": "5.0.0",
          "Microsoft.Extensions.Logging.Abstractions": "5.0.0",
          "Microsoft.Extensions.Options": "5.0.0"
        },
        "runtime": {
          "lib/netstandard2.1/Microsoft.Extensions.Logging.dll": {
            "assemblyVersion": "5.0.0.0",
            "fileVersion": "5.0.20.51904"
          }
        }
      },
      "Microsoft.Extensions.Logging.Abstractions/5.0.0": {
        "runtime": {
          "lib/netstandard2.0/Microsoft.Extensions.Logging.Abstractions.dll": {
            "assemblyVersion": "5.0.0.0",
            "fileVersion": "5.0.20.51904"
          }
        }
      },
      "Microsoft.Extensions.Options/5.0.0": {
        "dependencies": {
          "Microsoft.Extensions.DependencyInjection.Abstractions": "5.0.0",
          "Microsoft.Extensions.Primitives": "5.0.0"
        },
        "runtime": {
          "lib/net5.0/Microsoft.Extensions.Options.dll": {
            "assemblyVersion": "5.0.0.0",
            "fileVersion": "5.0.20.51904"
          }
        }
      },
      "Microsoft.Extensions.Options.ConfigurationExtensions/5.0.0": {
        "dependencies": {
          "Microsoft.Extensions.Configuration.Abstractions": "5.0.0",
          "Microsoft.Extensions.Configuration.Binder": "5.0.0",
          "Microsoft.Extensions.DependencyInjection.Abstractions": "5.0.0",
          "Microsoft.Extensions.Options": "5.0.0",
          "Microsoft.Extensions.Primitives": "5.0.0"
        },
        "runtime": {
          "lib/netstandard2.0/Microsoft.Extensions.Options.ConfigurationExtensions.dll": {
            "assemblyVersion": "5.0.0.0",
            "fileVersion": "5.0.20.51904"
          }
        }
      },
      "Microsoft.Extensions.Primitives/5.0.0": {
        "runtime": {
          "lib/netcoreapp3.0/Microsoft.Extensions.Primitives.dll": {
            "assemblyVersion": "5.0.0.0",
            "fileVersion": "5.0.20.51904"
          }
        }
      },
      "Microsoft.NETCore.Platforms/3.1.0": {},
      "Microsoft.NETCore.Targets/1.1.0": {},
      "Microsoft.Win32.Registry/4.7.0": {
        "dependencies": {
          "System.Security.AccessControl": "4.7.0",
          "System.Security.Principal.Windows": "4.7.0"
        }
      },
      "MongoDB.Bson/2.12.1": {
        "dependencies": {
          "System.Runtime.CompilerServices.Unsafe": "5.0.0"
        },
        "runtime": {
          "lib/netstandard2.1/MongoDB.Bson.dll": {
            "assemblyVersion": "2.12.1.0",
            "fileVersion": "2.12.1.0"
          }
        }
      },
      "MongoDB.Driver/2.12.1": {
        "dependencies": {
          "MongoDB.Bson": "2.12.1",
          "MongoDB.Driver.Core": "2.12.1",
          "MongoDB.Libmongocrypt": "1.2.1"
        },
        "runtime": {
          "lib/netstandard2.1/MongoDB.Driver.dll": {
            "assemblyVersion": "2.12.1.0",
            "fileVersion": "2.12.1.0"
          }
        }
      },
      "MongoDB.Driver.Core/2.12.1": {
        "dependencies": {
          "DnsClient": "1.4.0",
          "MongoDB.Bson": "2.12.1",
          "MongoDB.Libmongocrypt": "1.2.1",
          "SharpCompress": "0.23.0",
          "System.Buffers": "4.5.1"
        },
        "runtime": {
          "lib/netstandard2.1/MongoDB.Driver.Core.dll": {
            "assemblyVersion": "2.12.1.0",
            "fileVersion": "2.12.1.0"
          }
        },
        "runtimeTargets": {
          "runtimes/win/native/libzstd.dll": {
            "rid": "win",
            "assetType": "native",
            "fileVersion": "0.0.0.0"
          },
          "runtimes/win/native/snappy32.dll": {
            "rid": "win",
            "assetType": "native",
            "fileVersion": "0.0.0.0"
          },
          "runtimes/win/native/snappy64.dll": {
            "rid": "win",
            "assetType": "native",
            "fileVersion": "0.0.0.0"
          }
        }
      },
      "MongoDB.Libmongocrypt/1.2.1": {
        "runtime": {
          "lib/netstandard2.1/MongoDB.Libmongocrypt.dll": {
            "assemblyVersion": "1.2.1.0",
            "fileVersion": "1.2.1.0"
          }
        },
        "runtimeTargets": {
          "runtimes/linux/native/libmongocrypt.so": {
            "rid": "linux",
            "assetType": "native",
            "fileVersion": "0.0.0.0"
          },
          "runtimes/osx/native/libmongocrypt.dylib": {
            "rid": "osx",
            "assetType": "native",
            "fileVersion": "0.0.0.0"
          },
          "runtimes/win/native/mongocrypt.dll": {
            "rid": "win",
            "assetType": "native",
            "fileVersion": "0.0.0.0"
          }
        }
      },
      "Newtonsoft.Json/13.0.1": {
        "runtime": {
          "lib/netstandard2.0/Newtonsoft.Json.dll": {
            "assemblyVersion": "13.0.0.0",
            "fileVersion": "13.0.1.25517"
          }
        }
      },
      "Nito.AsyncEx.Context/5.1.0": {
        "dependencies": {
          "Nito.AsyncEx.Tasks": "5.1.0"
        },
        "runtime": {
          "lib/netstandard2.0/Nito.AsyncEx.Context.dll": {
            "assemblyVersion": "5.1.0.0",
            "fileVersion": "5.1.0.0"
          }
        }
      },
      "Nito.AsyncEx.Coordination/5.1.0": {
        "dependencies": {
          "Nito.AsyncEx.Tasks": "5.1.0",
          "Nito.Collections.Deque": "1.1.0"
        },
        "runtime": {
          "lib/netstandard2.0/Nito.AsyncEx.Coordination.dll": {
            "assemblyVersion": "5.1.0.0",
            "fileVersion": "5.1.0.0"
          }
        }
      },
      "Nito.AsyncEx.Tasks/5.1.0": {
        "dependencies": {
          "Nito.Disposables": "2.2.0"
        },
        "runtime": {
          "lib/netstandard2.0/Nito.AsyncEx.Tasks.dll": {
            "assemblyVersion": "5.1.0.0",
            "fileVersion": "5.1.0.0"
          }
        }
      },
      "Nito.Collections.Deque/1.1.0": {
        "runtime": {
          "lib/netstandard2.0/Nito.Collections.Deque.dll": {
            "assemblyVersion": "1.1.0.0",
            "fileVersion": "1.1.0.0"
          }
        }
      },
      "Nito.Disposables/2.2.0": {
        "dependencies": {
          "System.Collections.Immutable": "5.0.0"
        },
        "runtime": {
          "lib/netstandard2.1/Nito.Disposables.dll": {
            "assemblyVersion": "2.2.0.0",
            "fileVersion": "2.2.0.0"
          }
        }
      },
      "Portable.BouncyCastle/1.8.5.2": {
        "runtime": {
          "lib/netstandard2.0/BouncyCastle.Crypto.dll": {
            "assemblyVersion": "1.8.5.0",
            "fileVersion": "1.8.5.2"
          }
        }
      },
      "SharpCompress/0.23.0": {
        "dependencies": {
          "System.Text.Encoding.CodePages": "4.5.1"
        },
        "runtime": {
          "lib/netstandard2.0/SharpCompress.dll": {
            "assemblyVersion": "0.23.0.0",
            "fileVersion": "0.23.0.0"
          }
        }
      },
      "System.Buffers/4.5.1": {},
      "System.CodeDom/4.7.0": {
        "runtime": {
          "lib/netstandard2.0/System.CodeDom.dll": {
            "assemblyVersion": "4.0.3.0",
            "fileVersion": "4.700.19.56404"
          }
        }
      },
      "System.Collections/4.3.0": {
        "dependencies": {
          "Microsoft.NETCore.Platforms": "3.1.0",
          "Microsoft.NETCore.Targets": "1.1.0",
          "System.Runtime": "4.3.0"
        }
      },
      "System.Collections.Immutable/5.0.0": {},
      "System.ComponentModel.Annotations/5.0.0": {},
      "System.Diagnostics.Debug/4.3.0": {
        "dependencies": {
          "Microsoft.NETCore.Platforms": "3.1.0",
          "Microsoft.NETCore.Targets": "1.1.0",
          "System.Runtime": "4.3.0"
        }
      },
      "System.Globalization/4.3.0": {
        "dependencies": {
          "Microsoft.NETCore.Platforms": "3.1.0",
          "Microsoft.NETCore.Targets": "1.1.0",
          "System.Runtime": "4.3.0"
        }
      },
      "System.IO/4.3.0": {
        "dependencies": {
          "Microsoft.NETCore.Platforms": "3.1.0",
          "Microsoft.NETCore.Targets": "1.1.0",
          "System.Runtime": "4.3.0",
          "System.Text.Encoding": "4.3.0",
          "System.Threading.Tasks": "4.3.0"
        }
      },
      "System.Linq/4.3.0": {
        "dependencies": {
          "System.Collections": "4.3.0",
          "System.Diagnostics.Debug": "4.3.0",
          "System.Resources.ResourceManager": "4.3.0",
          "System.Runtime": "4.3.0",
          "System.Runtime.Extensions": "4.3.0"
        }
      },
      "System.Linq.Dynamic.Core/1.2.9": {
        "runtime": {
          "lib/netcoreapp2.1/System.Linq.Dynamic.Core.dll": {
            "assemblyVersion": "1.2.9.0",
            "fileVersion": "1.2.9.0"
          }
        }
      },
      "System.Linq.Expressions/4.3.0": {
        "dependencies": {
          "System.Collections": "4.3.0",
          "System.Diagnostics.Debug": "4.3.0",
          "System.Globalization": "4.3.0",
          "System.IO": "4.3.0",
          "System.Linq": "4.3.0",
          "System.ObjectModel": "4.3.0",
          "System.Reflection": "4.3.0",
          "System.Reflection.Emit": "4.7.0",
          "System.Reflection.Emit.ILGeneration": "4.3.0",
          "System.Reflection.Emit.Lightweight": "4.3.0",
          "System.Reflection.Extensions": "4.3.0",
          "System.Reflection.Primitives": "4.3.0",
          "System.Reflection.TypeExtensions": "4.3.0",
          "System.Resources.ResourceManager": "4.3.0",
          "System.Runtime": "4.3.0",
          "System.Runtime.Extensions": "4.3.0",
          "System.Threading": "4.3.0"
        }
      },
      "System.Linq.Queryable/4.3.0": {
        "dependencies": {
          "System.Collections": "4.3.0",
          "System.Diagnostics.Debug": "4.3.0",
          "System.Linq": "4.3.0",
          "System.Linq.Expressions": "4.3.0",
          "System.Reflection": "4.3.0",
          "System.Reflection.Extensions": "4.3.0",
          "System.Resources.ResourceManager": "4.3.0",
          "System.Runtime": "4.3.0"
        }
      },
      "System.Management/4.7.0": {
        "dependencies": {
          "Microsoft.NETCore.Platforms": "3.1.0",
          "Microsoft.Win32.Registry": "4.7.0",
          "System.CodeDom": "4.7.0"
        },
        "runtime": {
          "lib/netstandard2.0/System.Management.dll": {
            "assemblyVersion": "4.0.1.0",
            "fileVersion": "4.700.19.56404"
          }
        },
        "runtimeTargets": {
          "runtimes/win/lib/netcoreapp2.0/System.Management.dll": {
            "rid": "win",
            "assetType": "runtime",
            "assemblyVersion": "4.0.1.0",
            "fileVersion": "4.700.19.56404"
          }
        }
      },
      "System.ObjectModel/4.3.0": {
        "dependencies": {
          "System.Collections": "4.3.0",
          "System.Diagnostics.Debug": "4.3.0",
          "System.Resources.ResourceManager": "4.3.0",
          "System.Runtime": "4.3.0",
          "System.Threading": "4.3.0"
        }
      },
      "System.Reflection/4.3.0": {
        "dependencies": {
          "Microsoft.NETCore.Platforms": "3.1.0",
          "Microsoft.NETCore.Targets": "1.1.0",
          "System.IO": "4.3.0",
          "System.Reflection.Primitives": "4.3.0",
          "System.Runtime": "4.3.0"
        }
      },
      "System.Reflection.Emit/4.7.0": {},
      "System.Reflection.Emit.ILGeneration/4.3.0": {
        "dependencies": {
          "System.Reflection": "4.3.0",
          "System.Reflection.Primitives": "4.3.0",
          "System.Runtime": "4.3.0"
        }
      },
      "System.Reflection.Emit.Lightweight/4.3.0": {
        "dependencies": {
          "System.Reflection": "4.3.0",
          "System.Reflection.Emit.ILGeneration": "4.3.0",
          "System.Reflection.Primitives": "4.3.0",
          "System.Runtime": "4.3.0"
        }
      },
      "System.Reflection.Extensions/4.3.0": {
        "dependencies": {
          "Microsoft.NETCore.Platforms": "3.1.0",
          "Microsoft.NETCore.Targets": "1.1.0",
          "System.Reflection": "4.3.0",
          "System.Runtime": "4.3.0"
        }
      },
      "System.Reflection.Primitives/4.3.0": {
        "dependencies": {
          "Microsoft.NETCore.Platforms": "3.1.0",
          "Microsoft.NETCore.Targets": "1.1.0",
          "System.Runtime": "4.3.0"
        }
      },
      "System.Reflection.TypeExtensions/4.3.0": {
        "dependencies": {
          "System.Reflection": "4.3.0",
          "System.Runtime": "4.3.0"
        }
      },
      "System.Resources.ResourceManager/4.3.0": {
        "dependencies": {
          "Microsoft.NETCore.Platforms": "3.1.0",
          "Microsoft.NETCore.Targets": "1.1.0",
          "System.Globalization": "4.3.0",
          "System.Reflection": "4.3.0",
          "System.Runtime": "4.3.0"
        }
      },
      "System.Runtime/4.3.0": {
        "dependencies": {
          "Microsoft.NETCore.Platforms": "3.1.0",
          "Microsoft.NETCore.Targets": "1.1.0"
        }
      },
      "System.Runtime.CompilerServices.Unsafe/5.0.0": {},
      "System.Runtime.Extensions/4.3.0": {
        "dependencies": {
          "Microsoft.NETCore.Platforms": "3.1.0",
          "Microsoft.NETCore.Targets": "1.1.0",
          "System.Runtime": "4.3.0"
        }
      },
      "System.Runtime.Loader/4.3.0": {
        "dependencies": {
          "System.IO": "4.3.0",
          "System.Reflection": "4.3.0",
          "System.Runtime": "4.3.0"
        }
      },
      "System.Security.AccessControl/4.7.0": {
        "dependencies": {
          "Microsoft.NETCore.Platforms": "3.1.0",
          "System.Security.Principal.Windows": "4.7.0"
        }
      },
      "System.Security.Principal.Windows/4.7.0": {},
      "System.Text.Encoding/4.3.0": {
        "dependencies": {
          "Microsoft.NETCore.Platforms": "3.1.0",
          "Microsoft.NETCore.Targets": "1.1.0",
          "System.Runtime": "4.3.0"
        }
      },
      "System.Text.Encoding.CodePages/4.5.1": {
        "dependencies": {
          "Microsoft.NETCore.Platforms": "3.1.0",
          "System.Runtime.CompilerServices.Unsafe": "5.0.0"
        }
      },
      "System.Threading/4.3.0": {
        "dependencies": {
          "System.Runtime": "4.3.0",
          "System.Threading.Tasks": "4.3.0"
        }
      },
      "System.Threading.Tasks/4.3.0": {
        "dependencies": {
          "Microsoft.NETCore.Platforms": "3.1.0",
          "Microsoft.NETCore.Targets": "1.1.0",
          "System.Runtime": "4.3.0"
        }
      },
      "TimeZoneConverter/3.4.0": {
        "runtime": {
          "lib/netstandard2.0/TimeZoneConverter.dll": {
            "assemblyVersion": "3.4.0.0",
            "fileVersion": "3.4.0.0"
          }
        }
      },
      "Volo.Abp.Auditing/4.3.0": {
        "dependencies": {
          "Volo.Abp.Data": "4.3.0",
          "Volo.Abp.Json": "4.3.0",
          "Volo.Abp.MultiTenancy": "4.3.0",
          "Volo.Abp.Security": "4.3.0",
          "Volo.Abp.Threading": "4.3.0",
          "Volo.Abp.Timing": "4.3.0"
        },
        "runtime": {
          "lib/netstandard2.0/Volo.Abp.Auditing.dll": {
            "assemblyVersion": "4.3.0.0",
            "fileVersion": "4.3.0.0"
          }
        }
      },
      "Volo.Abp.Authorization.Abstractions/4.3.0": {
        "dependencies": {
          "Microsoft.AspNetCore.Authorization": "5.0.5",
          "Volo.Abp.MultiTenancy": "4.3.0"
        },
        "runtime": {
          "lib/netstandard2.0/Volo.Abp.Authorization.Abstractions.dll": {
            "assemblyVersion": "4.3.0.0",
            "fileVersion": "4.3.0.0"
          }
        }
      },
      "Volo.Abp.AutoMapper/4.3.0": {
        "dependencies": {
          "AutoMapper": "10.1.1",
          "Volo.Abp.Auditing": "4.3.0",
          "Volo.Abp.ObjectExtending": "4.3.0",
          "Volo.Abp.ObjectMapping": "4.3.0"
        },
        "runtime": {
          "lib/netstandard2.0/Volo.Abp.AutoMapper.dll": {
            "assemblyVersion": "4.3.0.0",
            "fileVersion": "4.3.0.0"
          }
        }
      },
      "Volo.Abp.BlobStoring/4.3.0": {
        "dependencies": {
          "Volo.Abp.Core": "4.3.0",
          "Volo.Abp.MultiTenancy": "4.3.0",
          "Volo.Abp.Threading": "4.3.0"
        },
        "runtime": {
          "lib/netstandard2.0/Volo.Abp.BlobStoring.dll": {
            "assemblyVersion": "4.3.0.0",
            "fileVersion": "4.3.0.0"
          }
        }
      },
      "Volo.Abp.Commercial.Core/4.3.0": {
        "dependencies": {
          "Newtonsoft.Json": "13.0.1",
          "Portable.BouncyCastle": "1.8.5.2",
          "System.Management": "4.7.0",
          "Volo.Abp.Core": "4.3.0"
        },
        "runtime": {
          "lib/netstandard2.0/Volo.Abp.Commercial.Core.dll": {
            "assemblyVersion": "4.3.0.0",
            "fileVersion": "4.3.0.0"
          }
        }
      },
      "Volo.Abp.Core/4.3.0": {
        "dependencies": {
          "JetBrains.Annotations": "2020.3.0",
          "Microsoft.Extensions.Configuration.CommandLine": "5.0.0",
          "Microsoft.Extensions.Configuration.EnvironmentVariables": "5.0.0",
          "Microsoft.Extensions.Configuration.UserSecrets": "5.0.0",
          "Microsoft.Extensions.DependencyInjection": "5.0.1",
          "Microsoft.Extensions.Hosting.Abstractions": "5.0.0",
          "Microsoft.Extensions.Localization": "5.0.5",
          "Microsoft.Extensions.Logging": "5.0.0",
          "Microsoft.Extensions.Options": "5.0.0",
          "Microsoft.Extensions.Options.ConfigurationExtensions": "5.0.0",
          "Nito.AsyncEx.Context": "5.1.0",
          "Nito.AsyncEx.Coordination": "5.1.0",
          "System.Collections.Immutable": "5.0.0",
          "System.ComponentModel.Annotations": "5.0.0",
          "System.Linq.Dynamic.Core": "1.2.9",
          "System.Linq.Queryable": "4.3.0",
          "System.Runtime.Loader": "4.3.0"
        },
        "runtime": {
          "lib/netstandard2.0/Volo.Abp.Core.dll": {
            "assemblyVersion": "4.3.0.0",
            "fileVersion": "4.3.0.0"
          }
        }
      },
      "Volo.Abp.Data/4.3.0": {
        "dependencies": {
          "Volo.Abp.EventBus.Abstractions": "4.3.0",
          "Volo.Abp.ObjectExtending": "4.3.0",
          "Volo.Abp.Uow": "4.3.0"
        },
        "runtime": {
          "lib/netstandard2.0/Volo.Abp.Data.dll": {
            "assemblyVersion": "4.3.0.0",
            "fileVersion": "4.3.0.0"
          }
        }
      },
      "Volo.Abp.Ddd.Domain/4.3.0": {
        "dependencies": {
          "Volo.Abp.Auditing": "4.3.0",
          "Volo.Abp.Data": "4.3.0",
          "Volo.Abp.EventBus": "4.3.0",
          "Volo.Abp.ExceptionHandling": "4.3.0",
          "Volo.Abp.Guids": "4.3.0",
          "Volo.Abp.MultiTenancy": "4.3.0",
          "Volo.Abp.ObjectMapping": "4.3.0",
          "Volo.Abp.Specifications": "4.3.0",
          "Volo.Abp.Threading": "4.3.0",
          "Volo.Abp.Timing": "4.3.0",
          "Volo.Abp.Uow": "4.3.0"
        },
        "runtime": {
          "lib/netstandard2.0/Volo.Abp.Ddd.Domain.dll": {
            "assemblyVersion": "4.3.0.0",
            "fileVersion": "4.3.0.0"
          }
        }
      },
      "Volo.Abp.EventBus/4.3.0": {
        "dependencies": {
          "Volo.Abp.EventBus.Abstractions": "4.3.0",
          "Volo.Abp.MultiTenancy": "4.3.0"
        },
        "runtime": {
          "lib/netstandard2.0/Volo.Abp.EventBus.dll": {
            "assemblyVersion": "4.3.0.0",
            "fileVersion": "4.3.0.0"
          }
        }
      },
      "Volo.Abp.EventBus.Abstractions/4.3.0": {
        "dependencies": {
          "Volo.Abp.Core": "4.3.0"
        },
        "runtime": {
          "lib/netstandard2.0/Volo.Abp.EventBus.Abstractions.dll": {
            "assemblyVersion": "4.3.0.0",
            "fileVersion": "4.3.0.0"
          }
        }
      },
      "Volo.Abp.ExceptionHandling/4.3.0": {
        "dependencies": {
          "Microsoft.Extensions.FileProviders.Embedded": "5.0.17",
          "Volo.Abp.Localization": "4.3.0"
        },
        "runtime": {
          "lib/netstandard2.0/Volo.Abp.ExceptionHandling.dll": {
            "assemblyVersion": "4.3.0.0",
            "fileVersion": "4.3.0.0"
          }
        }
      },
      "Volo.Abp.Features/4.3.0": {
        "dependencies": {
          "Volo.Abp.Authorization.Abstractions": "4.3.0",
          "Volo.Abp.Localization": "4.3.0",
          "Volo.Abp.MultiTenancy": "4.3.0",
          "Volo.Abp.Validation": "4.3.0"
        },
        "runtime": {
          "lib/netstandard2.0/Volo.Abp.Features.dll": {
            "assemblyVersion": "4.3.0.0",
            "fileVersion": "4.3.0.0"
          }
        }
      },
      "Volo.Abp.Guids/4.3.0": {
        "dependencies": {
          "Volo.Abp.Core": "4.3.0"
        },
        "runtime": {
          "lib/netstandard2.0/Volo.Abp.Guids.dll": {
            "assemblyVersion": "4.3.0.0",
            "fileVersion": "4.3.0.0"
          }
        }
      },
      "Volo.Abp.Json/4.3.0": {
        "dependencies": {
          "Newtonsoft.Json": "13.0.1",
          "Volo.Abp.ObjectExtending": "4.3.0",
          "Volo.Abp.Timing": "4.3.0"
        },
        "runtime": {
          "lib/netstandard2.0/Volo.Abp.Json.dll": {
            "assemblyVersion": "4.3.0.0",
            "fileVersion": "4.3.0.0"
          }
        }
      },
      "Volo.Abp.Localization/4.3.0": {
        "dependencies": {
          "Volo.Abp.Localization.Abstractions": "4.3.0",
          "Volo.Abp.Settings": "4.3.0",
          "Volo.Abp.VirtualFileSystem": "4.3.0"
        },
        "runtime": {
          "lib/netstandard2.0/Volo.Abp.Localization.dll": {
            "assemblyVersion": "4.3.0.0",
            "fileVersion": "4.3.0.0"
          }
        }
      },
      "Volo.Abp.Localization.Abstractions/4.3.0": {
        "dependencies": {
          "Volo.Abp.Core": "4.3.0"
        },
        "runtime": {
          "lib/netstandard2.0/Volo.Abp.Localization.Abstractions.dll": {
            "assemblyVersion": "4.3.0.0",
            "fileVersion": "4.3.0.0"
          }
        }
      },
      "Volo.Abp.MongoDB/4.3.0": {
        "dependencies": {
          "MongoDB.Driver": "2.12.1",
          "Volo.Abp.Ddd.Domain": "4.3.0"
        },
        "runtime": {
          "lib/netstandard2.0/Volo.Abp.MongoDB.dll": {
            "assemblyVersion": "4.3.0.0",
            "fileVersion": "4.3.0.0"
          }
        }
      },
      "Volo.Abp.MultiTenancy/4.3.0": {
        "dependencies": {
          "Volo.Abp.Data": "4.3.0",
          "Volo.Abp.EventBus.Abstractions": "4.3.0",
          "Volo.Abp.Security": "4.3.0"
        },
        "runtime": {
          "lib/netstandard2.0/Volo.Abp.MultiTenancy.dll": {
            "assemblyVersion": "4.3.0.0",
            "fileVersion": "4.3.0.0"
          }
        }
      },
      "Volo.Abp.ObjectExtending/4.3.0": {
        "dependencies": {
          "Volo.Abp.Localization.Abstractions": "4.3.0",
          "Volo.Abp.Validation.Abstractions": "4.3.0"
        },
        "runtime": {
          "lib/netstandard2.0/Volo.Abp.ObjectExtending.dll": {
            "assemblyVersion": "4.3.0.0",
            "fileVersion": "4.3.0.0"
          }
        }
      },
      "Volo.Abp.ObjectMapping/4.3.0": {
        "dependencies": {
          "Volo.Abp.Core": "4.3.0"
        },
        "runtime": {
          "lib/netstandard2.0/Volo.Abp.ObjectMapping.dll": {
            "assemblyVersion": "4.3.0.0",
            "fileVersion": "4.3.0.0"
          }
        }
      },
      "Volo.Abp.Security/4.3.0": {
        "dependencies": {
          "Volo.Abp.Core": "4.3.0"
        },
        "runtime": {
          "lib/netstandard2.0/Volo.Abp.Security.dll": {
            "assemblyVersion": "4.3.0.0",
            "fileVersion": "4.3.0.0"
          }
        }
      },
      "Volo.Abp.Settings/4.3.0": {
        "dependencies": {
          "Volo.Abp.Localization.Abstractions": "4.3.0",
          "Volo.Abp.MultiTenancy": "4.3.0",
          "Volo.Abp.Security": "4.3.0"
        },
        "runtime": {
          "lib/netstandard2.0/Volo.Abp.Settings.dll": {
            "assemblyVersion": "4.3.0.0",
            "fileVersion": "4.3.0.0"
          }
        }
      },
      "Volo.Abp.Specifications/4.3.0": {
        "dependencies": {
          "Volo.Abp.Core": "4.3.0"
        },
        "runtime": {
          "lib/netstandard2.0/Volo.Abp.Specifications.dll": {
            "assemblyVersion": "4.3.0.0",
            "fileVersion": "4.3.0.0"
          }
        }
      },
      "Volo.Abp.Threading/4.3.0": {
        "dependencies": {
          "Volo.Abp.Core": "4.3.0"
        },
        "runtime": {
          "lib/netstandard2.0/Volo.Abp.Threading.dll": {
            "assemblyVersion": "4.3.0.0",
            "fileVersion": "4.3.0.0"
          }
        }
      },
      "Volo.Abp.Timing/4.3.0": {
        "dependencies": {
          "TimeZoneConverter": "3.4.0",
          "Volo.Abp.Localization": "4.3.0",
          "Volo.Abp.Settings": "4.3.0"
        },
        "runtime": {
          "lib/netstandard2.0/Volo.Abp.Timing.dll": {
            "assemblyVersion": "4.3.0.0",
            "fileVersion": "4.3.0.0"
          }
        }
      },
      "Volo.Abp.Uow/4.3.0": {
        "dependencies": {
          "Volo.Abp.Core": "4.3.0"
        },
        "runtime": {
          "lib/netstandard2.0/Volo.Abp.Uow.dll": {
            "assemblyVersion": "4.3.0.0",
            "fileVersion": "4.3.0.0"
          }
        }
      },
      "Volo.Abp.Validation/4.3.0": {
        "dependencies": {
          "Volo.Abp.Localization": "4.3.0",
          "Volo.Abp.Validation.Abstractions": "4.3.0"
        },
        "runtime": {
          "lib/netstandard2.0/Volo.Abp.Validation.dll": {
            "assemblyVersion": "4.3.0.0",
            "fileVersion": "4.3.0.0"
          }
        }
      },
      "Volo.Abp.Validation.Abstractions/4.3.0": {
        "dependencies": {
          "Volo.Abp.Core": "4.3.0"
        },
        "runtime": {
          "lib/netstandard2.0/Volo.Abp.Validation.Abstractions.dll": {
            "assemblyVersion": "4.3.0.0",
            "fileVersion": "4.3.0.0"
          }
        }
      },
      "Volo.Abp.VirtualFileSystem/4.3.0": {
        "dependencies": {
          "Microsoft.Extensions.FileProviders.Composite": "5.0.0",
          "Microsoft.Extensions.FileProviders.Embedded": "5.0.17",
          "Microsoft.Extensions.FileProviders.Physical": "5.0.0",
          "Volo.Abp.Core": "4.3.0"
        },
        "runtime": {
          "lib/netstandard2.0/Volo.Abp.VirtualFileSystem.dll": {
            "assemblyVersion": "4.3.0.0",
            "fileVersion": "4.3.0.0"
          }
        }
      },
      "Volo.FileManagement.Domain/1.0.0": {
        "dependencies": {
          "Volo.Abp.AutoMapper": "4.3.0",
          "Volo.Abp.BlobStoring": "4.3.0",
          "Volo.Abp.Commercial.Core": "4.3.0",
          "Volo.Abp.Ddd.Domain": "4.3.0",
          "Volo.FileManagement.Domain.Shared": "1.0.0"
        },
        "runtime": {
          "Volo.FileManagement.Domain.dll": {}
        }
      },
      "Volo.FileManagement.Domain.Shared/1.0.0": {
        "dependencies": {
          "Microsoft.Extensions.FileProviders.Embedded": "5.0.17",
          "Volo.Abp.Commercial.Core": "4.3.0",
          "Volo.Abp.Features": "4.3.0",
          "Volo.Abp.Validation": "4.3.0"
        },
        "runtime": {
          "Volo.FileManagement.Domain.Shared.dll": {}
        }
      }
    }
  },
  "libraries": {
    "Volo.FileManagement.MongoDB/1.0.0": {
      "type": "project",
      "serviceable": false,
      "sha512": ""
    },
    "AutoMapper/10.1.1": {
      "type": "package",
      "serviceable": true,
      "sha512": "sha512-uMgbqOdu9ZG5cIOty0C85hzzayBH2i9BthnS5FlMqKtMSHDv4ts81a2jS1VFaDBVhlBeIqJ/kQKjQY95BZde9w==",
      "path": "automapper/10.1.1",
      "hashPath": "automapper.10.1.1.nupkg.sha512"
    },
    "DnsClient/1.4.0": {
      "type": "package",
      "serviceable": true,
      "sha512": "sha512-CO1NG1zQdV0nEAXmr/KppLZ0S1qkaPwV0kPX5YPgmYBtrBVh1XMYHM54IXy3RBJu1k4thFtpzwo4HNHqxiuFYw==",
      "path": "dnsclient/1.4.0",
      "hashPath": "dnsclient.1.4.0.nupkg.sha512"
    },
    "JetBrains.Annotations/2020.3.0": {
      "type": "package",
      "serviceable": true,
      "sha512": "sha512-FnX06vtxuoZnhZdR6UHt5kJ7HUC/syODfGLnhPDn1x5sXvvepNyCl4jMtPUzJfsPWh7q0Jo+AIYz5xaVbbyikA==",
      "path": "jetbrains.annotations/2020.3.0",
      "hashPath": "jetbrains.annotations.2020.3.0.nupkg.sha512"
    },
    "Microsoft.AspNetCore.Authorization/5.0.5": {
      "type": "package",
      "serviceable": true,
      "sha512": "sha512-pQSx1MrLJlKwlEclliO9aUwKxe9EKI2Mff39VE1t5VYOjqsMyI2ujWKGI6XAUsnmC0Bta67GZ1k4DbQZd7tJKg==",
      "path": "microsoft.aspnetcore.authorization/5.0.5",
      "hashPath": "microsoft.aspnetcore.authorization.5.0.5.nupkg.sha512"
    },
    "Microsoft.AspNetCore.Metadata/5.0.5": {
      "type": "package",
      "serviceable": true,
      "sha512": "sha512-SD+puPsFLQXWwzoMiXv8lpFGHyZg0gKp3OP2EXg3eRlwJQOMaUGMIqbCdfHGR4MBaUZtqY/tU68H1bzb6+FSxA==",
      "path": "microsoft.aspnetcore.metadata/5.0.5",
      "hashPath": "microsoft.aspnetcore.metadata.5.0.5.nupkg.sha512"
    },
    "Microsoft.CSharp/4.7.0": {
      "type": "package",
      "serviceable": true,
      "sha512": "sha512-pTj+D3uJWyN3My70i2Hqo+OXixq3Os2D1nJ2x92FFo6sk8fYS1m1WLNTs0Dc1uPaViH0YvEEwvzddQ7y4rhXmA==",
      "path": "microsoft.csharp/4.7.0",
      "hashPath": "microsoft.csharp.4.7.0.nupkg.sha512"
    },
    "Microsoft.Extensions.Configuration/5.0.0": {
      "type": "package",
      "serviceable": true,
      "sha512": "sha512-LN322qEKHjuVEhhXueTUe7RNePooZmS8aGid5aK2woX3NPjSnONFyKUc6+JknOS6ce6h2tCLfKPTBXE3mN/6Ag==",
      "path": "microsoft.extensions.configuration/5.0.0",
      "hashPath": "microsoft.extensions.configuration.5.0.0.nupkg.sha512"
    },
    "Microsoft.Extensions.Configuration.Abstractions/5.0.0": {
      "type": "package",
      "serviceable": true,
      "sha512": "sha512-ETjSBHMp3OAZ4HxGQYpwyGsD8Sw5FegQXphi0rpoGMT74S4+I2mm7XJEswwn59XAaKOzC15oDSOWEE8SzDCd6Q==",
      "path": "microsoft.extensions.configuration.abstractions/5.0.0",
      "hashPath": "microsoft.extensions.configuration.abstractions.5.0.0.nupkg.sha512"
    },
    "Microsoft.Extensions.Configuration.Binder/5.0.0": {
      "type": "package",
      "serviceable": true,
      "sha512": "sha512-Of1Irt1+NzWO+yEYkuDh5TpT4On7LKl98Q9iLqCdOZps6XXEWDj3AKtmyvzJPVXZe4apmkJJIiDL7rR1yC+hjQ==",
      "path": "microsoft.extensions.configuration.binder/5.0.0",
      "hashPath": "microsoft.extensions.configuration.binder.5.0.0.nupkg.sha512"
    },
    "Microsoft.Extensions.Configuration.CommandLine/5.0.0": {
      "type": "package",
      "serviceable": true,
      "sha512": "sha512-OelM+VQdhZ0XMXsEQBq/bt3kFzD+EBGqR4TAgFDRAye0JfvHAaRi+3BxCRcwqUAwDhV0U0HieljBGHlTgYseRA==",
      "path": "microsoft.extensions.configuration.commandline/5.0.0",
      "hashPath": "microsoft.extensions.configuration.commandline.5.0.0.nupkg.sha512"
    },
    "Microsoft.Extensions.Configuration.EnvironmentVariables/5.0.0": {
      "type": "package",
      "serviceable": true,
      "sha512": "sha512-fqh6y6hAi0Z0fRsb4B/mP9OkKkSlifh5osa+N/YSQ+/S2a//+zYApZMUC1XeP9fdjlgZoPQoZ72Q2eLHyKLddQ==",
      "path": "microsoft.extensions.configuration.environmentvariables/5.0.0",
      "hashPath": "microsoft.extensions.configuration.environmentvariables.5.0.0.nupkg.sha512"
    },
    "Microsoft.Extensions.Configuration.FileExtensions/5.0.0": {
      "type": "package",
      "serviceable": true,
      "sha512": "sha512-rRdspYKA18ViPOISwAihhCMbusHsARCOtDMwa23f+BGEdIjpKPlhs3LLjmKlxfhpGXBjIsS0JpXcChjRUN+PAw==",
      "path": "microsoft.extensions.configuration.fileextensions/5.0.0",
      "hashPath": "microsoft.extensions.configuration.fileextensions.5.0.0.nupkg.sha512"
    },
    "Microsoft.Extensions.Configuration.Json/5.0.0": {
      "type": "package",
      "serviceable": true,
      "sha512": "sha512-Pak8ymSUfdzPfBTLHxeOwcR32YDbuVfhnH2hkfOLnJNQd19ItlBdpMjIDY9C5O/nS2Sn9bzDMai0ZrvF7KyY/Q==",
      "path": "microsoft.extensions.configuration.json/5.0.0",
      "hashPath": "microsoft.extensions.configuration.json.5.0.0.nupkg.sha512"
    },
    "Microsoft.Extensions.Configuration.UserSecrets/5.0.0": {
      "type": "package",
      "serviceable": true,
      "sha512": "sha512-+tK3seG68106lN277YWQvqmfyI/89w0uTu/5Gz5VYSUu5TI4mqwsaWLlSmT9Bl1yW/i1Nr06gHJxqaqB5NU9Tw==",
      "path": "microsoft.extensions.configuration.usersecrets/5.0.0",
      "hashPath": "microsoft.extensions.configuration.usersecrets.5.0.0.nupkg.sha512"
    },
    "Microsoft.Extensions.DependencyInjection/5.0.1": {
      "type": "package",
      "serviceable": true,
      "sha512": "sha512-//mDNrYeiJ0eh/awFhDFJQzkRVra/njU5Y4fyK7X29g5HScrzbUkKOKlyTtygthcGFt4zNC8G5CFCjb/oizomA==",
      "path": "microsoft.extensions.dependencyinjection/5.0.1",
      "hashPath": "microsoft.extensions.dependencyinjection.5.0.1.nupkg.sha512"
    },
    "Microsoft.Extensions.DependencyInjection.Abstractions/5.0.0": {
      "type": "package",
      "serviceable": true,
      "sha512": "sha512-ORj7Zh81gC69TyvmcUm9tSzytcy8AVousi+IVRAI8nLieQjOFryRusSFh7+aLk16FN9pQNqJAiMd7BTKINK0kA==",
      "path": "microsoft.extensions.dependencyinjection.abstractions/5.0.0",
      "hashPath": "microsoft.extensions.dependencyinjection.abstractions.5.0.0.nupkg.sha512"
    },
    "Microsoft.Extensions.FileProviders.Abstractions/5.0.0": {
      "type": "package",
      "serviceable": true,
      "sha512": "sha512-iuZIiZ3mteEb+nsUqpGXKx2cGF+cv6gWPd5jqQI4hzqdiJ6I94ddLjKhQOuRW1lueHwocIw30xbSHGhQj0zjdQ==",
      "path": "microsoft.extensions.fileproviders.abstractions/5.0.0",
      "hashPath": "microsoft.extensions.fileproviders.abstractions.5.0.0.nupkg.sha512"
    },
    "Microsoft.Extensions.FileProviders.Composite/5.0.0": {
      "type": "package",
      "serviceable": true,
      "sha512": "sha512-0IoXXfkgKpYJB1t2lC0jPXAxuaywRNc9y2Mq96ZZNKBthL38vusa2UK73+Bm6Kq/9a5xNHJS6NhsSN+i5TEtkA==",
      "path": "microsoft.extensions.fileproviders.composite/5.0.0",
      "hashPath": "microsoft.extensions.fileproviders.composite.5.0.0.nupkg.sha512"
    },
    "Microsoft.Extensions.FileProviders.Embedded/5.0.17": {
      "type": "package",
      "serviceable": true,
      "sha512": "sha512-sSf5oTuE/BYju9hqvwL6CSwArv76mONplyVpYV2J8Il/m2mtuabx2o3YmTeO8aa5+2JaFWZlOX+2X3fWYEp79w==",
      "path": "microsoft.extensions.fileproviders.embedded/5.0.17",
      "hashPath": "microsoft.extensions.fileproviders.embedded.5.0.17.nupkg.sha512"
    },
    "Microsoft.Extensions.FileProviders.Physical/5.0.0": {
      "type": "package",
      "serviceable": true,
      "sha512": "sha512-1rkd8UO2qf21biwO7X0hL9uHP7vtfmdv/NLvKgCRHkdz1XnW8zVQJXyEYiN68WYpExgtVWn55QF0qBzgfh1mGg==",
      "path": "microsoft.extensions.fileproviders.physical/5.0.0",
      "hashPath": "microsoft.extensions.fileproviders.physical.5.0.0.nupkg.sha512"
    },
    "Microsoft.Extensions.FileSystemGlobbing/5.0.0": {
      "type": "package",
      "serviceable": true,
      "sha512": "sha512-ArliS8lGk8sWRtrWpqI8yUVYJpRruPjCDT+EIjrgkA/AAPRctlAkRISVZ334chAKktTLzD1+PK8F5IZpGedSqA==",
      "path": "microsoft.extensions.filesystemglobbing/5.0.0",
      "hashPath": "microsoft.extensions.filesystemglobbing.5.0.0.nupkg.sha512"
    },
    "Microsoft.Extensions.Hosting.Abstractions/5.0.0": {
      "type": "package",
      "serviceable": true,
      "sha512": "sha512-cbUOCePYBl1UhM+N2zmDSUyJ6cODulbtUd9gEzMFIK3RQDtP/gJsE08oLcBSXH3Q1RAQ0ex7OAB3HeTKB9bXpg==",
      "path": "microsoft.extensions.hosting.abstractions/5.0.0",
      "hashPath": "microsoft.extensions.hosting.abstractions.5.0.0.nupkg.sha512"
    },
    "Microsoft.Extensions.Localization/5.0.5": {
      "type": "package",
      "serviceable": true,
      "sha512": "sha512-XBX02xG84g6q+sGnUnBLuRHZt+ZfKIKeY+oLsSqSb/0Hy53lmCGiufCpMH4TZVqmpT3xmFb47YKhA4ROt0SwVQ==",
      "path": "microsoft.extensions.localization/5.0.5",
      "hashPath": "microsoft.extensions.localization.5.0.5.nupkg.sha512"
    },
    "Microsoft.Extensions.Localization.Abstractions/5.0.5": {
      "type": "package",
      "serviceable": true,
      "sha512": "sha512-NIKR1AE1gt4QfThQCxJnzQIYcp0sDijX61GtkrgDce0kqatAME7oZDnYQAZTYlm/QYXKNYqu+S58BW53QRM7oQ==",
      "path": "microsoft.extensions.localization.abstractions/5.0.5",
      "hashPath": "microsoft.extensions.localization.abstractions.5.0.5.nupkg.sha512"
    },
    "Microsoft.Extensions.Logging/5.0.0": {
      "type": "package",
      "serviceable": true,
      "sha512": "sha512-MgOwK6tPzB6YNH21wssJcw/2MKwee8b2gI7SllYfn6rvTpIrVvVS5HAjSU2vqSku1fwqRvWP0MdIi14qjd93Aw==",
      "path": "microsoft.extensions.logging/5.0.0",
      "hashPath": "microsoft.extensions.logging.5.0.0.nupkg.sha512"
    },
    "Microsoft.Extensions.Logging.Abstractions/5.0.0": {
      "type": "package",
      "serviceable": true,
      "sha512": "sha512-NxP6ahFcBnnSfwNBi2KH2Oz8Xl5Sm2krjId/jRR3I7teFphwiUoUeZPwTNA21EX+5PtjqmyAvKaOeBXcJjcH/w==",
      "path": "microsoft.extensions.logging.abstractions/5.0.0",
      "hashPath": "microsoft.extensions.logging.abstractions.5.0.0.nupkg.sha512"
    },
    "Microsoft.Extensions.Options/5.0.0": {
      "type": "package",
      "serviceable": true,
      "sha512": "sha512-CBvR92TCJ5uBIdd9/HzDSrxYak+0W/3+yxrNg8Qm6Bmrkh5L+nu6m3WeazQehcZ5q1/6dDA7J5YdQjim0165zg==",
      "path": "microsoft.extensions.options/5.0.0",
      "hashPath": "microsoft.extensions.options.5.0.0.nupkg.sha512"
    },
    "Microsoft.Extensions.Options.ConfigurationExtensions/5.0.0": {
      "type": "package",
      "serviceable": true,
      "sha512": "sha512-280RxNJqOeQqq47aJLy5D9LN61CAWeuRA83gPToQ8B9jl9SNdQ5EXjlfvF66zQI5AXMl+C/3hGnbtIEN+X3mqA==",
      "path": "microsoft.extensions.options.configurationextensions/5.0.0",
      "hashPath": "microsoft.extensions.options.configurationextensions.5.0.0.nupkg.sha512"
    },
    "Microsoft.Extensions.Primitives/5.0.0": {
      "type": "package",
      "serviceable": true,
      "sha512": "sha512-cI/VWn9G1fghXrNDagX9nYaaB/nokkZn0HYAawGaELQrl8InSezfe9OnfPZLcJq3esXxygh3hkq2c3qoV3SDyQ==",
      "path": "microsoft.extensions.primitives/5.0.0",
      "hashPath": "microsoft.extensions.primitives.5.0.0.nupkg.sha512"
    },
    "Microsoft.NETCore.Platforms/3.1.0": {
      "type": "package",
      "serviceable": true,
      "sha512": "sha512-z7aeg8oHln2CuNulfhiLYxCVMPEwBl3rzicjvIX+4sUuCwvXw5oXQEtbiU2c0z4qYL5L3Kmx0mMA/+t/SbY67w==",
      "path": "microsoft.netcore.platforms/3.1.0",
      "hashPath": "microsoft.netcore.platforms.3.1.0.nupkg.sha512"
    },
    "Microsoft.NETCore.Targets/1.1.0": {
      "type": "package",
      "serviceable": true,
      "sha512": "sha512-aOZA3BWfz9RXjpzt0sRJJMjAscAUm3Hoa4UWAfceV9UTYxgwZ1lZt5nO2myFf+/jetYQo4uTP7zS8sJY67BBxg==",
      "path": "microsoft.netcore.targets/1.1.0",
      "hashPath": "microsoft.netcore.targets.1.1.0.nupkg.sha512"
    },
    "Microsoft.Win32.Registry/4.7.0": {
      "type": "package",
      "serviceable": true,
      "sha512": "sha512-KSrRMb5vNi0CWSGG1++id2ZOs/1QhRqROt+qgbEAdQuGjGrFcl4AOl4/exGPUYz2wUnU42nvJqon1T3U0kPXLA==",
      "path": "microsoft.win32.registry/4.7.0",
      "hashPath": "microsoft.win32.registry.4.7.0.nupkg.sha512"
    },
    "MongoDB.Bson/2.12.1": {
      "type": "package",
      "serviceable": true,
      "sha512": "sha512-jlp4O/BS2noUoM8dCQLIoJ+SYodVWiRV3R6kh4YCOIgrA0LzAp+6fGKy6lFaPUfzsuooZjO+/gbJMog8Z7Cs6A==",
      "path": "mongodb.bson/2.12.1",
      "hashPath": "mongodb.bson.2.12.1.nupkg.sha512"
    },
    "MongoDB.Driver/2.12.1": {
      "type": "package",
      "serviceable": true,
      "sha512": "sha512-/xHHkcX4Ezo1zjcel3vNqVyz3ZJcgDzreMqkaTY/vn8IyQrowckMEqmwUmCoSDG5IsVPD46hg772ITyjBDSHoA==",
      "path": "mongodb.driver/2.12.1",
      "hashPath": "mongodb.driver.2.12.1.nupkg.sha512"
    },
    "MongoDB.Driver.Core/2.12.1": {
      "type": "package",
      "serviceable": true,
      "sha512": "sha512-QDSgx/UAOGMA00DMtdXk/7qR4ocC8abcOE/QU8UhyrNTyMa+NcKtUVcGHnuNIAMLUlKbSW+bWrjGiKDv0t9Fcw==",
      "path": "mongodb.driver.core/2.12.1",
      "hashPath": "mongodb.driver.core.2.12.1.nupkg.sha512"
    },
    "MongoDB.Libmongocrypt/1.2.1": {
      "type": "package",
      "serviceable": true,
      "sha512": "sha512-VUtUAO2W6+DOjBtLHuD9WlTTcxYLXCNfp9YeKcws5LNAl0xej2KX1I37VsTAKnmnMjAF2Vwy1FXLCpK84FglMA==",
      "path": "mongodb.libmongocrypt/1.2.1",
      "hashPath": "mongodb.libmongocrypt.1.2.1.nupkg.sha512"
    },
    "Newtonsoft.Json/13.0.1": {
      "type": "package",
      "serviceable": true,
      "sha512": "sha512-ppPFpBcvxdsfUonNcvITKqLl3bqxWbDCZIzDWHzjpdAHRFfZe0Dw9HmA0+za13IdyrgJwpkDTDA9fHaxOrt20A==",
      "path": "newtonsoft.json/13.0.1",
      "hashPath": "newtonsoft.json.13.0.1.nupkg.sha512"
    },
    "Nito.AsyncEx.Context/5.1.0": {
      "type": "package",
      "serviceable": true,
      "sha512": "sha512-EE7M37c5E/kvulzEkpUR6v1AnK34b2wysOLJHSjl78p/3hL7grte0XCPRqCfLZDwq98AD9GHMTCRfZy7TEeHhw==",
      "path": "nito.asyncex.context/5.1.0",
      "hashPath": "nito.asyncex.context.5.1.0.nupkg.sha512"
    },
    "Nito.AsyncEx.Coordination/5.1.0": {
      "type": "package",
      "serviceable": true,
      "sha512": "sha512-Nv+oA+cSxidjOImiKcz2FJgMIDxiK0A6xormKmsUklUBjTNqQpjtdJsACMgTQG56PkTHdbMi5QijPTTUsmcCeg==",
      "path": "nito.asyncex.coordination/5.1.0",
      "hashPath": "nito.asyncex.coordination.5.1.0.nupkg.sha512"
    },
    "Nito.AsyncEx.Tasks/5.1.0": {
      "type": "package",
      "serviceable": true,
      "sha512": "sha512-tU3Ib4zs8ivM+uS8n7F7ReWZlA3mODyLqwPE+v+WJI94hZ8xLXl+a9npfj/IcmeXo9a6fGKLWkswKQHOeTWqwA==",
      "path": "nito.asyncex.tasks/5.1.0",
      "hashPath": "nito.asyncex.tasks.5.1.0.nupkg.sha512"
    },
    "Nito.Collections.Deque/1.1.0": {
      "type": "package",
      "serviceable": true,
      "sha512": "sha512-RXHe531Oaw2IathDr0Q2kbid0iuudBxtgZsfBZ2eUPuFI8I1P7HMiuUeaIefqYykcDYFTDQsFAPAljduIjihLA==",
      "path": "nito.collections.deque/1.1.0",
      "hashPath": "nito.collections.deque.1.1.0.nupkg.sha512"
    },
    "Nito.Disposables/2.2.0": {
      "type": "package",
      "serviceable": true,
      "sha512": "sha512-QcL+uBwUCEoK8GKp/WzjdCiG8/3G1WLlVNJgLJUNG7bIIVAcEV+Mro4s53VT4Nd8xMSplv0gy+Priw44vRvLaA==",
      "path": "nito.disposables/2.2.0",
      "hashPath": "nito.disposables.2.2.0.nupkg.sha512"
    },
    "Portable.BouncyCastle/1.8.5.2": {
      "type": "package",
      "serviceable": true,
      "sha512": "sha512-iLfdr+T33QrDpsvcKRbMVk0PnjqE4hcrbgc6IH+A1BdPAThZlMB9s5TtFANhVVtdS+0oN3yIivgXRPRET7zuZw==",
      "path": "portable.bouncycastle/1.8.5.2",
      "hashPath": "portable.bouncycastle.1.8.5.2.nupkg.sha512"
    },
    "SharpCompress/0.23.0": {
      "type": "package",
      "serviceable": true,
      "sha512": "sha512-HBbT47JHvNrsZX2dTBzUBOSzBt+EmIRGLIBkbxcP6Jef7DB4eFWQX5iHWV3Nj7hABFPCjISrZ8s0z72nF2zFHQ==",
      "path": "sharpcompress/0.23.0",
      "hashPath": "sharpcompress.0.23.0.nupkg.sha512"
    },
    "System.Buffers/4.5.1": {
      "type": "package",
      "serviceable": true,
      "sha512": "sha512-Rw7ijyl1qqRS0YQD/WycNst8hUUMgrMH4FCn1nNm27M4VxchZ1js3fVjQaANHO5f3sN4isvP4a+Met9Y4YomAg==",
      "path": "system.buffers/4.5.1",
      "hashPath": "system.buffers.4.5.1.nupkg.sha512"
    },
    "System.CodeDom/4.7.0": {
      "type": "package",
      "serviceable": true,
      "sha512": "sha512-Hs9pw/kmvH3lXaZ1LFKj3pLQsiGfj2xo3sxSzwiLlRL6UcMZUTeCfoJ9Udalvn3yq5dLlPEZzYegrTQ1/LhPOQ==",
      "path": "system.codedom/4.7.0",
      "hashPath": "system.codedom.4.7.0.nupkg.sha512"
    },
    "System.Collections/4.3.0": {
      "type": "package",
      "serviceable": true,
      "sha512": "sha512-3Dcj85/TBdVpL5Zr+gEEBUuFe2icOnLalmEh9hfck1PTYbbyWuZgh4fmm2ysCLTrqLQw6t3TgTyJ+VLp+Qb+Lw==",
      "path": "system.collections/4.3.0",
      "hashPath": "system.collections.4.3.0.nupkg.sha512"
    },
    "System.Collections.Immutable/5.0.0": {
      "type": "package",
      "serviceable": true,
      "sha512": "sha512-FXkLXiK0sVVewcso0imKQoOxjoPAj42R8HtjjbSjVPAzwDfzoyoznWxgA3c38LDbN9SJux1xXoXYAhz98j7r2g==",
      "path": "system.collections.immutable/5.0.0",
      "hashPath": "system.collections.immutable.5.0.0.nupkg.sha512"
    },
    "System.ComponentModel.Annotations/5.0.0": {
      "type": "package",
      "serviceable": true,
      "sha512": "sha512-dMkqfy2el8A8/I76n2Hi1oBFEbG1SfxD2l5nhwXV3XjlnOmwxJlQbYpJH4W51odnU9sARCSAgv7S3CyAFMkpYg==",
      "path": "system.componentmodel.annotations/5.0.0",
      "hashPath": "system.componentmodel.annotations.5.0.0.nupkg.sha512"
    },
    "System.Diagnostics.Debug/4.3.0": {
      "type": "package",
      "serviceable": true,
      "sha512": "sha512-ZUhUOdqmaG5Jk3Xdb8xi5kIyQYAA4PnTNlHx1mu9ZY3qv4ELIdKbnL/akbGaKi2RnNUWaZsAs31rvzFdewTj2g==",
      "path": "system.diagnostics.debug/4.3.0",
      "hashPath": "system.diagnostics.debug.4.3.0.nupkg.sha512"
    },
    "System.Globalization/4.3.0": {
      "type": "package",
      "serviceable": true,
      "sha512": "sha512-kYdVd2f2PAdFGblzFswE4hkNANJBKRmsfa2X5LG2AcWE1c7/4t0pYae1L8vfZ5xvE2nK/R9JprtToA61OSHWIg==",
      "path": "system.globalization/4.3.0",
      "hashPath": "system.globalization.4.3.0.nupkg.sha512"
    },
    "System.IO/4.3.0": {
      "type": "package",
      "serviceable": true,
      "sha512": "sha512-3qjaHvxQPDpSOYICjUoTsmoq5u6QJAFRUITgeT/4gqkF1bajbSmb1kwSxEA8AHlofqgcKJcM8udgieRNhaJ5Cg==",
      "path": "system.io/4.3.0",
      "hashPath": "system.io.4.3.0.nupkg.sha512"
    },
    "System.Linq/4.3.0": {
      "type": "package",
      "serviceable": true,
      "sha512": "sha512-5DbqIUpsDp0dFftytzuMmc0oeMdQwjcP/EWxsksIz/w1TcFRkZ3yKKz0PqiYFMmEwPSWw+qNVqD7PJ889JzHbw==",
      "path": "system.linq/4.3.0",
      "hashPath": "system.linq.4.3.0.nupkg.sha512"
    },
    "System.Linq.Dynamic.Core/1.2.9": {
      "type": "package",
      "serviceable": true,
      "sha512": "sha512-GjR4CCtIkiJSU6N8cidG4aa0ph+HBzFOq3uhLybuq4zjlKy3hjDrGbcEUeBiGpBmUrnUhTAJ5SCZGDoZS7d9SA==",
      "path": "system.linq.dynamic.core/1.2.9",
      "hashPath": "system.linq.dynamic.core.1.2.9.nupkg.sha512"
    },
    "System.Linq.Expressions/4.3.0": {
      "type": "package",
      "serviceable": true,
      "sha512": "sha512-PGKkrd2khG4CnlyJwxwwaWWiSiWFNBGlgXvJpeO0xCXrZ89ODrQ6tjEWS/kOqZ8GwEOUATtKtzp1eRgmYNfclg==",
      "path": "system.linq.expressions/4.3.0",
      "hashPath": "system.linq.expressions.4.3.0.nupkg.sha512"
    },
    "System.Linq.Queryable/4.3.0": {
      "type": "package",
      "serviceable": true,
      "sha512": "sha512-In1Bmmvl/j52yPu3xgakQSI0YIckPUr870w4K5+Lak3JCCa8hl+my65lABOuKfYs4ugmZy25ScFerC4nz8+b6g==",
      "path": "system.linq.queryable/4.3.0",
      "hashPath": "system.linq.queryable.4.3.0.nupkg.sha512"
    },
    "System.Management/4.7.0": {
      "type": "package",
      "serviceable": true,
      "sha512": "sha512-IY+uuGhgzWiCg21i8IvQeY/Z7m1tX8VuPF+ludfn7iTCaccTtJo5HkjZbBEL8kbBubKhAKKtNXr7uMtmAc28Pw==",
      "path": "system.management/4.7.0",
      "hashPath": "system.management.4.7.0.nupkg.sha512"
    },
    "System.ObjectModel/4.3.0": {
      "type": "package",
      "serviceable": true,
      "sha512": "sha512-bdX+80eKv9bN6K4N+d77OankKHGn6CH711a6fcOpMQu2Fckp/Ft4L/kW9WznHpyR0NRAvJutzOMHNNlBGvxQzQ==",
      "path": "system.objectmodel/4.3.0",
      "hashPath": "system.objectmodel.4.3.0.nupkg.sha512"
    },
    "System.Reflection/4.3.0": {
      "type": "package",
      "serviceable": true,
      "sha512": "sha512-KMiAFoW7MfJGa9nDFNcfu+FpEdiHpWgTcS2HdMpDvt9saK3y/G4GwprPyzqjFH9NTaGPQeWNHU+iDlDILj96aQ==",
      "path": "system.reflection/4.3.0",
      "hashPath": "system.reflection.4.3.0.nupkg.sha512"
    },
    "System.Reflection.Emit/4.7.0": {
      "type": "package",
      "serviceable": true,
      "sha512": "sha512-VR4kk8XLKebQ4MZuKuIni/7oh+QGFmZW3qORd1GvBq/8026OpW501SzT/oypwiQl4TvT8ErnReh/NzY9u+C6wQ==",
      "path": "system.reflection.emit/4.7.0",
      "hashPath": "system.reflection.emit.4.7.0.nupkg.sha512"
    },
    "System.Reflection.Emit.ILGeneration/4.3.0": {
      "type": "package",
      "serviceable": true,
      "sha512": "sha512-59tBslAk9733NXLrUJrwNZEzbMAcu8k344OYo+wfSVygcgZ9lgBdGIzH/nrg3LYhXceynyvTc8t5/GD4Ri0/ng==",
      "path": "system.reflection.emit.ilgeneration/4.3.0",
      "hashPath": "system.reflection.emit.ilgeneration.4.3.0.nupkg.sha512"
    },
    "System.Reflection.Emit.Lightweight/4.3.0": {
      "type": "package",
      "serviceable": true,
      "sha512": "sha512-oadVHGSMsTmZsAF864QYN1t1QzZjIcuKU3l2S9cZOwDdDueNTrqq1yRj7koFfIGEnKpt6NjpL3rOzRhs4ryOgA==",
      "path": "system.reflection.emit.lightweight/4.3.0",
      "hashPath": "system.reflection.emit.lightweight.4.3.0.nupkg.sha512"
    },
    "System.Reflection.Extensions/4.3.0": {
      "type": "package",
      "serviceable": true,
      "sha512": "sha512-rJkrJD3kBI5B712aRu4DpSIiHRtr6QlfZSQsb0hYHrDCZORXCFjQfoipo2LaMUHoT9i1B7j7MnfaEKWDFmFQNQ==",
      "path": "system.reflection.extensions/4.3.0",
      "hashPath": "system.reflection.extensions.4.3.0.nupkg.sha512"
    },
    "System.Reflection.Primitives/4.3.0": {
      "type": "package",
      "serviceable": true,
      "sha512": "sha512-5RXItQz5As4xN2/YUDxdpsEkMhvw3e6aNveFXUn4Hl/udNTCNhnKp8lT9fnc3MhvGKh1baak5CovpuQUXHAlIA==",
      "path": "system.reflection.primitives/4.3.0",
      "hashPath": "system.reflection.primitives.4.3.0.nupkg.sha512"
    },
    "System.Reflection.TypeExtensions/4.3.0": {
      "type": "package",
      "serviceable": true,
      "sha512": "sha512-7u6ulLcZbyxB5Gq0nMkQttcdBTx57ibzw+4IOXEfR+sXYQoHvjW5LTLyNr8O22UIMrqYbchJQJnos4eooYzYJA==",
      "path": "system.reflection.typeextensions/4.3.0",
      "hashPath": "system.reflection.typeextensions.4.3.0.nupkg.sha512"
    },
    "System.Resources.ResourceManager/4.3.0": {
      "type": "package",
      "serviceable": true,
      "sha512": "sha512-/zrcPkkWdZmI4F92gL/TPumP98AVDu/Wxr3CSJGQQ+XN6wbRZcyfSKVoPo17ilb3iOr0cCRqJInGwNMolqhS8A==",
      "path": "system.resources.resourcemanager/4.3.0",
      "hashPath": "system.resources.resourcemanager.4.3.0.nupkg.sha512"
    },
    "System.Runtime/4.3.0": {
      "type": "package",
      "serviceable": true,
      "sha512": "sha512-JufQi0vPQ0xGnAczR13AUFglDyVYt4Kqnz1AZaiKZ5+GICq0/1MH/mO/eAJHt/mHW1zjKBJd7kV26SrxddAhiw==",
      "path": "system.runtime/4.3.0",
      "hashPath": "system.runtime.4.3.0.nupkg.sha512"
    },
    "System.Runtime.CompilerServices.Unsafe/5.0.0": {
      "type": "package",
      "serviceable": true,
      "sha512": "sha512-ZD9TMpsmYJLrxbbmdvhwt9YEgG5WntEnZ/d1eH8JBX9LBp+Ju8BSBhUGbZMNVHHomWo2KVImJhTDl2hIgw/6MA==",
      "path": "system.runtime.compilerservices.unsafe/5.0.0",
      "hashPath": "system.runtime.compilerservices.unsafe.5.0.0.nupkg.sha512"
    },
    "System.Runtime.Extensions/4.3.0": {
      "type": "package",
      "serviceable": true,
      "sha512": "sha512-guW0uK0fn5fcJJ1tJVXYd7/1h5F+pea1r7FLSOz/f8vPEqbR2ZAknuRDvTQ8PzAilDveOxNjSfr0CHfIQfFk8g==",
      "path": "system.runtime.extensions/4.3.0",
      "hashPath": "system.runtime.extensions.4.3.0.nupkg.sha512"
    },
    "System.Runtime.Loader/4.3.0": {
      "type": "package",
      "serviceable": true,
      "sha512": "sha512-DHMaRn8D8YCK2GG2pw+UzNxn/OHVfaWx7OTLBD/hPegHZZgcZh3H6seWegrC4BYwsfuGrywIuT+MQs+rPqRLTQ==",
      "path": "system.runtime.loader/4.3.0",
      "hashPath": "system.runtime.loader.4.3.0.nupkg.sha512"
    },
    "System.Security.AccessControl/4.7.0": {
      "type": "package",
      "serviceable": true,
      "sha512": "sha512-JECvTt5aFF3WT3gHpfofL2MNNP6v84sxtXxpqhLBCcDRzqsPBmHhQ6shv4DwwN2tRlzsUxtb3G9M3763rbXKDg==",
      "path": "system.security.accesscontrol/4.7.0",
      "hashPath": "system.security.accesscontrol.4.7.0.nupkg.sha512"
    },
    "System.Security.Principal.Windows/4.7.0": {
      "type": "package",
      "serviceable": true,
      "sha512": "sha512-ojD0PX0XhneCsUbAZVKdb7h/70vyYMDYs85lwEI+LngEONe/17A0cFaRFqZU+sOEidcVswYWikYOQ9PPfjlbtQ==",
      "path": "system.security.principal.windows/4.7.0",
      "hashPath": "system.security.principal.windows.4.7.0.nupkg.sha512"
    },
    "System.Text.Encoding/4.3.0": {
      "type": "package",
      "serviceable": true,
      "sha512": "sha512-BiIg+KWaSDOITze6jGQynxg64naAPtqGHBwDrLaCtixsa5bKiR8dpPOHA7ge3C0JJQizJE+sfkz1wV+BAKAYZw==",
      "path": "system.text.encoding/4.3.0",
      "hashPath": "system.text.encoding.4.3.0.nupkg.sha512"
    },
    "System.Text.Encoding.CodePages/4.5.1": {
      "type": "package",
      "serviceable": true,
      "sha512": "sha512-4J2JQXbftjPMppIHJ7IC+VXQ9XfEagN92vZZNoG12i+zReYlim5dMoXFC1Zzg7tsnKDM7JPo5bYfFK4Jheq44w==",
      "path": "system.text.encoding.codepages/4.5.1",
      "hashPath": "system.text.encoding.codepages.4.5.1.nupkg.sha512"
    },
    "System.Threading/4.3.0": {
      "type": "package",
      "serviceable": true,
      "sha512": "sha512-VkUS0kOBcUf3Wwm0TSbrevDDZ6BlM+b/HRiapRFWjM5O0NS0LviG0glKmFK+hhPDd1XFeSdU1GmlLhb2CoVpIw==",
      "path": "system.threading/4.3.0",
      "hashPath": "system.threading.4.3.0.nupkg.sha512"
    },
    "System.Threading.Tasks/4.3.0": {
      "type": "package",
      "serviceable": true,
      "sha512": "sha512-LbSxKEdOUhVe8BezB/9uOGGppt+nZf6e1VFyw6v3DN6lqitm0OSn2uXMOdtP0M3W4iMcqcivm2J6UgqiwwnXiA==",
      "path": "system.threading.tasks/4.3.0",
      "hashPath": "system.threading.tasks.4.3.0.nupkg.sha512"
    },
    "TimeZoneConverter/3.4.0": {
      "type": "package",
      "serviceable": true,
      "sha512": "sha512-4rqXd06uLqaLPGpO+whrZnSTJyG3SG5DEbeldMTvaGit0+gI6XLVb9YMnfM+5wtV0DDM1QPd/QhbE6j5vJCWDw==",
      "path": "timezoneconverter/3.4.0",
      "hashPath": "timezoneconverter.3.4.0.nupkg.sha512"
    },
    "Volo.Abp.Auditing/4.3.0": {
      "type": "package",
      "serviceable": true,
      "sha512": "sha512-zptBxUin6U/LbdRdG6rRn+NyTQIAqN7wqjx3Ui7G9vvTHrRCreqzvuOsPC767HDUlcu+8o3LNJLQCuE981219A==",
      "path": "volo.abp.auditing/4.3.0",
      "hashPath": "volo.abp.auditing.4.3.0.nupkg.sha512"
    },
    "Volo.Abp.Authorization.Abstractions/4.3.0": {
      "type": "package",
      "serviceable": true,
      "sha512": "sha512-enL7a1MfJR0yjPVhf2UCgEmmQQ5wNb2GGX3k/iKzW5i//3lcnsDZQLAg17NKcbLc+imQ39RALNTOE4ALZQ4C7Q==",
      "path": "volo.abp.authorization.abstractions/4.3.0",
      "hashPath": "volo.abp.authorization.abstractions.4.3.0.nupkg.sha512"
    },
    "Volo.Abp.AutoMapper/4.3.0": {
      "type": "package",
      "serviceable": true,
      "sha512": "sha512-mqeDGZxdhXFQMvxfM26snT2q0pbA+3OFE4rIoFmNdooK6fE0oWCcRg5vAOuaZNlzMCfpRFtNatSfhwZUXXfYCA==",
      "path": "volo.abp.automapper/4.3.0",
      "hashPath": "volo.abp.automapper.4.3.0.nupkg.sha512"
    },
    "Volo.Abp.BlobStoring/4.3.0": {
      "type": "package",
      "serviceable": true,
      "sha512": "sha512-EGOqlOVqeTyiPrbd+SmwUlalW5mHDFbmHp2B7TAeeGW5rO3EVqkkQEcJVnIlguAVHrdNnGFE6Swf+XtNHjoNfA==",
      "path": "volo.abp.blobstoring/4.3.0",
      "hashPath": "volo.abp.blobstoring.4.3.0.nupkg.sha512"
    },
    "Volo.Abp.Commercial.Core/4.3.0": {
      "type": "package",
      "serviceable": true,
      "sha512": "sha512-FCf1InEuqKPE36zhiy5biNtm3N+SlR9sztxLIHCJ5kCueYqFH9Te75Lj+G2dm3fLsE2Fmuvv+zmMBoNIhzeU5g==",
      "path": "volo.abp.commercial.core/4.3.0",
      "hashPath": "volo.abp.commercial.core.4.3.0.nupkg.sha512"
    },
    "Volo.Abp.Core/4.3.0": {
      "type": "package",
      "serviceable": true,
      "sha512": "sha512-GTXSY8W+AG5sMczOv40AR85eq9a+R/qI4Ci7h853rudprGWkwtfYw9OQnrVd3Xu74WceSTfCDtHWbu2AuJ3Q+w==",
      "path": "volo.abp.core/4.3.0",
      "hashPath": "volo.abp.core.4.3.0.nupkg.sha512"
    },
    "Volo.Abp.Data/4.3.0": {
      "type": "package",
      "serviceable": true,
      "sha512": "sha512-2r42Sq03qH9z/B3fUZebbAeiEAPO3poHtzLslBhm4Qjjf9jlhBrkVjqZNkCDggNFNMVzRwWmrzSzIop8q8Crug==",
      "path": "volo.abp.data/4.3.0",
      "hashPath": "volo.abp.data.4.3.0.nupkg.sha512"
    },
    "Volo.Abp.Ddd.Domain/4.3.0": {
      "type": "package",
      "serviceable": true,
      "sha512": "sha512-Nq5cMx0Uifg7GW8E8NedJZ7jaiPJv2Y9axYht5xbHEJ9gpsy1oovOp2VPKZ5Y5YYJY+M/1dlUEMAjM2LAANfpA==",
      "path": "volo.abp.ddd.domain/4.3.0",
      "hashPath": "volo.abp.ddd.domain.4.3.0.nupkg.sha512"
    },
    "Volo.Abp.EventBus/4.3.0": {
      "type": "package",
      "serviceable": true,
      "sha512": "sha512-AjBsTwigVF/LJVJf/5JgwWUX7vRNvHR/HRxst4+mDS/VJZDsgqIZLwDOFnFuA+wKtOW49e9+wuaU/LLat9HPoQ==",
      "path": "volo.abp.eventbus/4.3.0",
      "hashPath": "volo.abp.eventbus.4.3.0.nupkg.sha512"
    },
    "Volo.Abp.EventBus.Abstractions/4.3.0": {
      "type": "package",
      "serviceable": true,
      "sha512": "sha512-DW2Cr8k/g2kWqxLBEZvBjT/BSpbUo3zw8uSBMaAGAAKn4k7cNp7FC3YESu0C3y45Nd8Lo/3JLc9Iw4NN5uFmSA==",
      "path": "volo.abp.eventbus.abstractions/4.3.0",
      "hashPath": "volo.abp.eventbus.abstractions.4.3.0.nupkg.sha512"
    },
    "Volo.Abp.ExceptionHandling/4.3.0": {
      "type": "package",
      "serviceable": true,
      "sha512": "sha512-7ht+TOh8YlBZ+06GQ9vXP0FEbCPh7suNqUeKkz034NNNBKYVga9LU6qIpSaquVsM4++8NI/5AZpNh+ocgGhUBw==",
      "path": "volo.abp.exceptionhandling/4.3.0",
      "hashPath": "volo.abp.exceptionhandling.4.3.0.nupkg.sha512"
    },
    "Volo.Abp.Features/4.3.0": {
      "type": "package",
      "serviceable": true,
      "sha512": "sha512-8pHFDHqOQ54UEDciL8deBMg7nSIteTQWUzOT2ieuTl2WC8Mw198v3DYpXH1BTz0s9A9lM/i2h1qRVzVW+TMjrg==",
      "path": "volo.abp.features/4.3.0",
      "hashPath": "volo.abp.features.4.3.0.nupkg.sha512"
    },
    "Volo.Abp.Guids/4.3.0": {
      "type": "package",
      "serviceable": true,
      "sha512": "sha512-Czq7YNU8zrSLQMx+8tpRbxjqN0eOmXAcr7XXy/qJSIoFLGCgh9xkH5CQhKmEFzl0vJFXf4DiHHEPAoRbW6mrhw==",
      "path": "volo.abp.guids/4.3.0",
      "hashPath": "volo.abp.guids.4.3.0.nupkg.sha512"
    },
    "Volo.Abp.Json/4.3.0": {
      "type": "package",
      "serviceable": true,
      "sha512": "sha512-yZJ/JjJeEO7vaQ/5vH1k0WUDPLjr7rkJ/JkhB6yjRDVirISPWL3y2CbTh6NPSyjTBShkaETCsOeAQBbjDvEbPQ==",
      "path": "volo.abp.json/4.3.0",
      "hashPath": "volo.abp.json.4.3.0.nupkg.sha512"
    },
    "Volo.Abp.Localization/4.3.0": {
      "type": "package",
      "serviceable": true,
      "sha512": "sha512-d5yfg69jxE+rvyhjR1RoeF5KW0gNay2xnhixa6gAOXQ/8ZG7WmgU+G5Aa8GjgFzccL9XgFJYq7Ehzwtz3BS5ZA==",
      "path": "volo.abp.localization/4.3.0",
      "hashPath": "volo.abp.localization.4.3.0.nupkg.sha512"
    },
    "Volo.Abp.Localization.Abstractions/4.3.0": {
      "type": "package",
      "serviceable": true,
      "sha512": "sha512-8edOpld98PimnPODkrWtw/chW+K+1oAQUZccaO6F1DdnUsknQ03k6tXNvdVaXDQft74SsMcaf1tlHrvfrKPhZA==",
      "path": "volo.abp.localization.abstractions/4.3.0",
      "hashPath": "volo.abp.localization.abstractions.4.3.0.nupkg.sha512"
    },
    "Volo.Abp.MongoDB/4.3.0": {
      "type": "package",
      "serviceable": true,
      "sha512": "sha512-HSwQE519VTQf1QFZuR+YbsAs37cfVz458/mrGdfzaNkLi9cmqHX0TDL29xIB9944Ai7qRRId6+iOPTjLeViezw==",
      "path": "volo.abp.mongodb/4.3.0",
      "hashPath": "volo.abp.mongodb.4.3.0.nupkg.sha512"
    },
    "Volo.Abp.MultiTenancy/4.3.0": {
      "type": "package",
      "serviceable": true,
      "sha512": "sha512-/DU+5xg+7v889I86EguH+s/2C8wleVaphlTAuRgSPlWIujeOh6O7Dj+ImBb+LOEFK+6PvnzDyDCca57k2lwRsw==",
      "path": "volo.abp.multitenancy/4.3.0",
      "hashPath": "volo.abp.multitenancy.4.3.0.nupkg.sha512"
    },
    "Volo.Abp.ObjectExtending/4.3.0": {
      "type": "package",
      "serviceable": true,
      "sha512": "sha512-CBfao2YPtulP+ZaDrNe0Tx/K9bAiodv+gqYVWQ7UsrVloLIiQ1EMFv0Ln5zI9O111cgQHfLvEVYiFguP2GjSjA==",
      "path": "volo.abp.objectextending/4.3.0",
      "hashPath": "volo.abp.objectextending.4.3.0.nupkg.sha512"
    },
    "Volo.Abp.ObjectMapping/4.3.0": {
      "type": "package",
      "serviceable": true,
      "sha512": "sha512-4QwdHZFbDiLMW4QNaQvDqjmHw5a3BEKhDmGUkWYwqNHVBTpwj/t7Fm+N0g1FXGjYE5muioko168pbsA8oPwDDw==",
      "path": "volo.abp.objectmapping/4.3.0",
      "hashPath": "volo.abp.objectmapping.4.3.0.nupkg.sha512"
    },
    "Volo.Abp.Security/4.3.0": {
      "type": "package",
      "serviceable": true,
      "sha512": "sha512-HNShcU4urZUP4McuJFqv/X3m2tyJQkrruvuIbV+4MR9a817zo82BPqmzYG7RrZnG2Spyvqaa8GtXBfCGgFVUZA==",
      "path": "volo.abp.security/4.3.0",
      "hashPath": "volo.abp.security.4.3.0.nupkg.sha512"
    },
    "Volo.Abp.Settings/4.3.0": {
      "type": "package",
      "serviceable": true,
      "sha512": "sha512-aCEhagDlTzoS+c/RI/geH7YlK+d3fYvQ/WRI75PLVJMMhMALXT25cZr71BsNwu00LLUnPf6xFfLkfwlsZfIaKA==",
      "path": "volo.abp.settings/4.3.0",
      "hashPath": "volo.abp.settings.4.3.0.nupkg.sha512"
    },
    "Volo.Abp.Specifications/4.3.0": {
      "type": "package",
      "serviceable": true,
      "sha512": "sha512-c/Yg1LiFm+JPX5sGTS/OPxTRvaaEaNlkvCAJAwjTC2CkjrdjPSKDEiB47tCWHYW0dIcIyEx/bV9L5inyLc2qAQ==",
      "path": "volo.abp.specifications/4.3.0",
      "hashPath": "volo.abp.specifications.4.3.0.nupkg.sha512"
    },
    "Volo.Abp.Threading/4.3.0": {
      "type": "package",
      "serviceable": true,
      "sha512": "sha512-HGZ7MNUNUamMKwhp9taCv8LTnsltA3WchiO0qIuf1BRAg3333muQqrtmraIB/k6T+1ecPoEIpxXzxwgMmTvvxg==",
      "path": "volo.abp.threading/4.3.0",
      "hashPath": "volo.abp.threading.4.3.0.nupkg.sha512"
    },
    "Volo.Abp.Timing/4.3.0": {
      "type": "package",
      "serviceable": true,
      "sha512": "sha512-ohLNz/1T1sKLFV0IXeqxrMlu2sf/qdM3Bj4hOzhse9MGB+jO2l8DKmzOOH70xpH6wWrRELjmRyOoR8U3jwc8Hg==",
      "path": "volo.abp.timing/4.3.0",
      "hashPath": "volo.abp.timing.4.3.0.nupkg.sha512"
    },
    "Volo.Abp.Uow/4.3.0": {
      "type": "package",
      "serviceable": true,
      "sha512": "sha512-CwmJseLIBUcFsAiIVSr9WiNBcn/cqzJDCZmAYqzTLy7etETO+nMXSqohvAt6LlbwmjXHfMO5EZb6mYy4nnTbKQ==",
      "path": "volo.abp.uow/4.3.0",
      "hashPath": "volo.abp.uow.4.3.0.nupkg.sha512"
    },
    "Volo.Abp.Validation/4.3.0": {
      "type": "package",
      "serviceable": true,
      "sha512": "sha512-SIXT7AImi3XRgC1XIs1QJhyEXNOEugYgpR8dpB17sIBcOBdkz9r4XO6lxlSarT5+vo7I9Qut8zmH9S2T76nNWg==",
      "path": "volo.abp.validation/4.3.0",
      "hashPath": "volo.abp.validation.4.3.0.nupkg.sha512"
    },
    "Volo.Abp.Validation.Abstractions/4.3.0": {
      "type": "package",
      "serviceable": true,
      "sha512": "sha512-2dj1wA0YTVxA1wQQ0zE8R3a8nBk4fo/ibUYNV8aMRxkxX83e80BVNHi/5hMabG2ybHmTZrSLxquZyzwKvgSWkw==",
      "path": "volo.abp.validation.abstractions/4.3.0",
      "hashPath": "volo.abp.validation.abstractions.4.3.0.nupkg.sha512"
    },
    "Volo.Abp.VirtualFileSystem/4.3.0": {
      "type": "package",
      "serviceable": true,
      "sha512": "sha512-YL4rsAsqFzDOIOAGmCk78KskDcwLR8EsDxRdtgnztxGIEfok7c3/39nwbpwrkFBrwN5ZP0Qoo03VjFc+49cgqg==",
      "path": "volo.abp.virtualfilesystem/4.3.0",
      "hashPath": "volo.abp.virtualfilesystem.4.3.0.nupkg.sha512"
    },
    "Volo.FileManagement.Domain/1.0.0": {
      "type": "project",
      "serviceable": false,
      "sha512": ""
    },
    "Volo.FileManagement.Domain.Shared/1.0.0": {
      "type": "project",
      "serviceable": false,
      "sha512": ""
    }
  }
}