{
  "runtimeTarget": {
    "name": ".NETStandard,Version=v2.0/",
    "signature": ""
  },
  "compilationOptions": {},
  "targets": {
    ".NETStandard,Version=v2.0": {},
    ".NETStandard,Version=v2.0/": {
      "Volo.FileManagement.HttpApi.Client/1.0.0": {
        "dependencies": {
          "NETStandard.Library": "2.0.3",
          "Volo.Abp.Commercial.Core": "4.3.0",
          "Volo.Abp.Http.Client": "4.3.0",
          "Volo.FileManagement.Application.Contracts": "1.0.0"
        },
        "runtime": {
          "Volo.FileManagement.HttpApi.Client.dll": {}
        }
      },
      "Castle.Core/4.4.1": {
        "dependencies": {
          "NETStandard.Library": "2.0.3",
          "System.Collections.Specialized": "4.3.0",
          "System.ComponentModel": "4.3.0",
          "System.ComponentModel.TypeConverter": "4.3.0",
          "System.Diagnostics.TraceSource": "4.3.0",
          "System.Dynamic.Runtime": "4.3.0",
          "System.Reflection": "4.3.0",
          "System.Reflection.Emit": "4.3.0",
          "System.Reflection.TypeExtensions": "4.3.0",
          "System.Xml.XmlDocument": "4.3.0"
        },
        "runtime": {
          "lib/netstandard1.5/Castle.Core.dll": {
            "assemblyVersion": "4.0.0.0",
            "fileVersion": "4.4.1.0"
          }
        }
      },
      "Castle.Core.AsyncInterceptor/2.0.21-alpha": {
        "dependencies": {
          "Castle.Core": "4.4.1"
        },
        "runtime": {
          "lib/netstandard2.0/Castle.Core.AsyncInterceptor.dll": {
            "assemblyVersion": "2.0.21.0",
            "fileVersion": "2.0.21.0"
          }
        }
      },
      "JetBrains.Annotations/2020.3.0": {
        "runtime": {
          "lib/netstandard2.0/JetBrains.Annotations.dll": {
            "assemblyVersion": "2020.3.0.0",
            "fileVersion": "2020.3.0.0"
          }
        }
      },
      "Microsoft.AspNetCore.Authorization/5.0.5": {
        "dependencies": {
          "Microsoft.AspNetCore.Metadata": "5.0.5",
          "Microsoft.Extensions.Logging.Abstractions": "5.0.0",
          "Microsoft.Extensions.Options": "5.0.0"
        },
        "runtime": {
          "lib/netstandard2.0/Microsoft.AspNetCore.Authorization.dll": {
            "assemblyVersion": "5.0.0.0",
            "fileVersion": "5.0.521.16708"
          }
        }
      },
      "Microsoft.AspNetCore.Metadata/5.0.5": {
        "runtime": {
          "lib/netstandard2.0/Microsoft.AspNetCore.Metadata.dll": {
            "assemblyVersion": "5.0.0.0",
            "fileVersion": "5.0.521.16708"
          }
        }
      },
      "Microsoft.Bcl.AsyncInterfaces/5.0.0": {
        "dependencies": {
          "System.Threading.Tasks.Extensions": "4.5.4"
        },
        "runtime": {
          "lib/netstandard2.0/Microsoft.Bcl.AsyncInterfaces.dll": {
            "assemblyVersion": "5.0.0.0",
            "fileVersion": "5.0.20.51904"
          }
        }
      },
      "Microsoft.Extensions.Configuration/5.0.0": {
        "dependencies": {
          "Microsoft.Extensions.Configuration.Abstractions": "5.0.0",
          "Microsoft.Extensions.Primitives": "5.0.0"
        },
        "runtime": {
          "lib/netstandard2.0/Microsoft.Extensions.Configuration.dll": {
            "assemblyVersion": "5.0.0.0",
            "fileVersion": "5.0.20.51904"
          }
        }
      },
      "Microsoft.Extensions.Configuration.Abstractions/5.0.0": {
        "dependencies": {
          "Microsoft.Extensions.Primitives": "5.0.0"
        },
        "runtime": {
          "lib/netstandard2.0/Microsoft.Extensions.Configuration.Abstractions.dll": {
            "assemblyVersion": "5.0.0.0",
            "fileVersion": "5.0.20.51904"
          }
        }
      },
      "Microsoft.Extensions.Configuration.Binder/5.0.0": {
        "dependencies": {
          "Microsoft.Extensions.Configuration.Abstractions": "5.0.0"
        },
        "runtime": {
          "lib/netstandard2.0/Microsoft.Extensions.Configuration.Binder.dll": {
            "assemblyVersion": "5.0.0.0",
            "fileVersion": "5.0.20.51904"
          }
        }
      },
      "Microsoft.Extensions.Configuration.CommandLine/5.0.0": {
        "dependencies": {
          "Microsoft.Extensions.Configuration": "5.0.0",
          "Microsoft.Extensions.Configuration.Abstractions": "5.0.0"
        },
        "runtime": {
          "lib/netstandard2.0/Microsoft.Extensions.Configuration.CommandLine.dll": {
            "assemblyVersion": "5.0.0.0",
            "fileVersion": "5.0.20.51904"
          }
        }
      },
      "Microsoft.Extensions.Configuration.EnvironmentVariables/5.0.0": {
        "dependencies": {
          "Microsoft.Extensions.Configuration": "5.0.0",
          "Microsoft.Extensions.Configuration.Abstractions": "5.0.0"
        },
        "runtime": {
          "lib/netstandard2.0/Microsoft.Extensions.Configuration.EnvironmentVariables.dll": {
            "assemblyVersion": "5.0.0.0",
            "fileVersion": "5.0.20.51904"
          }
        }
      },
      "Microsoft.Extensions.Configuration.FileExtensions/5.0.0": {
        "dependencies": {
          "Microsoft.Extensions.Configuration": "5.0.0",
          "Microsoft.Extensions.Configuration.Abstractions": "5.0.0",
          "Microsoft.Extensions.FileProviders.Abstractions": "5.0.0",
          "Microsoft.Extensions.FileProviders.Physical": "5.0.0",
          "Microsoft.Extensions.Primitives": "5.0.0"
        },
        "runtime": {
          "lib/netstandard2.0/Microsoft.Extensions.Configuration.FileExtensions.dll": {
            "assemblyVersion": "5.0.0.0",
            "fileVersion": "5.0.20.51904"
          }
        }
      },
      "Microsoft.Extensions.Configuration.Json/5.0.0": {
        "dependencies": {
          "Microsoft.Extensions.Configuration": "5.0.0",
          "Microsoft.Extensions.Configuration.Abstractions": "5.0.0",
          "Microsoft.Extensions.Configuration.FileExtensions": "5.0.0",
          "Microsoft.Extensions.FileProviders.Abstractions": "5.0.0",
          "System.Text.Json": "5.0.0"
        },
        "runtime": {
          "lib/netstandard2.0/Microsoft.Extensions.Configuration.Json.dll": {
            "assemblyVersion": "5.0.0.0",
            "fileVersion": "5.0.20.51904"
          }
        }
      },
      "Microsoft.Extensions.Configuration.UserSecrets/5.0.0": {
        "dependencies": {
          "Microsoft.Extensions.Configuration.Abstractions": "5.0.0",
          "Microsoft.Extensions.Configuration.Json": "5.0.0",
          "Microsoft.Extensions.FileProviders.Abstractions": "5.0.0",
          "Microsoft.Extensions.FileProviders.Physical": "5.0.0"
        },
        "runtime": {
          "lib/netstandard2.0/Microsoft.Extensions.Configuration.UserSecrets.dll": {
            "assemblyVersion": "5.0.0.0",
            "fileVersion": "5.0.20.51904"
          }
        }
      },
      "Microsoft.Extensions.DependencyInjection/5.0.1": {
        "dependencies": {
          "Microsoft.Bcl.AsyncInterfaces": "5.0.0",
          "Microsoft.Extensions.DependencyInjection.Abstractions": "5.0.0",
          "System.Threading.Tasks.Extensions": "4.5.4"
        },
        "runtime": {
          "lib/netstandard2.0/Microsoft.Extensions.DependencyInjection.dll": {
            "assemblyVersion": "5.0.0.1",
            "fileVersion": "5.0.120.57516"
          }
        }
      },
      "Microsoft.Extensions.DependencyInjection.Abstractions/5.0.0": {
        "runtime": {
          "lib/netstandard2.0/Microsoft.Extensions.DependencyInjection.Abstractions.dll": {
            "assemblyVersion": "5.0.0.0",
            "fileVersion": "5.0.20.51904"
          }
        }
      },
      "Microsoft.Extensions.FileProviders.Abstractions/5.0.0": {
        "dependencies": {
          "Microsoft.Extensions.Primitives": "5.0.0"
        },
        "runtime": {
          "lib/netstandard2.0/Microsoft.Extensions.FileProviders.Abstractions.dll": {
            "assemblyVersion": "5.0.0.0",
            "fileVersion": "5.0.20.51904"
          }
        }
      },
      "Microsoft.Extensions.FileProviders.Composite/5.0.0": {
        "dependencies": {
          "Microsoft.Extensions.FileProviders.Abstractions": "5.0.0",
          "Microsoft.Extensions.Primitives": "5.0.0"
        },
        "runtime": {
          "lib/netstandard2.0/Microsoft.Extensions.FileProviders.Composite.dll": {
            "assemblyVersion": "5.0.0.0",
            "fileVersion": "5.0.20.51904"
          }
        }
      },
      "Microsoft.Extensions.FileProviders.Embedded/5.0.17": {
        "dependencies": {
          "Microsoft.Extensions.FileProviders.Abstractions": "5.0.0"
        },
        "runtime": {
          "lib/netstandard2.0/Microsoft.Extensions.FileProviders.Embedded.dll": {
            "assemblyVersion": "5.0.0.0",
            "fileVersion": "5.0.1722.21507"
          }
        }
      },
      "Microsoft.Extensions.FileProviders.Physical/5.0.0": {
        "dependencies": {
          "Microsoft.Extensions.FileProviders.Abstractions": "5.0.0",
          "Microsoft.Extensions.FileSystemGlobbing": "5.0.0",
          "Microsoft.Extensions.Primitives": "5.0.0"
        },
        "runtime": {
          "lib/netstandard2.0/Microsoft.Extensions.FileProviders.Physical.dll": {
            "assemblyVersion": "5.0.0.0",
            "fileVersion": "5.0.20.51904"
          }
        }
      },
      "Microsoft.Extensions.FileSystemGlobbing/5.0.0": {
        "runtime": {
          "lib/netstandard2.0/Microsoft.Extensions.FileSystemGlobbing.dll": {
            "assemblyVersion": "5.0.0.0",
            "fileVersion": "5.0.20.51904"
          }
        }
      },
      "Microsoft.Extensions.Hosting.Abstractions/5.0.0": {
        "dependencies": {
          "Microsoft.Bcl.AsyncInterfaces": "5.0.0",
          "Microsoft.Extensions.Configuration.Abstractions": "5.0.0",
          "Microsoft.Extensions.DependencyInjection.Abstractions": "5.0.0",
          "Microsoft.Extensions.FileProviders.Abstractions": "5.0.0",
          "System.Threading.Tasks.Extensions": "4.5.4"
        },
        "runtime": {
          "lib/netstandard2.0/Microsoft.Extensions.Hosting.Abstractions.dll": {
            "assemblyVersion": "5.0.0.0",
            "fileVersion": "5.0.20.51904"
          }
        }
      },
      "Microsoft.Extensions.Http/5.0.0": {
        "dependencies": {
          "Microsoft.Extensions.DependencyInjection.Abstractions": "5.0.0",
          "Microsoft.Extensions.Logging": "5.0.0",
          "Microsoft.Extensions.Logging.Abstractions": "5.0.0",
          "Microsoft.Extensions.Options": "5.0.0"
        },
        "runtime": {
          "lib/netstandard2.0/Microsoft.Extensions.Http.dll": {
            "assemblyVersion": "5.0.0.0",
            "fileVersion": "5.0.20.51904"
          }
        }
      },
      "Microsoft.Extensions.Localization/5.0.5": {
        "dependencies": {
          "Microsoft.Extensions.DependencyInjection.Abstractions": "5.0.0",
          "Microsoft.Extensions.Localization.Abstractions": "5.0.5",
          "Microsoft.Extensions.Logging.Abstractions": "5.0.0",
          "Microsoft.Extensions.Options": "5.0.0"
        },
        "runtime": {
          "lib/netstandard2.0/Microsoft.Extensions.Localization.dll": {
            "assemblyVersion": "5.0.0.0",
            "fileVersion": "5.0.521.16708"
          }
        }
      },
      "Microsoft.Extensions.Localization.Abstractions/5.0.5": {
        "runtime": {
          "lib/netstandard2.0/Microsoft.Extensions.Localization.Abstractions.dll": {
            "assemblyVersion": "5.0.0.0",
            "fileVersion": "5.0.521.16708"
          }
        }
      },
      "Microsoft.Extensions.Logging/5.0.0": {
        "dependencies": {
          "Microsoft.Extensions.DependencyInjection": "5.0.1",
          "Microsoft.Extensions.DependencyInjection.Abstractions": "5.0.0",
          "Microsoft.Extensions.Logging.Abstractions": "5.0.0",
          "Microsoft.Extensions.Options": "5.0.0",
          "System.Diagnostics.DiagnosticSource": "5.0.0"
        },
        "runtime": {
          "lib/netstandard2.0/Microsoft.Extensions.Logging.dll": {
            "assemblyVersion": "5.0.0.0",
            "fileVersion": "5.0.20.51904"
          }
        }
      },
      "Microsoft.Extensions.Logging.Abstractions/5.0.0": {
        "runtime": {
          "lib/netstandard2.0/Microsoft.Extensions.Logging.Abstractions.dll": {
            "assemblyVersion": "5.0.0.0",
            "fileVersion": "5.0.20.51904"
          }
        }
      },
      "Microsoft.Extensions.Options/5.0.0": {
        "dependencies": {
          "Microsoft.Extensions.DependencyInjection.Abstractions": "5.0.0",
          "Microsoft.Extensions.Primitives": "5.0.0"
        },
        "runtime": {
          "lib/netstandard2.0/Microsoft.Extensions.Options.dll": {
            "assemblyVersion": "5.0.0.0",
            "fileVersion": "5.0.20.51904"
          }
        }
      },
      "Microsoft.Extensions.Options.ConfigurationExtensions/5.0.0": {
        "dependencies": {
          "Microsoft.Extensions.Configuration.Abstractions": "5.0.0",
          "Microsoft.Extensions.Configuration.Binder": "5.0.0",
          "Microsoft.Extensions.DependencyInjection.Abstractions": "5.0.0",
          "Microsoft.Extensions.Options": "5.0.0",
          "Microsoft.Extensions.Primitives": "5.0.0"
        },
        "runtime": {
          "lib/netstandard2.0/Microsoft.Extensions.Options.ConfigurationExtensions.dll": {
            "assemblyVersion": "5.0.0.0",
            "fileVersion": "5.0.20.51904"
          }
        }
      },
      "Microsoft.Extensions.Primitives/5.0.0": {
        "dependencies": {
          "System.Buffers": "4.5.1",
          "System.Memory": "4.5.4",
          "System.Runtime.CompilerServices.Unsafe": "5.0.0"
        },
        "runtime": {
          "lib/netstandard2.0/Microsoft.Extensions.Primitives.dll": {
            "assemblyVersion": "5.0.0.0",
            "fileVersion": "5.0.20.51904"
          }
        }
      },
      "Microsoft.NETCore.Platforms/1.1.0": {},
      "Microsoft.NETCore.Targets/1.1.0": {},
      "NETStandard.Library/2.0.3": {
        "dependencies": {
          "Microsoft.NETCore.Platforms": "1.1.0"
        }
      },
      "Newtonsoft.Json/13.0.1": {
        "runtime": {
          "lib/netstandard2.0/Newtonsoft.Json.dll": {
            "assemblyVersion": "13.0.0.0",
            "fileVersion": "13.0.1.25517"
          }
        }
      },
      "Nito.AsyncEx.Context/5.1.0": {
        "dependencies": {
          "Nito.AsyncEx.Tasks": "5.1.0"
        },
        "runtime": {
          "lib/netstandard2.0/Nito.AsyncEx.Context.dll": {
            "assemblyVersion": "5.1.0.0",
            "fileVersion": "5.1.0.0"
          }
        }
      },
      "Nito.AsyncEx.Coordination/5.1.0": {
        "dependencies": {
          "Nito.AsyncEx.Tasks": "5.1.0",
          "Nito.Collections.Deque": "1.1.0"
        },
        "runtime": {
          "lib/netstandard2.0/Nito.AsyncEx.Coordination.dll": {
            "assemblyVersion": "5.1.0.0",
            "fileVersion": "5.1.0.0"
          }
        }
      },
      "Nito.AsyncEx.Tasks/5.1.0": {
        "dependencies": {
          "Nito.Disposables": "2.2.0"
        },
        "runtime": {
          "lib/netstandard2.0/Nito.AsyncEx.Tasks.dll": {
            "assemblyVersion": "5.1.0.0",
            "fileVersion": "5.1.0.0"
          }
        }
      },
      "Nito.Collections.Deque/1.1.0": {
        "runtime": {
          "lib/netstandard2.0/Nito.Collections.Deque.dll": {
            "assemblyVersion": "1.1.0.0",
            "fileVersion": "1.1.0.0"
          }
        }
      },
      "Nito.Disposables/2.2.0": {
        "dependencies": {
          "System.Collections.Immutable": "5.0.0"
        },
        "runtime": {
          "lib/netstandard2.0/Nito.Disposables.dll": {
            "assemblyVersion": "2.2.0.0",
            "fileVersion": "2.2.0.0"
          }
        }
      },
      "NUglify/1.13.8": {
        "runtime": {
          "lib/netstandard2.0/NUglify.dll": {
            "assemblyVersion": "1.13.8.0",
            "fileVersion": "1.13.8.0"
          }
        }
      },
      "Portable.BouncyCastle/1.8.5.2": {
        "runtime": {
          "lib/netstandard2.0/BouncyCastle.Crypto.dll": {
            "assemblyVersion": "1.8.5.0",
            "fileVersion": "1.8.5.2"
          }
        }
      },
      "runtime.native.System/4.3.0": {
        "dependencies": {
          "Microsoft.NETCore.Platforms": "1.1.0",
          "Microsoft.NETCore.Targets": "1.1.0"
        }
      },
      "System.Buffers/4.5.1": {
        "runtime": {
          "lib/netstandard2.0/System.Buffers.dll": {
            "assemblyVersion": "4.0.3.0",
            "fileVersion": "4.6.28619.1"
          }
        }
      },
      "System.CodeDom/4.7.0": {
        "runtime": {
          "lib/netstandard2.0/System.CodeDom.dll": {
            "assemblyVersion": "4.0.3.0",
            "fileVersion": "4.700.19.56404"
          }
        }
      },
      "System.Collections/4.3.0": {
        "dependencies": {
          "Microsoft.NETCore.Platforms": "1.1.0",
          "Microsoft.NETCore.Targets": "1.1.0",
          "System.Runtime": "4.3.0"
        }
      },
      "System.Collections.Immutable/5.0.0": {
        "dependencies": {
          "System.Memory": "4.5.4"
        },
        "runtime": {
          "lib/netstandard2.0/System.Collections.Immutable.dll": {
            "assemblyVersion": "5.0.0.0",
            "fileVersion": "5.0.20.51904"
          }
        }
      },
      "System.Collections.NonGeneric/4.3.0": {
        "dependencies": {
          "System.Diagnostics.Debug": "4.3.0",
          "System.Globalization": "4.3.0",
          "System.Resources.ResourceManager": "4.3.0",
          "System.Runtime": "4.3.0",
          "System.Runtime.Extensions": "4.3.0",
          "System.Threading": "4.3.0"
        },
        "runtime": {
          "lib/netstandard1.3/System.Collections.NonGeneric.dll": {
            "assemblyVersion": "4.0.2.0",
            "fileVersion": "4.6.24705.1"
          }
        }
      },
      "System.Collections.Specialized/4.3.0": {
        "dependencies": {
          "System.Collections.NonGeneric": "4.3.0",
          "System.Globalization": "4.3.0",
          "System.Globalization.Extensions": "4.3.0",
          "System.Resources.ResourceManager": "4.3.0",
          "System.Runtime": "4.3.0",
          "System.Runtime.Extensions": "4.3.0",
          "System.Threading": "4.3.0"
        },
        "runtime": {
          "lib/netstandard1.3/System.Collections.Specialized.dll": {
            "assemblyVersion": "4.0.2.0",
            "fileVersion": "4.6.24705.1"
          }
        }
      },
      "System.ComponentModel/4.3.0": {
        "dependencies": {
          "System.Runtime": "4.3.0"
        },
        "runtime": {
          "lib/netstandard1.3/System.ComponentModel.dll": {
            "assemblyVersion": "4.0.2.0",
            "fileVersion": "4.6.24705.1"
          }
        }
      },
      "System.ComponentModel.Annotations/5.0.0": {
        "runtime": {
          "lib/netstandard2.0/System.ComponentModel.Annotations.dll": {
            "assemblyVersion": "4.2.1.0",
            "fileVersion": "4.6.26515.6"
          }
        }
      },
      "System.ComponentModel.Primitives/4.3.0": {
        "dependencies": {
          "System.ComponentModel": "4.3.0",
          "System.Resources.ResourceManager": "4.3.0",
          "System.Runtime": "4.3.0"
        },
        "runtime": {
          "lib/netstandard1.0/System.ComponentModel.Primitives.dll": {
            "assemblyVersion": "4.1.1.0",
            "fileVersion": "4.6.24705.1"
          }
        }
      },
      "System.ComponentModel.TypeConverter/4.3.0": {
        "dependencies": {
          "System.Collections": "4.3.0",
          "System.Collections.NonGeneric": "4.3.0",
          "System.Collections.Specialized": "4.3.0",
          "System.ComponentModel": "4.3.0",
          "System.ComponentModel.Primitives": "4.3.0",
          "System.Globalization": "4.3.0",
          "System.Linq": "4.3.0",
          "System.Reflection": "4.3.0",
          "System.Reflection.Extensions": "4.3.0",
          "System.Reflection.Primitives": "4.3.0",
          "System.Reflection.TypeExtensions": "4.3.0",
          "System.Resources.ResourceManager": "4.3.0",
          "System.Runtime": "4.3.0",
          "System.Runtime.Extensions": "4.3.0",
          "System.Threading": "4.3.0"
        },
        "runtime": {
          "lib/netstandard1.5/System.ComponentModel.TypeConverter.dll": {
            "assemblyVersion": "4.1.1.0",
            "fileVersion": "4.6.24705.1"
          }
        }
      },
      "System.Diagnostics.Debug/4.3.0": {
        "dependencies": {
          "Microsoft.NETCore.Platforms": "1.1.0",
          "Microsoft.NETCore.Targets": "1.1.0",
          "System.Runtime": "4.3.0"
        }
      },
      "System.Diagnostics.DiagnosticSource/5.0.0": {
        "dependencies": {
          "System.Memory": "4.5.4",
          "System.Runtime.CompilerServices.Unsafe": "5.0.0"
        },
        "runtime": {
          "lib/netstandard1.3/System.Diagnostics.DiagnosticSource.dll": {
            "assemblyVersion": "5.0.0.0",
            "fileVersion": "5.0.20.51904"
          }
        }
      },
      "System.Diagnostics.TraceSource/4.3.0": {
        "dependencies": {
          "Microsoft.NETCore.Platforms": "1.1.0",
          "System.Collections": "4.3.0",
          "System.Diagnostics.Debug": "4.3.0",
          "System.Globalization": "4.3.0",
          "System.Resources.ResourceManager": "4.3.0",
          "System.Runtime": "4.3.0",
          "System.Runtime.Extensions": "4.3.0",
          "System.Threading": "4.3.0",
          "runtime.native.System": "4.3.0"
        }
      },
      "System.Dynamic.Runtime/4.3.0": {
        "dependencies": {
          "System.Collections": "4.3.0",
          "System.Diagnostics.Debug": "4.3.0",
          "System.Linq": "4.3.0",
          "System.Linq.Expressions": "4.3.0",
          "System.ObjectModel": "4.3.0",
          "System.Reflection": "4.3.0",
          "System.Reflection.Emit": "4.3.0",
          "System.Reflection.Emit.ILGeneration": "4.3.0",
          "System.Reflection.Primitives": "4.3.0",
          "System.Reflection.TypeExtensions": "4.3.0",
          "System.Resources.ResourceManager": "4.3.0",
          "System.Runtime": "4.3.0",
          "System.Runtime.Extensions": "4.3.0",
          "System.Threading": "4.3.0"
        },
        "runtime": {
          "lib/netstandard1.3/System.Dynamic.Runtime.dll": {
            "assemblyVersion": "4.0.12.0",
            "fileVersion": "4.6.24705.1"
          }
        }
      },
      "System.Globalization/4.3.0": {
        "dependencies": {
          "Microsoft.NETCore.Platforms": "1.1.0",
          "Microsoft.NETCore.Targets": "1.1.0",
          "System.Runtime": "4.3.0"
        }
      },
      "System.Globalization.Extensions/4.3.0": {
        "dependencies": {
          "Microsoft.NETCore.Platforms": "1.1.0",
          "System.Globalization": "4.3.0",
          "System.Resources.ResourceManager": "4.3.0",
          "System.Runtime": "4.3.0",
          "System.Runtime.Extensions": "4.3.0",
          "System.Runtime.InteropServices": "4.3.0"
        }
      },
      "System.IO/4.3.0": {
        "dependencies": {
          "Microsoft.NETCore.Platforms": "1.1.0",
          "Microsoft.NETCore.Targets": "1.1.0",
          "System.Runtime": "4.3.0",
          "System.Text.Encoding": "4.3.0",
          "System.Threading.Tasks": "4.3.0"
        }
      },
      "System.IO.FileSystem/4.3.0": {
        "dependencies": {
          "Microsoft.NETCore.Platforms": "1.1.0",
          "Microsoft.NETCore.Targets": "1.1.0",
          "System.IO": "4.3.0",
          "System.IO.FileSystem.Primitives": "4.3.0",
          "System.Runtime": "4.3.0",
          "System.Runtime.Handles": "4.3.0",
          "System.Text.Encoding": "4.3.0",
          "System.Threading.Tasks": "4.3.0"
        }
      },
      "System.IO.FileSystem.Primitives/4.3.0": {
        "dependencies": {
          "System.Runtime": "4.3.0"
        },
        "runtime": {
          "lib/netstandard1.3/System.IO.FileSystem.Primitives.dll": {
            "assemblyVersion": "4.0.2.0",
            "fileVersion": "4.6.24705.1"
          }
        }
      },
      "System.Linq/4.3.0": {
        "dependencies": {
          "System.Collections": "4.3.0",
          "System.Diagnostics.Debug": "4.3.0",
          "System.Resources.ResourceManager": "4.3.0",
          "System.Runtime": "4.3.0",
          "System.Runtime.Extensions": "4.3.0"
        },
        "runtime": {
          "lib/netstandard1.6/System.Linq.dll": {
            "assemblyVersion": "4.1.1.0",
            "fileVersion": "4.6.24705.1"
          }
        }
      },
      "System.Linq.Dynamic.Core/1.2.9": {
        "dependencies": {
          "System.Reflection.Emit": "4.3.0"
        },
        "runtime": {
          "lib/netstandard2.0/System.Linq.Dynamic.Core.dll": {
            "assemblyVersion": "1.2.9.0",
            "fileVersion": "1.2.9.0"
          }
        }
      },
      "System.Linq.Expressions/4.3.0": {
        "dependencies": {
          "System.Collections": "4.3.0",
          "System.Diagnostics.Debug": "4.3.0",
          "System.Globalization": "4.3.0",
          "System.IO": "4.3.0",
          "System.Linq": "4.3.0",
          "System.ObjectModel": "4.3.0",
          "System.Reflection": "4.3.0",
          "System.Reflection.Emit": "4.3.0",
          "System.Reflection.Emit.ILGeneration": "4.3.0",
          "System.Reflection.Emit.Lightweight": "4.3.0",
          "System.Reflection.Extensions": "4.3.0",
          "System.Reflection.Primitives": "4.3.0",
          "System.Reflection.TypeExtensions": "4.3.0",
          "System.Resources.ResourceManager": "4.3.0",
          "System.Runtime": "4.3.0",
          "System.Runtime.Extensions": "4.3.0",
          "System.Threading": "4.3.0"
        },
        "runtime": {
          "lib/netstandard1.6/System.Linq.Expressions.dll": {
            "assemblyVersion": "4.1.1.0",
            "fileVersion": "4.6.24705.1"
          }
        }
      },
      "System.Linq.Queryable/4.3.0": {
        "dependencies": {
          "System.Collections": "4.3.0",
          "System.Diagnostics.Debug": "4.3.0",
          "System.Linq": "4.3.0",
          "System.Linq.Expressions": "4.3.0",
          "System.Reflection": "4.3.0",
          "System.Reflection.Extensions": "4.3.0",
          "System.Resources.ResourceManager": "4.3.0",
          "System.Runtime": "4.3.0"
        },
        "runtime": {
          "lib/netstandard1.3/System.Linq.Queryable.dll": {
            "assemblyVersion": "4.0.2.0",
            "fileVersion": "4.6.24705.1"
          }
        }
      },
      "System.Management/4.7.0": {
        "dependencies": {
          "System.CodeDom": "4.7.0"
        },
        "runtime": {
          "lib/netstandard2.0/System.Management.dll": {
            "assemblyVersion": "4.0.1.0",
            "fileVersion": "4.700.19.56404"
          }
        }
      },
      "System.Memory/4.5.4": {
        "dependencies": {
          "System.Buffers": "4.5.1",
          "System.Numerics.Vectors": "4.5.0",
          "System.Runtime.CompilerServices.Unsafe": "5.0.0"
        },
        "runtime": {
          "lib/netstandard2.0/System.Memory.dll": {
            "assemblyVersion": "4.0.1.1",
            "fileVersion": "4.6.28619.1"
          }
        }
      },
      "System.Numerics.Vectors/4.5.0": {
        "runtime": {
          "lib/netstandard2.0/System.Numerics.Vectors.dll": {
            "assemblyVersion": "4.1.4.0",
            "fileVersion": "4.6.26515.6"
          }
        }
      },
      "System.ObjectModel/4.3.0": {
        "dependencies": {
          "System.Collections": "4.3.0",
          "System.Diagnostics.Debug": "4.3.0",
          "System.Resources.ResourceManager": "4.3.0",
          "System.Runtime": "4.3.0",
          "System.Threading": "4.3.0"
        },
        "runtime": {
          "lib/netstandard1.3/System.ObjectModel.dll": {
            "assemblyVersion": "4.0.13.0",
            "fileVersion": "4.6.24705.1"
          }
        }
      },
      "System.Reflection/4.3.0": {
        "dependencies": {
          "Microsoft.NETCore.Platforms": "1.1.0",
          "Microsoft.NETCore.Targets": "1.1.0",
          "System.IO": "4.3.0",
          "System.Reflection.Primitives": "4.3.0",
          "System.Runtime": "4.3.0"
        }
      },
      "System.Reflection.Emit/4.3.0": {
        "dependencies": {
          "System.IO": "4.3.0",
          "System.Reflection": "4.3.0",
          "System.Reflection.Emit.ILGeneration": "4.3.0",
          "System.Reflection.Primitives": "4.3.0",
          "System.Runtime": "4.3.0"
        },
        "runtime": {
          "lib/netstandard1.3/System.Reflection.Emit.dll": {
            "assemblyVersion": "4.0.2.0",
            "fileVersion": "4.6.24705.1"
          }
        }
      },
      "System.Reflection.Emit.ILGeneration/4.3.0": {
        "dependencies": {
          "System.Reflection": "4.3.0",
          "System.Reflection.Primitives": "4.3.0",
          "System.Runtime": "4.3.0"
        },
        "runtime": {
          "lib/netstandard1.3/System.Reflection.Emit.ILGeneration.dll": {
            "assemblyVersion": "4.0.2.0",
            "fileVersion": "4.6.24705.1"
          }
        }
      },
      "System.Reflection.Emit.Lightweight/4.3.0": {
        "dependencies": {
          "System.Reflection": "4.3.0",
          "System.Reflection.Emit.ILGeneration": "4.3.0",
          "System.Reflection.Primitives": "4.3.0",
          "System.Runtime": "4.3.0"
        },
        "runtime": {
          "lib/netstandard1.3/System.Reflection.Emit.Lightweight.dll": {
            "assemblyVersion": "4.0.2.0",
            "fileVersion": "4.6.24705.1"
          }
        }
      },
      "System.Reflection.Extensions/4.3.0": {
        "dependencies": {
          "Microsoft.NETCore.Platforms": "1.1.0",
          "Microsoft.NETCore.Targets": "1.1.0",
          "System.Reflection": "4.3.0",
          "System.Runtime": "4.3.0"
        }
      },
      "System.Reflection.Primitives/4.3.0": {
        "dependencies": {
          "Microsoft.NETCore.Platforms": "1.1.0",
          "Microsoft.NETCore.Targets": "1.1.0",
          "System.Runtime": "4.3.0"
        }
      },
      "System.Reflection.TypeExtensions/4.3.0": {
        "dependencies": {
          "System.Reflection": "4.3.0",
          "System.Runtime": "4.3.0"
        },
        "runtime": {
          "lib/netstandard1.5/System.Reflection.TypeExtensions.dll": {
            "assemblyVersion": "4.1.1.0",
            "fileVersion": "4.6.24705.1"
          }
        }
      },
      "System.Resources.ResourceManager/4.3.0": {
        "dependencies": {
          "Microsoft.NETCore.Platforms": "1.1.0",
          "Microsoft.NETCore.Targets": "1.1.0",
          "System.Globalization": "4.3.0",
          "System.Reflection": "4.3.0",
          "System.Runtime": "4.3.0"
        }
      },
      "System.Runtime/4.3.0": {
        "dependencies": {
          "Microsoft.NETCore.Platforms": "1.1.0",
          "Microsoft.NETCore.Targets": "1.1.0"
        }
      },
      "System.Runtime.CompilerServices.Unsafe/5.0.0": {
        "runtime": {
          "lib/netstandard2.0/System.Runtime.CompilerServices.Unsafe.dll": {
            "assemblyVersion": "5.0.0.0",
            "fileVersion": "5.0.20.51904"
          }
        }
      },
      "System.Runtime.Extensions/4.3.0": {
        "dependencies": {
          "Microsoft.NETCore.Platforms": "1.1.0",
          "Microsoft.NETCore.Targets": "1.1.0",
          "System.Runtime": "4.3.0"
        }
      },
      "System.Runtime.Handles/4.3.0": {
        "dependencies": {
          "Microsoft.NETCore.Platforms": "1.1.0",
          "Microsoft.NETCore.Targets": "1.1.0",
          "System.Runtime": "4.3.0"
        }
      },
      "System.Runtime.InteropServices/4.3.0": {
        "dependencies": {
          "Microsoft.NETCore.Platforms": "1.1.0",
          "Microsoft.NETCore.Targets": "1.1.0",
          "System.Reflection": "4.3.0",
          "System.Reflection.Primitives": "4.3.0",
          "System.Runtime": "4.3.0",
          "System.Runtime.Handles": "4.3.0"
        }
      },
      "System.Runtime.Loader/4.3.0": {
        "dependencies": {
          "System.IO": "4.3.0",
          "System.Reflection": "4.3.0",
          "System.Runtime": "4.3.0"
        },
        "runtime": {
          "lib/netstandard1.5/System.Runtime.Loader.dll": {
            "assemblyVersion": "4.0.1.0",
            "fileVersion": "4.6.24705.1"
          }
        }
      },
      "System.Text.Encoding/4.3.0": {
        "dependencies": {
          "Microsoft.NETCore.Platforms": "1.1.0",
          "Microsoft.NETCore.Targets": "1.1.0",
          "System.Runtime": "4.3.0"
        }
      },
      "System.Text.Encoding.Extensions/4.3.0": {
        "dependencies": {
          "Microsoft.NETCore.Platforms": "1.1.0",
          "Microsoft.NETCore.Targets": "1.1.0",
          "System.Runtime": "4.3.0",
          "System.Text.Encoding": "4.3.0"
        }
      },
      "System.Text.Encodings.Web/5.0.0": {
        "dependencies": {
          "System.Memory": "4.5.4"
        },
        "runtime": {
          "lib/netstandard2.0/System.Text.Encodings.Web.dll": {
            "assemblyVersion": "5.0.0.0",
            "fileVersion": "5.0.20.51904"
          }
        }
      },
      "System.Text.Json/5.0.0": {
        "dependencies": {
          "Microsoft.Bcl.AsyncInterfaces": "5.0.0",
          "System.Buffers": "4.5.1",
          "System.Memory": "4.5.4",
          "System.Numerics.Vectors": "4.5.0",
          "System.Runtime.CompilerServices.Unsafe": "5.0.0",
          "System.Text.Encodings.Web": "5.0.0",
          "System.Threading.Tasks.Extensions": "4.5.4"
        },
        "runtime": {
          "lib/netstandard2.0/System.Text.Json.dll": {
            "assemblyVersion": "5.0.0.0",
            "fileVersion": "5.0.20.51904"
          }
        }
      },
      "System.Text.RegularExpressions/4.3.0": {
        "dependencies": {
          "System.Collections": "4.3.0",
          "System.Globalization": "4.3.0",
          "System.Resources.ResourceManager": "4.3.0",
          "System.Runtime": "4.3.0",
          "System.Runtime.Extensions": "4.3.0",
          "System.Threading": "4.3.0"
        },
        "runtime": {
          "lib/netstandard1.6/System.Text.RegularExpressions.dll": {
            "assemblyVersion": "4.1.1.0",
            "fileVersion": "4.6.24705.1"
          }
        }
      },
      "System.Threading/4.3.0": {
        "dependencies": {
          "System.Runtime": "4.3.0",
          "System.Threading.Tasks": "4.3.0"
        },
        "runtime": {
          "lib/netstandard1.3/System.Threading.dll": {
            "assemblyVersion": "4.0.12.0",
            "fileVersion": "4.6.24705.1"
          }
        }
      },
      "System.Threading.Tasks/4.3.0": {
        "dependencies": {
          "Microsoft.NETCore.Platforms": "1.1.0",
          "Microsoft.NETCore.Targets": "1.1.0",
          "System.Runtime": "4.3.0"
        }
      },
      "System.Threading.Tasks.Extensions/4.5.4": {
        "dependencies": {
          "System.Runtime.CompilerServices.Unsafe": "5.0.0"
        },
        "runtime": {
          "lib/netstandard2.0/System.Threading.Tasks.Extensions.dll": {
            "assemblyVersion": "4.2.0.1",
            "fileVersion": "4.6.28619.1"
          }
        }
      },
      "System.Xml.ReaderWriter/4.3.0": {
        "dependencies": {
          "System.Collections": "4.3.0",
          "System.Diagnostics.Debug": "4.3.0",
          "System.Globalization": "4.3.0",
          "System.IO": "4.3.0",
          "System.IO.FileSystem": "4.3.0",
          "System.IO.FileSystem.Primitives": "4.3.0",
          "System.Resources.ResourceManager": "4.3.0",
          "System.Runtime": "4.3.0",
          "System.Runtime.Extensions": "4.3.0",
          "System.Runtime.InteropServices": "4.3.0",
          "System.Text.Encoding": "4.3.0",
          "System.Text.Encoding.Extensions": "4.3.0",
          "System.Text.RegularExpressions": "4.3.0",
          "System.Threading.Tasks": "4.3.0",
          "System.Threading.Tasks.Extensions": "4.5.4"
        },
        "runtime": {
          "lib/netstandard1.3/System.Xml.ReaderWriter.dll": {
            "assemblyVersion": "4.1.0.0",
            "fileVersion": "4.6.24705.1"
          }
        }
      },
      "System.Xml.XmlDocument/4.3.0": {
        "dependencies": {
          "System.Collections": "4.3.0",
          "System.Diagnostics.Debug": "4.3.0",
          "System.Globalization": "4.3.0",
          "System.IO": "4.3.0",
          "System.Resources.ResourceManager": "4.3.0",
          "System.Runtime": "4.3.0",
          "System.Runtime.Extensions": "4.3.0",
          "System.Text.Encoding": "4.3.0",
          "System.Threading": "4.3.0",
          "System.Xml.ReaderWriter": "4.3.0"
        },
        "runtime": {
          "lib/netstandard1.3/System.Xml.XmlDocument.dll": {
            "assemblyVersion": "4.0.2.0",
            "fileVersion": "4.6.24705.1"
          }
        }
      },
      "TimeZoneConverter/3.4.0": {
        "runtime": {
          "lib/netstandard2.0/TimeZoneConverter.dll": {
            "assemblyVersion": "3.4.0.0",
            "fileVersion": "3.4.0.0"
          }
        }
      },
      "Volo.Abp.Auditing/4.3.0": {
        "dependencies": {
          "Volo.Abp.Data": "4.3.0",
          "Volo.Abp.Json": "4.3.0",
          "Volo.Abp.MultiTenancy": "4.3.0",
          "Volo.Abp.Security": "4.3.0",
          "Volo.Abp.Threading": "4.3.0",
          "Volo.Abp.Timing": "4.3.0"
        },
        "runtime": {
          "lib/netstandard2.0/Volo.Abp.Auditing.dll": {
            "assemblyVersion": "4.3.0.0",
            "fileVersion": "4.3.0.0"
          }
        }
      },
      "Volo.Abp.Authorization/4.3.0": {
        "dependencies": {
          "Volo.Abp.Authorization.Abstractions": "4.3.0",
          "Volo.Abp.Localization": "4.3.0",
          "Volo.Abp.Security": "4.3.0"
        },
        "runtime": {
          "lib/netstandard2.0/Volo.Abp.Authorization.dll": {
            "assemblyVersion": "4.3.0.0",
            "fileVersion": "4.3.0.0"
          }
        }
      },
      "Volo.Abp.Authorization.Abstractions/4.3.0": {
        "dependencies": {
          "Microsoft.AspNetCore.Authorization": "5.0.5",
          "Volo.Abp.MultiTenancy": "4.3.0"
        },
        "runtime": {
          "lib/netstandard2.0/Volo.Abp.Authorization.Abstractions.dll": {
            "assemblyVersion": "4.3.0.0",
            "fileVersion": "4.3.0.0"
          }
        }
      },
      "Volo.Abp.Castle.Core/4.3.0": {
        "dependencies": {
          "Castle.Core": "4.4.1",
          "Castle.Core.AsyncInterceptor": "2.0.21-alpha",
          "Volo.Abp.Core": "4.3.0"
        },
        "runtime": {
          "lib/netstandard2.0/Volo.Abp.Castle.Core.dll": {
            "assemblyVersion": "4.3.0.0",
            "fileVersion": "4.3.0.0"
          }
        }
      },
      "Volo.Abp.Commercial.Core/4.3.0": {
        "dependencies": {
          "Newtonsoft.Json": "13.0.1",
          "Portable.BouncyCastle": "1.8.5.2",
          "System.Management": "4.7.0",
          "Volo.Abp.Core": "4.3.0"
        },
        "runtime": {
          "lib/netstandard2.0/Volo.Abp.Commercial.Core.dll": {
            "assemblyVersion": "4.3.0.0",
            "fileVersion": "4.3.0.0"
          }
        }
      },
      "Volo.Abp.Core/4.3.0": {
        "dependencies": {
          "JetBrains.Annotations": "2020.3.0",
          "Microsoft.Extensions.Configuration.CommandLine": "5.0.0",
          "Microsoft.Extensions.Configuration.EnvironmentVariables": "5.0.0",
          "Microsoft.Extensions.Configuration.UserSecrets": "5.0.0",
          "Microsoft.Extensions.DependencyInjection": "5.0.1",
          "Microsoft.Extensions.Hosting.Abstractions": "5.0.0",
          "Microsoft.Extensions.Localization": "5.0.5",
          "Microsoft.Extensions.Logging": "5.0.0",
          "Microsoft.Extensions.Options": "5.0.0",
          "Microsoft.Extensions.Options.ConfigurationExtensions": "5.0.0",
          "Nito.AsyncEx.Context": "5.1.0",
          "Nito.AsyncEx.Coordination": "5.1.0",
          "System.Collections.Immutable": "5.0.0",
          "System.ComponentModel.Annotations": "5.0.0",
          "System.Linq.Dynamic.Core": "1.2.9",
          "System.Linq.Queryable": "4.3.0",
          "System.Runtime.Loader": "4.3.0"
        },
        "runtime": {
          "lib/netstandard2.0/Volo.Abp.Core.dll": {
            "assemblyVersion": "4.3.0.0",
            "fileVersion": "4.3.0.0"
          }
        }
      },
      "Volo.Abp.Data/4.3.0": {
        "dependencies": {
          "Volo.Abp.EventBus.Abstractions": "4.3.0",
          "Volo.Abp.ObjectExtending": "4.3.0",
          "Volo.Abp.Uow": "4.3.0"
        },
        "runtime": {
          "lib/netstandard2.0/Volo.Abp.Data.dll": {
            "assemblyVersion": "4.3.0.0",
            "fileVersion": "4.3.0.0"
          }
        }
      },
      "Volo.Abp.Ddd.Application.Contracts/4.3.0": {
        "dependencies": {
          "Volo.Abp.Auditing": "4.3.0",
          "Volo.Abp.Localization": "4.3.0"
        },
        "runtime": {
          "lib/netstandard2.0/Volo.Abp.Ddd.Application.Contracts.dll": {
            "assemblyVersion": "4.3.0.0",
            "fileVersion": "4.3.0.0"
          }
        }
      },
      "Volo.Abp.EventBus.Abstractions/4.3.0": {
        "dependencies": {
          "Volo.Abp.Core": "4.3.0"
        },
        "runtime": {
          "lib/netstandard2.0/Volo.Abp.EventBus.Abstractions.dll": {
            "assemblyVersion": "4.3.0.0",
            "fileVersion": "4.3.0.0"
          }
        }
      },
      "Volo.Abp.ExceptionHandling/4.3.0": {
        "dependencies": {
          "Microsoft.Extensions.FileProviders.Embedded": "5.0.17",
          "Volo.Abp.Localization": "4.3.0"
        },
        "runtime": {
          "lib/netstandard2.0/Volo.Abp.ExceptionHandling.dll": {
            "assemblyVersion": "4.3.0.0",
            "fileVersion": "4.3.0.0"
          }
        }
      },
      "Volo.Abp.Features/4.3.0": {
        "dependencies": {
          "Volo.Abp.Authorization.Abstractions": "4.3.0",
          "Volo.Abp.Localization": "4.3.0",
          "Volo.Abp.MultiTenancy": "4.3.0",
          "Volo.Abp.Validation": "4.3.0"
        },
        "runtime": {
          "lib/netstandard2.0/Volo.Abp.Features.dll": {
            "assemblyVersion": "4.3.0.0",
            "fileVersion": "4.3.0.0"
          }
        }
      },
      "Volo.Abp.Http/4.3.0": {
        "dependencies": {
          "Volo.Abp.Http.Abstractions": "4.3.0",
          "Volo.Abp.Json": "4.3.0",
          "Volo.Abp.Minify": "4.3.0"
        },
        "runtime": {
          "lib/netstandard2.0/Volo.Abp.Http.dll": {
            "assemblyVersion": "4.3.0.0",
            "fileVersion": "4.3.0.0"
          }
        }
      },
      "Volo.Abp.Http.Abstractions/4.3.0": {
        "dependencies": {
          "Volo.Abp.Core": "4.3.0"
        },
        "runtime": {
          "lib/netstandard2.0/Volo.Abp.Http.Abstractions.dll": {
            "assemblyVersion": "4.3.0.0",
            "fileVersion": "4.3.0.0"
          }
        }
      },
      "Volo.Abp.Http.Client/4.3.0": {
        "dependencies": {
          "Microsoft.Extensions.Http": "5.0.0",
          "Volo.Abp.Castle.Core": "4.3.0",
          "Volo.Abp.ExceptionHandling": "4.3.0",
          "Volo.Abp.Http": "4.3.0",
          "Volo.Abp.MultiTenancy": "4.3.0",
          "Volo.Abp.Threading": "4.3.0",
          "Volo.Abp.Validation": "4.3.0"
        },
        "runtime": {
          "lib/netstandard2.0/Volo.Abp.Http.Client.dll": {
            "assemblyVersion": "4.3.0.0",
            "fileVersion": "4.3.0.0"
          }
        }
      },
      "Volo.Abp.Json/4.3.0": {
        "dependencies": {
          "Newtonsoft.Json": "13.0.1",
          "Volo.Abp.ObjectExtending": "4.3.0",
          "Volo.Abp.Timing": "4.3.0"
        },
        "runtime": {
          "lib/netstandard2.0/Volo.Abp.Json.dll": {
            "assemblyVersion": "4.3.0.0",
            "fileVersion": "4.3.0.0"
          }
        }
      },
      "Volo.Abp.Localization/4.3.0": {
        "dependencies": {
          "Volo.Abp.Localization.Abstractions": "4.3.0",
          "Volo.Abp.Settings": "4.3.0",
          "Volo.Abp.VirtualFileSystem": "4.3.0"
        },
        "runtime": {
          "lib/netstandard2.0/Volo.Abp.Localization.dll": {
            "assemblyVersion": "4.3.0.0",
            "fileVersion": "4.3.0.0"
          }
        }
      },
      "Volo.Abp.Localization.Abstractions/4.3.0": {
        "dependencies": {
          "Volo.Abp.Core": "4.3.0"
        },
        "runtime": {
          "lib/netstandard2.0/Volo.Abp.Localization.Abstractions.dll": {
            "assemblyVersion": "4.3.0.0",
            "fileVersion": "4.3.0.0"
          }
        }
      },
      "Volo.Abp.Minify/4.3.0": {
        "dependencies": {
          "NUglify": "1.13.8",
          "Volo.Abp.Core": "4.3.0"
        },
        "runtime": {
          "lib/netstandard2.0/Volo.Abp.Minify.dll": {
            "assemblyVersion": "4.3.0.0",
            "fileVersion": "4.3.0.0"
          }
        }
      },
      "Volo.Abp.MultiTenancy/4.3.0": {
        "dependencies": {
          "Volo.Abp.Data": "4.3.0",
          "Volo.Abp.EventBus.Abstractions": "4.3.0",
          "Volo.Abp.Security": "4.3.0"
        },
        "runtime": {
          "lib/netstandard2.0/Volo.Abp.MultiTenancy.dll": {
            "assemblyVersion": "4.3.0.0",
            "fileVersion": "4.3.0.0"
          }
        }
      },
      "Volo.Abp.ObjectExtending/4.3.0": {
        "dependencies": {
          "Volo.Abp.Localization.Abstractions": "4.3.0",
          "Volo.Abp.Validation.Abstractions": "4.3.0"
        },
        "runtime": {
          "lib/netstandard2.0/Volo.Abp.ObjectExtending.dll": {
            "assemblyVersion": "4.3.0.0",
            "fileVersion": "4.3.0.0"
          }
        }
      },
      "Volo.Abp.Security/4.3.0": {
        "dependencies": {
          "Volo.Abp.Core": "4.3.0"
        },
        "runtime": {
          "lib/netstandard2.0/Volo.Abp.Security.dll": {
            "assemblyVersion": "4.3.0.0",
            "fileVersion": "4.3.0.0"
          }
        }
      },
      "Volo.Abp.Settings/4.3.0": {
        "dependencies": {
          "Volo.Abp.Localization.Abstractions": "4.3.0",
          "Volo.Abp.MultiTenancy": "4.3.0",
          "Volo.Abp.Security": "4.3.0"
        },
        "runtime": {
          "lib/netstandard2.0/Volo.Abp.Settings.dll": {
            "assemblyVersion": "4.3.0.0",
            "fileVersion": "4.3.0.0"
          }
        }
      },
      "Volo.Abp.Threading/4.3.0": {
        "dependencies": {
          "Volo.Abp.Core": "4.3.0"
        },
        "runtime": {
          "lib/netstandard2.0/Volo.Abp.Threading.dll": {
            "assemblyVersion": "4.3.0.0",
            "fileVersion": "4.3.0.0"
          }
        }
      },
      "Volo.Abp.Timing/4.3.0": {
        "dependencies": {
          "TimeZoneConverter": "3.4.0",
          "Volo.Abp.Localization": "4.3.0",
          "Volo.Abp.Settings": "4.3.0"
        },
        "runtime": {
          "lib/netstandard2.0/Volo.Abp.Timing.dll": {
            "assemblyVersion": "4.3.0.0",
            "fileVersion": "4.3.0.0"
          }
        }
      },
      "Volo.Abp.Uow/4.3.0": {
        "dependencies": {
          "Volo.Abp.Core": "4.3.0"
        },
        "runtime": {
          "lib/netstandard2.0/Volo.Abp.Uow.dll": {
            "assemblyVersion": "4.3.0.0",
            "fileVersion": "4.3.0.0"
          }
        }
      },
      "Volo.Abp.Validation/4.3.0": {
        "dependencies": {
          "Volo.Abp.Localization": "4.3.0",
          "Volo.Abp.Validation.Abstractions": "4.3.0"
        },
        "runtime": {
          "lib/netstandard2.0/Volo.Abp.Validation.dll": {
            "assemblyVersion": "4.3.0.0",
            "fileVersion": "4.3.0.0"
          }
        }
      },
      "Volo.Abp.Validation.Abstractions/4.3.0": {
        "dependencies": {
          "Volo.Abp.Core": "4.3.0"
        },
        "runtime": {
          "lib/netstandard2.0/Volo.Abp.Validation.Abstractions.dll": {
            "assemblyVersion": "4.3.0.0",
            "fileVersion": "4.3.0.0"
          }
        }
      },
      "Volo.Abp.VirtualFileSystem/4.3.0": {
        "dependencies": {
          "Microsoft.Extensions.FileProviders.Composite": "5.0.0",
          "Microsoft.Extensions.FileProviders.Embedded": "5.0.17",
          "Microsoft.Extensions.FileProviders.Physical": "5.0.0",
          "Volo.Abp.Core": "4.3.0"
        },
        "runtime": {
          "lib/netstandard2.0/Volo.Abp.VirtualFileSystem.dll": {
            "assemblyVersion": "4.3.0.0",
            "fileVersion": "4.3.0.0"
          }
        }
      },
      "Volo.FileManagement.Application.Contracts/1.0.0": {
        "dependencies": {
          "Microsoft.Extensions.FileProviders.Embedded": "5.0.17",
          "Volo.Abp.Authorization": "4.3.0",
          "Volo.Abp.Commercial.Core": "4.3.0",
          "Volo.Abp.Ddd.Application.Contracts": "4.3.0",
          "Volo.FileManagement.Domain.Shared": "1.0.0"
        },
        "runtime": {
          "Volo.FileManagement.Application.Contracts.dll": {}
        }
      },
      "Volo.FileManagement.Domain.Shared/1.0.0": {
        "dependencies": {
          "Microsoft.Extensions.FileProviders.Embedded": "5.0.17",
          "Volo.Abp.Commercial.Core": "4.3.0",
          "Volo.Abp.Features": "4.3.0",
          "Volo.Abp.Validation": "4.3.0"
        },
        "runtime": {
          "Volo.FileManagement.Domain.Shared.dll": {}
        }
      }
    }
  },
  "libraries": {
    "Volo.FileManagement.HttpApi.Client/1.0.0": {
      "type": "project",
      "serviceable": false,
      "sha512": ""
    },
    "Castle.Core/4.4.1": {
      "type": "package",
      "serviceable": true,
      "sha512": "sha512-zanbjWC0Y05gbx4eGXkzVycOQqVOFVeCjVsDSyuao9P4mtN1w3WxxTo193NGC7j3o2u3AJRswaoC6hEbnGACnQ==",
      "path": "castle.core/4.4.1",
      "hashPath": "castle.core.4.4.1.nupkg.sha512"
    },
    "Castle.Core.AsyncInterceptor/2.0.21-alpha": {
      "type": "package",
      "serviceable": true,
      "sha512": "sha512-BRKMoPOWcfpkWC0QpRX6P+D5o5wJHrKy4606Wose9x9u+0EW4Gevj54nI1mBc+xF267wr2gP7BbNz5uFTlSKVw==",
      "path": "castle.core.asyncinterceptor/2.0.21-alpha",
      "hashPath": "castle.core.asyncinterceptor.2.0.21-alpha.nupkg.sha512"
    },
    "JetBrains.Annotations/2020.3.0": {
      "type": "package",
      "serviceable": true,
      "sha512": "sha512-FnX06vtxuoZnhZdR6UHt5kJ7HUC/syODfGLnhPDn1x5sXvvepNyCl4jMtPUzJfsPWh7q0Jo+AIYz5xaVbbyikA==",
      "path": "jetbrains.annotations/2020.3.0",
      "hashPath": "jetbrains.annotations.2020.3.0.nupkg.sha512"
    },
    "Microsoft.AspNetCore.Authorization/5.0.5": {
      "type": "package",
      "serviceable": true,
      "sha512": "sha512-pQSx1MrLJlKwlEclliO9aUwKxe9EKI2Mff39VE1t5VYOjqsMyI2ujWKGI6XAUsnmC0Bta67GZ1k4DbQZd7tJKg==",
      "path": "microsoft.aspnetcore.authorization/5.0.5",
      "hashPath": "microsoft.aspnetcore.authorization.5.0.5.nupkg.sha512"
    },
    "Microsoft.AspNetCore.Metadata/5.0.5": {
      "type": "package",
      "serviceable": true,
      "sha512": "sha512-SD+puPsFLQXWwzoMiXv8lpFGHyZg0gKp3OP2EXg3eRlwJQOMaUGMIqbCdfHGR4MBaUZtqY/tU68H1bzb6+FSxA==",
      "path": "microsoft.aspnetcore.metadata/5.0.5",
      "hashPath": "microsoft.aspnetcore.metadata.5.0.5.nupkg.sha512"
    },
    "Microsoft.Bcl.AsyncInterfaces/5.0.0": {
      "type": "package",
      "serviceable": true,
      "sha512": "sha512-W8DPQjkMScOMTtJbPwmPyj9c3zYSFGawDW3jwlBOOsnY+EzZFLgNQ/UMkK35JmkNOVPdCyPr2Tw7Vv9N+KA3ZQ==",
      "path": "microsoft.bcl.asyncinterfaces/5.0.0",
      "hashPath": "microsoft.bcl.asyncinterfaces.5.0.0.nupkg.sha512"
    },
    "Microsoft.Extensions.Configuration/5.0.0": {
      "type": "package",
      "serviceable": true,
      "sha512": "sha512-LN322qEKHjuVEhhXueTUe7RNePooZmS8aGid5aK2woX3NPjSnONFyKUc6+JknOS6ce6h2tCLfKPTBXE3mN/6Ag==",
      "path": "microsoft.extensions.configuration/5.0.0",
      "hashPath": "microsoft.extensions.configuration.5.0.0.nupkg.sha512"
    },
    "Microsoft.Extensions.Configuration.Abstractions/5.0.0": {
      "type": "package",
      "serviceable": true,
      "sha512": "sha512-ETjSBHMp3OAZ4HxGQYpwyGsD8Sw5FegQXphi0rpoGMT74S4+I2mm7XJEswwn59XAaKOzC15oDSOWEE8SzDCd6Q==",
      "path": "microsoft.extensions.configuration.abstractions/5.0.0",
      "hashPath": "microsoft.extensions.configuration.abstractions.5.0.0.nupkg.sha512"
    },
    "Microsoft.Extensions.Configuration.Binder/5.0.0": {
      "type": "package",
      "serviceable": true,
      "sha512": "sha512-Of1Irt1+NzWO+yEYkuDh5TpT4On7LKl98Q9iLqCdOZps6XXEWDj3AKtmyvzJPVXZe4apmkJJIiDL7rR1yC+hjQ==",
      "path": "microsoft.extensions.configuration.binder/5.0.0",
      "hashPath": "microsoft.extensions.configuration.binder.5.0.0.nupkg.sha512"
    },
    "Microsoft.Extensions.Configuration.CommandLine/5.0.0": {
      "type": "package",
      "serviceable": true,
      "sha512": "sha512-OelM+VQdhZ0XMXsEQBq/bt3kFzD+EBGqR4TAgFDRAye0JfvHAaRi+3BxCRcwqUAwDhV0U0HieljBGHlTgYseRA==",
      "path": "microsoft.extensions.configuration.commandline/5.0.0",
      "hashPath": "microsoft.extensions.configuration.commandline.5.0.0.nupkg.sha512"
    },
    "Microsoft.Extensions.Configuration.EnvironmentVariables/5.0.0": {
      "type": "package",
      "serviceable": true,
      "sha512": "sha512-fqh6y6hAi0Z0fRsb4B/mP9OkKkSlifh5osa+N/YSQ+/S2a//+zYApZMUC1XeP9fdjlgZoPQoZ72Q2eLHyKLddQ==",
      "path": "microsoft.extensions.configuration.environmentvariables/5.0.0",
      "hashPath": "microsoft.extensions.configuration.environmentvariables.5.0.0.nupkg.sha512"
    },
    "Microsoft.Extensions.Configuration.FileExtensions/5.0.0": {
      "type": "package",
      "serviceable": true,
      "sha512": "sha512-rRdspYKA18ViPOISwAihhCMbusHsARCOtDMwa23f+BGEdIjpKPlhs3LLjmKlxfhpGXBjIsS0JpXcChjRUN+PAw==",
      "path": "microsoft.extensions.configuration.fileextensions/5.0.0",
      "hashPath": "microsoft.extensions.configuration.fileextensions.5.0.0.nupkg.sha512"
    },
    "Microsoft.Extensions.Configuration.Json/5.0.0": {
      "type": "package",
      "serviceable": true,
      "sha512": "sha512-Pak8ymSUfdzPfBTLHxeOwcR32YDbuVfhnH2hkfOLnJNQd19ItlBdpMjIDY9C5O/nS2Sn9bzDMai0ZrvF7KyY/Q==",
      "path": "microsoft.extensions.configuration.json/5.0.0",
      "hashPath": "microsoft.extensions.configuration.json.5.0.0.nupkg.sha512"
    },
    "Microsoft.Extensions.Configuration.UserSecrets/5.0.0": {
      "type": "package",
      "serviceable": true,
      "sha512": "sha512-+tK3seG68106lN277YWQvqmfyI/89w0uTu/5Gz5VYSUu5TI4mqwsaWLlSmT9Bl1yW/i1Nr06gHJxqaqB5NU9Tw==",
      "path": "microsoft.extensions.configuration.usersecrets/5.0.0",
      "hashPath": "microsoft.extensions.configuration.usersecrets.5.0.0.nupkg.sha512"
    },
    "Microsoft.Extensions.DependencyInjection/5.0.1": {
      "type": "package",
      "serviceable": true,
      "sha512": "sha512-//mDNrYeiJ0eh/awFhDFJQzkRVra/njU5Y4fyK7X29g5HScrzbUkKOKlyTtygthcGFt4zNC8G5CFCjb/oizomA==",
      "path": "microsoft.extensions.dependencyinjection/5.0.1",
      "hashPath": "microsoft.extensions.dependencyinjection.5.0.1.nupkg.sha512"
    },
    "Microsoft.Extensions.DependencyInjection.Abstractions/5.0.0": {
      "type": "package",
      "serviceable": true,
      "sha512": "sha512-ORj7Zh81gC69TyvmcUm9tSzytcy8AVousi+IVRAI8nLieQjOFryRusSFh7+aLk16FN9pQNqJAiMd7BTKINK0kA==",
      "path": "microsoft.extensions.dependencyinjection.abstractions/5.0.0",
      "hashPath": "microsoft.extensions.dependencyinjection.abstractions.5.0.0.nupkg.sha512"
    },
    "Microsoft.Extensions.FileProviders.Abstractions/5.0.0": {
      "type": "package",
      "serviceable": true,
      "sha512": "sha512-iuZIiZ3mteEb+nsUqpGXKx2cGF+cv6gWPd5jqQI4hzqdiJ6I94ddLjKhQOuRW1lueHwocIw30xbSHGhQj0zjdQ==",
      "path": "microsoft.extensions.fileproviders.abstractions/5.0.0",
      "hashPath": "microsoft.extensions.fileproviders.abstractions.5.0.0.nupkg.sha512"
    },
    "Microsoft.Extensions.FileProviders.Composite/5.0.0": {
      "type": "package",
      "serviceable": true,
      "sha512": "sha512-0IoXXfkgKpYJB1t2lC0jPXAxuaywRNc9y2Mq96ZZNKBthL38vusa2UK73+Bm6Kq/9a5xNHJS6NhsSN+i5TEtkA==",
      "path": "microsoft.extensions.fileproviders.composite/5.0.0",
      "hashPath": "microsoft.extensions.fileproviders.composite.5.0.0.nupkg.sha512"
    },
    "Microsoft.Extensions.FileProviders.Embedded/5.0.17": {
      "type": "package",
      "serviceable": true,
      "sha512": "sha512-sSf5oTuE/BYju9hqvwL6CSwArv76mONplyVpYV2J8Il/m2mtuabx2o3YmTeO8aa5+2JaFWZlOX+2X3fWYEp79w==",
      "path": "microsoft.extensions.fileproviders.embedded/5.0.17",
      "hashPath": "microsoft.extensions.fileproviders.embedded.5.0.17.nupkg.sha512"
    },
    "Microsoft.Extensions.FileProviders.Physical/5.0.0": {
      "type": "package",
      "serviceable": true,
      "sha512": "sha512-1rkd8UO2qf21biwO7X0hL9uHP7vtfmdv/NLvKgCRHkdz1XnW8zVQJXyEYiN68WYpExgtVWn55QF0qBzgfh1mGg==",
      "path": "microsoft.extensions.fileproviders.physical/5.0.0",
      "hashPath": "microsoft.extensions.fileproviders.physical.5.0.0.nupkg.sha512"
    },
    "Microsoft.Extensions.FileSystemGlobbing/5.0.0": {
      "type": "package",
      "serviceable": true,
      "sha512": "sha512-ArliS8lGk8sWRtrWpqI8yUVYJpRruPjCDT+EIjrgkA/AAPRctlAkRISVZ334chAKktTLzD1+PK8F5IZpGedSqA==",
      "path": "microsoft.extensions.filesystemglobbing/5.0.0",
      "hashPath": "microsoft.extensions.filesystemglobbing.5.0.0.nupkg.sha512"
    },
    "Microsoft.Extensions.Hosting.Abstractions/5.0.0": {
      "type": "package",
      "serviceable": true,
      "sha512": "sha512-cbUOCePYBl1UhM+N2zmDSUyJ6cODulbtUd9gEzMFIK3RQDtP/gJsE08oLcBSXH3Q1RAQ0ex7OAB3HeTKB9bXpg==",
      "path": "microsoft.extensions.hosting.abstractions/5.0.0",
      "hashPath": "microsoft.extensions.hosting.abstractions.5.0.0.nupkg.sha512"
    },
    "Microsoft.Extensions.Http/5.0.0": {
      "type": "package",
      "serviceable": true,
      "sha512": "sha512-kT1ijDKZuSUhBtYoC1sXrmVKP7mA08h9Xrsr4VrS/QOtiKCEtUTTd7dd3XI9dwAb46tZSak13q/zdIcr4jqbyg==",
      "path": "microsoft.extensions.http/5.0.0",
      "hashPath": "microsoft.extensions.http.5.0.0.nupkg.sha512"
    },
    "Microsoft.Extensions.Localization/5.0.5": {
      "type": "package",
      "serviceable": true,
      "sha512": "sha512-XBX02xG84g6q+sGnUnBLuRHZt+ZfKIKeY+oLsSqSb/0Hy53lmCGiufCpMH4TZVqmpT3xmFb47YKhA4ROt0SwVQ==",
      "path": "microsoft.extensions.localization/5.0.5",
      "hashPath": "microsoft.extensions.localization.5.0.5.nupkg.sha512"
    },
    "Microsoft.Extensions.Localization.Abstractions/5.0.5": {
      "type": "package",
      "serviceable": true,
      "sha512": "sha512-NIKR1AE1gt4QfThQCxJnzQIYcp0sDijX61GtkrgDce0kqatAME7oZDnYQAZTYlm/QYXKNYqu+S58BW53QRM7oQ==",
      "path": "microsoft.extensions.localization.abstractions/5.0.5",
      "hashPath": "microsoft.extensions.localization.abstractions.5.0.5.nupkg.sha512"
    },
    "Microsoft.Extensions.Logging/5.0.0": {
      "type": "package",
      "serviceable": true,
      "sha512": "sha512-MgOwK6tPzB6YNH21wssJcw/2MKwee8b2gI7SllYfn6rvTpIrVvVS5HAjSU2vqSku1fwqRvWP0MdIi14qjd93Aw==",
      "path": "microsoft.extensions.logging/5.0.0",
      "hashPath": "microsoft.extensions.logging.5.0.0.nupkg.sha512"
    },
    "Microsoft.Extensions.Logging.Abstractions/5.0.0": {
      "type": "package",
      "serviceable": true,
      "sha512": "sha512-NxP6ahFcBnnSfwNBi2KH2Oz8Xl5Sm2krjId/jRR3I7teFphwiUoUeZPwTNA21EX+5PtjqmyAvKaOeBXcJjcH/w==",
      "path": "microsoft.extensions.logging.abstractions/5.0.0",
      "hashPath": "microsoft.extensions.logging.abstractions.5.0.0.nupkg.sha512"
    },
    "Microsoft.Extensions.Options/5.0.0": {
      "type": "package",
      "serviceable": true,
      "sha512": "sha512-CBvR92TCJ5uBIdd9/HzDSrxYak+0W/3+yxrNg8Qm6Bmrkh5L+nu6m3WeazQehcZ5q1/6dDA7J5YdQjim0165zg==",
      "path": "microsoft.extensions.options/5.0.0",
      "hashPath": "microsoft.extensions.options.5.0.0.nupkg.sha512"
    },
    "Microsoft.Extensions.Options.ConfigurationExtensions/5.0.0": {
      "type": "package",
      "serviceable": true,
      "sha512": "sha512-280RxNJqOeQqq47aJLy5D9LN61CAWeuRA83gPToQ8B9jl9SNdQ5EXjlfvF66zQI5AXMl+C/3hGnbtIEN+X3mqA==",
      "path": "microsoft.extensions.options.configurationextensions/5.0.0",
      "hashPath": "microsoft.extensions.options.configurationextensions.5.0.0.nupkg.sha512"
    },
    "Microsoft.Extensions.Primitives/5.0.0": {
      "type": "package",
      "serviceable": true,
      "sha512": "sha512-cI/VWn9G1fghXrNDagX9nYaaB/nokkZn0HYAawGaELQrl8InSezfe9OnfPZLcJq3esXxygh3hkq2c3qoV3SDyQ==",
      "path": "microsoft.extensions.primitives/5.0.0",
      "hashPath": "microsoft.extensions.primitives.5.0.0.nupkg.sha512"
    },
    "Microsoft.NETCore.Platforms/1.1.0": {
      "type": "package",
      "serviceable": true,
      "sha512": "sha512-kz0PEW2lhqygehI/d6XsPCQzD7ff7gUJaVGPVETX611eadGsA3A877GdSlU0LRVMCTH/+P3o2iDTak+S08V2+A==",
      "path": "microsoft.netcore.platforms/1.1.0",
      "hashPath": "microsoft.netcore.platforms.1.1.0.nupkg.sha512"
    },
    "Microsoft.NETCore.Targets/1.1.0": {
      "type": "package",
      "serviceable": true,
      "sha512": "sha512-aOZA3BWfz9RXjpzt0sRJJMjAscAUm3Hoa4UWAfceV9UTYxgwZ1lZt5nO2myFf+/jetYQo4uTP7zS8sJY67BBxg==",
      "path": "microsoft.netcore.targets/1.1.0",
      "hashPath": "microsoft.netcore.targets.1.1.0.nupkg.sha512"
    },
    "NETStandard.Library/2.0.3": {
      "type": "package",
      "serviceable": true,
      "sha512": "sha512-st47PosZSHrjECdjeIzZQbzivYBJFv6P2nv4cj2ypdI204DO+vZ7l5raGMiX4eXMJ53RfOIg+/s4DHVZ54Nu2A==",
      "path": "netstandard.library/2.0.3",
      "hashPath": "netstandard.library.2.0.3.nupkg.sha512"
    },
    "Newtonsoft.Json/13.0.1": {
      "type": "package",
      "serviceable": true,
      "sha512": "sha512-ppPFpBcvxdsfUonNcvITKqLl3bqxWbDCZIzDWHzjpdAHRFfZe0Dw9HmA0+za13IdyrgJwpkDTDA9fHaxOrt20A==",
      "path": "newtonsoft.json/13.0.1",
      "hashPath": "newtonsoft.json.13.0.1.nupkg.sha512"
    },
    "Nito.AsyncEx.Context/5.1.0": {
      "type": "package",
      "serviceable": true,
      "sha512": "sha512-EE7M37c5E/kvulzEkpUR6v1AnK34b2wysOLJHSjl78p/3hL7grte0XCPRqCfLZDwq98AD9GHMTCRfZy7TEeHhw==",
      "path": "nito.asyncex.context/5.1.0",
      "hashPath": "nito.asyncex.context.5.1.0.nupkg.sha512"
    },
    "Nito.AsyncEx.Coordination/5.1.0": {
      "type": "package",
      "serviceable": true,
      "sha512": "sha512-Nv+oA+cSxidjOImiKcz2FJgMIDxiK0A6xormKmsUklUBjTNqQpjtdJsACMgTQG56PkTHdbMi5QijPTTUsmcCeg==",
      "path": "nito.asyncex.coordination/5.1.0",
      "hashPath": "nito.asyncex.coordination.5.1.0.nupkg.sha512"
    },
    "Nito.AsyncEx.Tasks/5.1.0": {
      "type": "package",
      "serviceable": true,
      "sha512": "sha512-tU3Ib4zs8ivM+uS8n7F7ReWZlA3mODyLqwPE+v+WJI94hZ8xLXl+a9npfj/IcmeXo9a6fGKLWkswKQHOeTWqwA==",
      "path": "nito.asyncex.tasks/5.1.0",
      "hashPath": "nito.asyncex.tasks.5.1.0.nupkg.sha512"
    },
    "Nito.Collections.Deque/1.1.0": {
      "type": "package",
      "serviceable": true,
      "sha512": "sha512-RXHe531Oaw2IathDr0Q2kbid0iuudBxtgZsfBZ2eUPuFI8I1P7HMiuUeaIefqYykcDYFTDQsFAPAljduIjihLA==",
      "path": "nito.collections.deque/1.1.0",
      "hashPath": "nito.collections.deque.1.1.0.nupkg.sha512"
    },
    "Nito.Disposables/2.2.0": {
      "type": "package",
      "serviceable": true,
      "sha512": "sha512-QcL+uBwUCEoK8GKp/WzjdCiG8/3G1WLlVNJgLJUNG7bIIVAcEV+Mro4s53VT4Nd8xMSplv0gy+Priw44vRvLaA==",
      "path": "nito.disposables/2.2.0",
      "hashPath": "nito.disposables.2.2.0.nupkg.sha512"
    },
    "NUglify/1.13.8": {
      "type": "package",
      "serviceable": true,
      "sha512": "sha512-S6ofErWTXnV/5k2GUirnhC+xisauluBki1L0MWBQKGFnSQcMB3B3AbUsDoJE7XVgo4ZgVcqXZ0eMeZieKe1kKA==",
      "path": "nuglify/1.13.8",
      "hashPath": "nuglify.1.13.8.nupkg.sha512"
    },
    "Portable.BouncyCastle/1.8.5.2": {
      "type": "package",
      "serviceable": true,
      "sha512": "sha512-iLfdr+T33QrDpsvcKRbMVk0PnjqE4hcrbgc6IH+A1BdPAThZlMB9s5TtFANhVVtdS+0oN3yIivgXRPRET7zuZw==",
      "path": "portable.bouncycastle/1.8.5.2",
      "hashPath": "portable.bouncycastle.1.8.5.2.nupkg.sha512"
    },
    "runtime.native.System/4.3.0": {
      "type": "package",
      "serviceable": true,
      "sha512": "sha512-c/qWt2LieNZIj1jGnVNsE2Kl23Ya2aSTBuXMD6V7k9KWr6l16Tqdwq+hJScEpWER9753NWC8h96PaVNY5Ld7Jw==",
      "path": "runtime.native.system/4.3.0",
      "hashPath": "runtime.native.system.4.3.0.nupkg.sha512"
    },
    "System.Buffers/4.5.1": {
      "type": "package",
      "serviceable": true,
      "sha512": "sha512-Rw7ijyl1qqRS0YQD/WycNst8hUUMgrMH4FCn1nNm27M4VxchZ1js3fVjQaANHO5f3sN4isvP4a+Met9Y4YomAg==",
      "path": "system.buffers/4.5.1",
      "hashPath": "system.buffers.4.5.1.nupkg.sha512"
    },
    "System.CodeDom/4.7.0": {
      "type": "package",
      "serviceable": true,
      "sha512": "sha512-Hs9pw/kmvH3lXaZ1LFKj3pLQsiGfj2xo3sxSzwiLlRL6UcMZUTeCfoJ9Udalvn3yq5dLlPEZzYegrTQ1/LhPOQ==",
      "path": "system.codedom/4.7.0",
      "hashPath": "system.codedom.4.7.0.nupkg.sha512"
    },
    "System.Collections/4.3.0": {
      "type": "package",
      "serviceable": true,
      "sha512": "sha512-3Dcj85/TBdVpL5Zr+gEEBUuFe2icOnLalmEh9hfck1PTYbbyWuZgh4fmm2ysCLTrqLQw6t3TgTyJ+VLp+Qb+Lw==",
      "path": "system.collections/4.3.0",
      "hashPath": "system.collections.4.3.0.nupkg.sha512"
    },
    "System.Collections.Immutable/5.0.0": {
      "type": "package",
      "serviceable": true,
      "sha512": "sha512-FXkLXiK0sVVewcso0imKQoOxjoPAj42R8HtjjbSjVPAzwDfzoyoznWxgA3c38LDbN9SJux1xXoXYAhz98j7r2g==",
      "path": "system.collections.immutable/5.0.0",
      "hashPath": "system.collections.immutable.5.0.0.nupkg.sha512"
    },
    "System.Collections.NonGeneric/4.3.0": {
      "type": "package",
      "serviceable": true,
      "sha512": "sha512-prtjIEMhGUnQq6RnPEYLpFt8AtLbp9yq2zxOSrY7KJJZrw25Fi97IzBqY7iqssbM61Ek5b8f3MG/sG1N2sN5KA==",
      "path": "system.collections.nongeneric/4.3.0",
      "hashPath": "system.collections.nongeneric.4.3.0.nupkg.sha512"
    },
    "System.Collections.Specialized/4.3.0": {
      "type": "package",
      "serviceable": true,
      "sha512": "sha512-Epx8PoVZR0iuOnJJDzp7pWvdfMMOAvpUo95pC4ScH2mJuXkKA2Y4aR3cG9qt2klHgSons1WFh4kcGW7cSXvrxg==",
      "path": "system.collections.specialized/4.3.0",
      "hashPath": "system.collections.specialized.4.3.0.nupkg.sha512"
    },
    "System.ComponentModel/4.3.0": {
      "type": "package",
      "serviceable": true,
      "sha512": "sha512-VyGn1jGRZVfxnh8EdvDCi71v3bMXrsu8aYJOwoV7SNDLVhiEqwP86pPMyRGsDsxhXAm2b3o9OIqeETfN5qfezw==",
      "path": "system.componentmodel/4.3.0",
      "hashPath": "system.componentmodel.4.3.0.nupkg.sha512"
    },
    "System.ComponentModel.Annotations/5.0.0": {
      "type": "package",
      "serviceable": true,
      "sha512": "sha512-dMkqfy2el8A8/I76n2Hi1oBFEbG1SfxD2l5nhwXV3XjlnOmwxJlQbYpJH4W51odnU9sARCSAgv7S3CyAFMkpYg==",
      "path": "system.componentmodel.annotations/5.0.0",
      "hashPath": "system.componentmodel.annotations.5.0.0.nupkg.sha512"
    },
    "System.ComponentModel.Primitives/4.3.0": {
      "type": "package",
      "serviceable": true,
      "sha512": "sha512-j8GUkCpM8V4d4vhLIIoBLGey2Z5bCkMVNjEZseyAlm4n5arcsJOeI3zkUP+zvZgzsbLTYh4lYeP/ZD/gdIAPrw==",
      "path": "system.componentmodel.primitives/4.3.0",
      "hashPath": "system.componentmodel.primitives.4.3.0.nupkg.sha512"
    },
    "System.ComponentModel.TypeConverter/4.3.0": {
      "type": "package",
      "serviceable": true,
      "sha512": "sha512-16pQ6P+EdhcXzPiEK4kbA953Fu0MNG2ovxTZU81/qsCd1zPRsKc3uif5NgvllCY598k6bI0KUyKW8fanlfaDQg==",
      "path": "system.componentmodel.typeconverter/4.3.0",
      "hashPath": "system.componentmodel.typeconverter.4.3.0.nupkg.sha512"
    },
    "System.Diagnostics.Debug/4.3.0": {
      "type": "package",
      "serviceable": true,
      "sha512": "sha512-ZUhUOdqmaG5Jk3Xdb8xi5kIyQYAA4PnTNlHx1mu9ZY3qv4ELIdKbnL/akbGaKi2RnNUWaZsAs31rvzFdewTj2g==",
      "path": "system.diagnostics.debug/4.3.0",
      "hashPath": "system.diagnostics.debug.4.3.0.nupkg.sha512"
    },
    "System.Diagnostics.DiagnosticSource/5.0.0": {
      "type": "package",
      "serviceable": true,
      "sha512": "sha512-tCQTzPsGZh/A9LhhA6zrqCRV4hOHsK90/G7q3Khxmn6tnB1PuNU0cRaKANP2AWcF9bn0zsuOoZOSrHuJk6oNBA==",
      "path": "system.diagnostics.diagnosticsource/5.0.0",
      "hashPath": "system.diagnostics.diagnosticsource.5.0.0.nupkg.sha512"
    },
    "System.Diagnostics.TraceSource/4.3.0": {
      "type": "package",
      "serviceable": true,
      "sha512": "sha512-VnYp1NxGx8Ww731y2LJ1vpfb/DKVNKEZ8Jsh5SgQTZREL/YpWRArgh9pI8CDLmgHspZmLL697CaLvH85qQpRiw==",
      "path": "system.diagnostics.tracesource/4.3.0",
      "hashPath": "system.diagnostics.tracesource.4.3.0.nupkg.sha512"
    },
    "System.Dynamic.Runtime/4.3.0": {
      "type": "package",
      "serviceable": true,
      "sha512": "sha512-SNVi1E/vfWUAs/WYKhE9+qlS6KqK0YVhnlT0HQtr8pMIA8YX3lwy3uPMownDwdYISBdmAF/2holEIldVp85Wag==",
      "path": "system.dynamic.runtime/4.3.0",
      "hashPath": "system.dynamic.runtime.4.3.0.nupkg.sha512"
    },
    "System.Globalization/4.3.0": {
      "type": "package",
      "serviceable": true,
      "sha512": "sha512-kYdVd2f2PAdFGblzFswE4hkNANJBKRmsfa2X5LG2AcWE1c7/4t0pYae1L8vfZ5xvE2nK/R9JprtToA61OSHWIg==",
      "path": "system.globalization/4.3.0",
      "hashPath": "system.globalization.4.3.0.nupkg.sha512"
    },
    "System.Globalization.Extensions/4.3.0": {
      "type": "package",
      "serviceable": true,
      "sha512": "sha512-FhKmdR6MPG+pxow6wGtNAWdZh7noIOpdD5TwQ3CprzgIE1bBBoim0vbR1+AWsWjQmU7zXHgQo4TWSP6lCeiWcQ==",
      "path": "system.globalization.extensions/4.3.0",
      "hashPath": "system.globalization.extensions.4.3.0.nupkg.sha512"
    },
    "System.IO/4.3.0": {
      "type": "package",
      "serviceable": true,
      "sha512": "sha512-3qjaHvxQPDpSOYICjUoTsmoq5u6QJAFRUITgeT/4gqkF1bajbSmb1kwSxEA8AHlofqgcKJcM8udgieRNhaJ5Cg==",
      "path": "system.io/4.3.0",
      "hashPath": "system.io.4.3.0.nupkg.sha512"
    },
    "System.IO.FileSystem/4.3.0": {
      "type": "package",
      "serviceable": true,
      "sha512": "sha512-3wEMARTnuio+ulnvi+hkRNROYwa1kylvYahhcLk4HSoVdl+xxTFVeVlYOfLwrDPImGls0mDqbMhrza8qnWPTdA==",
      "path": "system.io.filesystem/4.3.0",
      "hashPath": "system.io.filesystem.4.3.0.nupkg.sha512"
    },
    "System.IO.FileSystem.Primitives/4.3.0": {
      "type": "package",
      "serviceable": true,
      "sha512": "sha512-6QOb2XFLch7bEc4lIcJH49nJN2HV+OC3fHDgsLVsBVBk3Y4hFAnOBGzJ2lUu7CyDDFo9IBWkSsnbkT6IBwwiMw==",
      "path": "system.io.filesystem.primitives/4.3.0",
      "hashPath": "system.io.filesystem.primitives.4.3.0.nupkg.sha512"
    },
    "System.Linq/4.3.0": {
      "type": "package",
      "serviceable": true,
      "sha512": "sha512-5DbqIUpsDp0dFftytzuMmc0oeMdQwjcP/EWxsksIz/w1TcFRkZ3yKKz0PqiYFMmEwPSWw+qNVqD7PJ889JzHbw==",
      "path": "system.linq/4.3.0",
      "hashPath": "system.linq.4.3.0.nupkg.sha512"
    },
    "System.Linq.Dynamic.Core/1.2.9": {
      "type": "package",
      "serviceable": true,
      "sha512": "sha512-GjR4CCtIkiJSU6N8cidG4aa0ph+HBzFOq3uhLybuq4zjlKy3hjDrGbcEUeBiGpBmUrnUhTAJ5SCZGDoZS7d9SA==",
      "path": "system.linq.dynamic.core/1.2.9",
      "hashPath": "system.linq.dynamic.core.1.2.9.nupkg.sha512"
    },
    "System.Linq.Expressions/4.3.0": {
      "type": "package",
      "serviceable": true,
      "sha512": "sha512-PGKkrd2khG4CnlyJwxwwaWWiSiWFNBGlgXvJpeO0xCXrZ89ODrQ6tjEWS/kOqZ8GwEOUATtKtzp1eRgmYNfclg==",
      "path": "system.linq.expressions/4.3.0",
      "hashPath": "system.linq.expressions.4.3.0.nupkg.sha512"
    },
    "System.Linq.Queryable/4.3.0": {
      "type": "package",
      "serviceable": true,
      "sha512": "sha512-In1Bmmvl/j52yPu3xgakQSI0YIckPUr870w4K5+Lak3JCCa8hl+my65lABOuKfYs4ugmZy25ScFerC4nz8+b6g==",
      "path": "system.linq.queryable/4.3.0",
      "hashPath": "system.linq.queryable.4.3.0.nupkg.sha512"
    },
    "System.Management/4.7.0": {
      "type": "package",
      "serviceable": true,
      "sha512": "sha512-IY+uuGhgzWiCg21i8IvQeY/Z7m1tX8VuPF+ludfn7iTCaccTtJo5HkjZbBEL8kbBubKhAKKtNXr7uMtmAc28Pw==",
      "path": "system.management/4.7.0",
      "hashPath": "system.management.4.7.0.nupkg.sha512"
    },
    "System.Memory/4.5.4": {
      "type": "package",
      "serviceable": true,
      "sha512": "sha512-1MbJTHS1lZ4bS4FmsJjnuGJOu88ZzTT2rLvrhW7Ygic+pC0NWA+3hgAen0HRdsocuQXCkUTdFn9yHJJhsijDXw==",
      "path": "system.memory/4.5.4",
      "hashPath": "system.memory.4.5.4.nupkg.sha512"
    },
    "System.Numerics.Vectors/4.5.0": {
      "type": "package",
      "serviceable": true,
      "sha512": "sha512-QQTlPTl06J/iiDbJCiepZ4H//BVraReU4O4EoRw1U02H5TLUIT7xn3GnDp9AXPSlJUDyFs4uWjWafNX6WrAojQ==",
      "path": "system.numerics.vectors/4.5.0",
      "hashPath": "system.numerics.vectors.4.5.0.nupkg.sha512"
    },
    "System.ObjectModel/4.3.0": {
      "type": "package",
      "serviceable": true,
      "sha512": "sha512-bdX+80eKv9bN6K4N+d77OankKHGn6CH711a6fcOpMQu2Fckp/Ft4L/kW9WznHpyR0NRAvJutzOMHNNlBGvxQzQ==",
      "path": "system.objectmodel/4.3.0",
      "hashPath": "system.objectmodel.4.3.0.nupkg.sha512"
    },
    "System.Reflection/4.3.0": {
      "type": "package",
      "serviceable": true,
      "sha512": "sha512-KMiAFoW7MfJGa9nDFNcfu+FpEdiHpWgTcS2HdMpDvt9saK3y/G4GwprPyzqjFH9NTaGPQeWNHU+iDlDILj96aQ==",
      "path": "system.reflection/4.3.0",
      "hashPath": "system.reflection.4.3.0.nupkg.sha512"
    },
    "System.Reflection.Emit/4.3.0": {
      "type": "package",
      "serviceable": true,
      "sha512": "sha512-228FG0jLcIwTVJyz8CLFKueVqQK36ANazUManGaJHkO0icjiIypKW7YLWLIWahyIkdh5M7mV2dJepllLyA1SKg==",
      "path": "system.reflection.emit/4.3.0",
      "hashPath": "system.reflection.emit.4.3.0.nupkg.sha512"
    },
    "System.Reflection.Emit.ILGeneration/4.3.0": {
      "type": "package",
      "serviceable": true,
      "sha512": "sha512-59tBslAk9733NXLrUJrwNZEzbMAcu8k344OYo+wfSVygcgZ9lgBdGIzH/nrg3LYhXceynyvTc8t5/GD4Ri0/ng==",
      "path": "system.reflection.emit.ilgeneration/4.3.0",
      "hashPath": "system.reflection.emit.ilgeneration.4.3.0.nupkg.sha512"
    },
    "System.Reflection.Emit.Lightweight/4.3.0": {
      "type": "package",
      "serviceable": true,
      "sha512": "sha512-oadVHGSMsTmZsAF864QYN1t1QzZjIcuKU3l2S9cZOwDdDueNTrqq1yRj7koFfIGEnKpt6NjpL3rOzRhs4ryOgA==",
      "path": "system.reflection.emit.lightweight/4.3.0",
      "hashPath": "system.reflection.emit.lightweight.4.3.0.nupkg.sha512"
    },
    "System.Reflection.Extensions/4.3.0": {
      "type": "package",
      "serviceable": true,
      "sha512": "sha512-rJkrJD3kBI5B712aRu4DpSIiHRtr6QlfZSQsb0hYHrDCZORXCFjQfoipo2LaMUHoT9i1B7j7MnfaEKWDFmFQNQ==",
      "path": "system.reflection.extensions/4.3.0",
      "hashPath": "system.reflection.extensions.4.3.0.nupkg.sha512"
    },
    "System.Reflection.Primitives/4.3.0": {
      "type": "package",
      "serviceable": true,
      "sha512": "sha512-5RXItQz5As4xN2/YUDxdpsEkMhvw3e6aNveFXUn4Hl/udNTCNhnKp8lT9fnc3MhvGKh1baak5CovpuQUXHAlIA==",
      "path": "system.reflection.primitives/4.3.0",
      "hashPath": "system.reflection.primitives.4.3.0.nupkg.sha512"
    },
    "System.Reflection.TypeExtensions/4.3.0": {
      "type": "package",
      "serviceable": true,
      "sha512": "sha512-7u6ulLcZbyxB5Gq0nMkQttcdBTx57ibzw+4IOXEfR+sXYQoHvjW5LTLyNr8O22UIMrqYbchJQJnos4eooYzYJA==",
      "path": "system.reflection.typeextensions/4.3.0",
      "hashPath": "system.reflection.typeextensions.4.3.0.nupkg.sha512"
    },
    "System.Resources.ResourceManager/4.3.0": {
      "type": "package",
      "serviceable": true,
      "sha512": "sha512-/zrcPkkWdZmI4F92gL/TPumP98AVDu/Wxr3CSJGQQ+XN6wbRZcyfSKVoPo17ilb3iOr0cCRqJInGwNMolqhS8A==",
      "path": "system.resources.resourcemanager/4.3.0",
      "hashPath": "system.resources.resourcemanager.4.3.0.nupkg.sha512"
    },
    "System.Runtime/4.3.0": {
      "type": "package",
      "serviceable": true,
      "sha512": "sha512-JufQi0vPQ0xGnAczR13AUFglDyVYt4Kqnz1AZaiKZ5+GICq0/1MH/mO/eAJHt/mHW1zjKBJd7kV26SrxddAhiw==",
      "path": "system.runtime/4.3.0",
      "hashPath": "system.runtime.4.3.0.nupkg.sha512"
    },
    "System.Runtime.CompilerServices.Unsafe/5.0.0": {
      "type": "package",
      "serviceable": true,
      "sha512": "sha512-ZD9TMpsmYJLrxbbmdvhwt9YEgG5WntEnZ/d1eH8JBX9LBp+Ju8BSBhUGbZMNVHHomWo2KVImJhTDl2hIgw/6MA==",
      "path": "system.runtime.compilerservices.unsafe/5.0.0",
      "hashPath": "system.runtime.compilerservices.unsafe.5.0.0.nupkg.sha512"
    },
    "System.Runtime.Extensions/4.3.0": {
      "type": "package",
      "serviceable": true,
      "sha512": "sha512-guW0uK0fn5fcJJ1tJVXYd7/1h5F+pea1r7FLSOz/f8vPEqbR2ZAknuRDvTQ8PzAilDveOxNjSfr0CHfIQfFk8g==",
      "path": "system.runtime.extensions/4.3.0",
      "hashPath": "system.runtime.extensions.4.3.0.nupkg.sha512"
    },
    "System.Runtime.Handles/4.3.0": {
      "type": "package",
      "serviceable": true,
      "sha512": "sha512-OKiSUN7DmTWeYb3l51A7EYaeNMnvxwE249YtZz7yooT4gOZhmTjIn48KgSsw2k2lYdLgTKNJw/ZIfSElwDRVgg==",
      "path": "system.runtime.handles/4.3.0",
      "hashPath": "system.runtime.handles.4.3.0.nupkg.sha512"
    },
    "System.Runtime.InteropServices/4.3.0": {
      "type": "package",
      "serviceable": true,
      "sha512": "sha512-uv1ynXqiMK8mp1GM3jDqPCFN66eJ5w5XNomaK2XD+TuCroNTLFGeZ+WCmBMcBDyTFKou3P6cR6J/QsaqDp7fGQ==",
      "path": "system.runtime.interopservices/4.3.0",
      "hashPath": "system.runtime.interopservices.4.3.0.nupkg.sha512"
    },
    "System.Runtime.Loader/4.3.0": {
      "type": "package",
      "serviceable": true,
      "sha512": "sha512-DHMaRn8D8YCK2GG2pw+UzNxn/OHVfaWx7OTLBD/hPegHZZgcZh3H6seWegrC4BYwsfuGrywIuT+MQs+rPqRLTQ==",
      "path": "system.runtime.loader/4.3.0",
      "hashPath": "system.runtime.loader.4.3.0.nupkg.sha512"
    },
    "System.Text.Encoding/4.3.0": {
      "type": "package",
      "serviceable": true,
      "sha512": "sha512-BiIg+KWaSDOITze6jGQynxg64naAPtqGHBwDrLaCtixsa5bKiR8dpPOHA7ge3C0JJQizJE+sfkz1wV+BAKAYZw==",
      "path": "system.text.encoding/4.3.0",
      "hashPath": "system.text.encoding.4.3.0.nupkg.sha512"
    },
    "System.Text.Encoding.Extensions/4.3.0": {
      "type": "package",
      "serviceable": true,
      "sha512": "sha512-YVMK0Bt/A43RmwizJoZ22ei2nmrhobgeiYwFzC4YAN+nue8RF6djXDMog0UCn+brerQoYVyaS+ghy9P/MUVcmw==",
      "path": "system.text.encoding.extensions/4.3.0",
      "hashPath": "system.text.encoding.extensions.4.3.0.nupkg.sha512"
    },
    "System.Text.Encodings.Web/5.0.0": {
      "type": "package",
      "serviceable": true,
      "sha512": "sha512-EEslUvHKll1ftizbn20mX3Ix/l4Ygk/bdJ2LY6/X6FlGaP0RIhKMo9nS6JIGnKKT6KBP2PGj6JC3B9/ZF6ErqQ==",
      "path": "system.text.encodings.web/5.0.0",
      "hashPath": "system.text.encodings.web.5.0.0.nupkg.sha512"
    },
    "System.Text.Json/5.0.0": {
      "type": "package",
      "serviceable": true,
      "sha512": "sha512-+luxMQNZ2WqeffBU7Ml6njIvxc8169NW2oU+ygNudXQGZiarjE7DOtN7bILiQjTZjkmwwRZGTtLzmdrSI/Ustw==",
      "path": "system.text.json/5.0.0",
      "hashPath": "system.text.json.5.0.0.nupkg.sha512"
    },
    "System.Text.RegularExpressions/4.3.0": {
      "type": "package",
      "serviceable": true,
      "sha512": "sha512-RpT2DA+L660cBt1FssIE9CAGpLFdFPuheB7pLpKpn6ZXNby7jDERe8Ua/Ne2xGiwLVG2JOqziiaVCGDon5sKFA==",
      "path": "system.text.regularexpressions/4.3.0",
      "hashPath": "system.text.regularexpressions.4.3.0.nupkg.sha512"
    },
    "System.Threading/4.3.0": {
      "type": "package",
      "serviceable": true,
      "sha512": "sha512-VkUS0kOBcUf3Wwm0TSbrevDDZ6BlM+b/HRiapRFWjM5O0NS0LviG0glKmFK+hhPDd1XFeSdU1GmlLhb2CoVpIw==",
      "path": "system.threading/4.3.0",
      "hashPath": "system.threading.4.3.0.nupkg.sha512"
    },
    "System.Threading.Tasks/4.3.0": {
      "type": "package",
      "serviceable": true,
      "sha512": "sha512-LbSxKEdOUhVe8BezB/9uOGGppt+nZf6e1VFyw6v3DN6lqitm0OSn2uXMOdtP0M3W4iMcqcivm2J6UgqiwwnXiA==",
      "path": "system.threading.tasks/4.3.0",
      "hashPath": "system.threading.tasks.4.3.0.nupkg.sha512"
    },
    "System.Threading.Tasks.Extensions/4.5.4": {
      "type": "package",
      "serviceable": true,
      "sha512": "sha512-zteT+G8xuGu6mS+mzDzYXbzS7rd3K6Fjb9RiZlYlJPam2/hU7JCBZBVEcywNuR+oZ1ncTvc/cq0faRr3P01OVg==",
      "path": "system.threading.tasks.extensions/4.5.4",
      "hashPath": "system.threading.tasks.extensions.4.5.4.nupkg.sha512"
    },
    "System.Xml.ReaderWriter/4.3.0": {
      "type": "package",
      "serviceable": true,
      "sha512": "sha512-GrprA+Z0RUXaR4N7/eW71j1rgMnEnEVlgii49GZyAjTH7uliMnrOU3HNFBr6fEDBCJCIdlVNq9hHbaDR621XBA==",
      "path": "system.xml.readerwriter/4.3.0",
      "hashPath": "system.xml.readerwriter.4.3.0.nupkg.sha512"
    },
    "System.Xml.XmlDocument/4.3.0": {
      "type": "package",
      "serviceable": true,
      "sha512": "sha512-lJ8AxvkX7GQxpC6GFCeBj8ThYVyQczx2+f/cWHJU8tjS7YfI6Cv6bon70jVEgs2CiFbmmM8b9j1oZVx0dSI2Ww==",
      "path": "system.xml.xmldocument/4.3.0",
      "hashPath": "system.xml.xmldocument.4.3.0.nupkg.sha512"
    },
    "TimeZoneConverter/3.4.0": {
      "type": "package",
      "serviceable": true,
      "sha512": "sha512-4rqXd06uLqaLPGpO+whrZnSTJyG3SG5DEbeldMTvaGit0+gI6XLVb9YMnfM+5wtV0DDM1QPd/QhbE6j5vJCWDw==",
      "path": "timezoneconverter/3.4.0",
      "hashPath": "timezoneconverter.3.4.0.nupkg.sha512"
    },
    "Volo.Abp.Auditing/4.3.0": {
      "type": "package",
      "serviceable": true,
      "sha512": "sha512-zptBxUin6U/LbdRdG6rRn+NyTQIAqN7wqjx3Ui7G9vvTHrRCreqzvuOsPC767HDUlcu+8o3LNJLQCuE981219A==",
      "path": "volo.abp.auditing/4.3.0",
      "hashPath": "volo.abp.auditing.4.3.0.nupkg.sha512"
    },
    "Volo.Abp.Authorization/4.3.0": {
      "type": "package",
      "serviceable": true,
      "sha512": "sha512-9j5U19ntqS8JR+s86xNFm0ieH9CHz/po51d6BHxLTZzJuKbIu9xg453KvhKyuXYYnhp+/afu7Uq5EEi/s7sl9A==",
      "path": "volo.abp.authorization/4.3.0",
      "hashPath": "volo.abp.authorization.4.3.0.nupkg.sha512"
    },
    "Volo.Abp.Authorization.Abstractions/4.3.0": {
      "type": "package",
      "serviceable": true,
      "sha512": "sha512-enL7a1MfJR0yjPVhf2UCgEmmQQ5wNb2GGX3k/iKzW5i//3lcnsDZQLAg17NKcbLc+imQ39RALNTOE4ALZQ4C7Q==",
      "path": "volo.abp.authorization.abstractions/4.3.0",
      "hashPath": "volo.abp.authorization.abstractions.4.3.0.nupkg.sha512"
    },
    "Volo.Abp.Castle.Core/4.3.0": {
      "type": "package",
      "serviceable": true,
      "sha512": "sha512-oMWoRLSymkz+q8DP7G8AiTUtI4FXs/nMHq7Irj0HB/roaNDZEfBgpBj2SbQhNAnFq+kMs+RruCYh/+ZHsWE8Ug==",
      "path": "volo.abp.castle.core/4.3.0",
      "hashPath": "volo.abp.castle.core.4.3.0.nupkg.sha512"
    },
    "Volo.Abp.Commercial.Core/4.3.0": {
      "type": "package",
      "serviceable": true,
      "sha512": "sha512-FCf1InEuqKPE36zhiy5biNtm3N+SlR9sztxLIHCJ5kCueYqFH9Te75Lj+G2dm3fLsE2Fmuvv+zmMBoNIhzeU5g==",
      "path": "volo.abp.commercial.core/4.3.0",
      "hashPath": "volo.abp.commercial.core.4.3.0.nupkg.sha512"
    },
    "Volo.Abp.Core/4.3.0": {
      "type": "package",
      "serviceable": true,
      "sha512": "sha512-GTXSY8W+AG5sMczOv40AR85eq9a+R/qI4Ci7h853rudprGWkwtfYw9OQnrVd3Xu74WceSTfCDtHWbu2AuJ3Q+w==",
      "path": "volo.abp.core/4.3.0",
      "hashPath": "volo.abp.core.4.3.0.nupkg.sha512"
    },
    "Volo.Abp.Data/4.3.0": {
      "type": "package",
      "serviceable": true,
      "sha512": "sha512-2r42Sq03qH9z/B3fUZebbAeiEAPO3poHtzLslBhm4Qjjf9jlhBrkVjqZNkCDggNFNMVzRwWmrzSzIop8q8Crug==",
      "path": "volo.abp.data/4.3.0",
      "hashPath": "volo.abp.data.4.3.0.nupkg.sha512"
    },
    "Volo.Abp.Ddd.Application.Contracts/4.3.0": {
      "type": "package",
      "serviceable": true,
      "sha512": "sha512-ysaifHH09mGhQLxEBTAKu8F/GsKbZmcs78CIulkqliPM9qMtyqIuNDSPq/LvWbyRBfPWb/wFdHiBtcBGj2tZVw==",
      "path": "volo.abp.ddd.application.contracts/4.3.0",
      "hashPath": "volo.abp.ddd.application.contracts.4.3.0.nupkg.sha512"
    },
    "Volo.Abp.EventBus.Abstractions/4.3.0": {
      "type": "package",
      "serviceable": true,
      "sha512": "sha512-DW2Cr8k/g2kWqxLBEZvBjT/BSpbUo3zw8uSBMaAGAAKn4k7cNp7FC3YESu0C3y45Nd8Lo/3JLc9Iw4NN5uFmSA==",
      "path": "volo.abp.eventbus.abstractions/4.3.0",
      "hashPath": "volo.abp.eventbus.abstractions.4.3.0.nupkg.sha512"
    },
    "Volo.Abp.ExceptionHandling/4.3.0": {
      "type": "package",
      "serviceable": true,
      "sha512": "sha512-7ht+TOh8YlBZ+06GQ9vXP0FEbCPh7suNqUeKkz034NNNBKYVga9LU6qIpSaquVsM4++8NI/5AZpNh+ocgGhUBw==",
      "path": "volo.abp.exceptionhandling/4.3.0",
      "hashPath": "volo.abp.exceptionhandling.4.3.0.nupkg.sha512"
    },
    "Volo.Abp.Features/4.3.0": {
      "type": "package",
      "serviceable": true,
      "sha512": "sha512-8pHFDHqOQ54UEDciL8deBMg7nSIteTQWUzOT2ieuTl2WC8Mw198v3DYpXH1BTz0s9A9lM/i2h1qRVzVW+TMjrg==",
      "path": "volo.abp.features/4.3.0",
      "hashPath": "volo.abp.features.4.3.0.nupkg.sha512"
    },
    "Volo.Abp.Http/4.3.0": {
      "type": "package",
      "serviceable": true,
      "sha512": "sha512-FXszHkbaNSbq12frlgGo/7IcolTjbb65KASaDYeLXlaJBkM5PRpzfgufHChgYlTT/QfX6V0B+xVXcSn4hf9H1w==",
      "path": "volo.abp.http/4.3.0",
      "hashPath": "volo.abp.http.4.3.0.nupkg.sha512"
    },
    "Volo.Abp.Http.Abstractions/4.3.0": {
      "type": "package",
      "serviceable": true,
      "sha512": "sha512-Fy32oLk5amHZlObVzCz+FWDcjqd06IOhDSN10dg6Cueaefh/BRTd72tGSHPrEpKpjLLvnCU/L19ZIZd9DJAabQ==",
      "path": "volo.abp.http.abstractions/4.3.0",
      "hashPath": "volo.abp.http.abstractions.4.3.0.nupkg.sha512"
    },
    "Volo.Abp.Http.Client/4.3.0": {
      "type": "package",
      "serviceable": true,
      "sha512": "sha512-xwrAjfMoRx646pakowhec55wdGkuw46+2neud1sOgFp5yNgx+oCNSZ+hPVWw/tkh5kJWKC43ao99+vPKF0S1Xw==",
      "path": "volo.abp.http.client/4.3.0",
      "hashPath": "volo.abp.http.client.4.3.0.nupkg.sha512"
    },
    "Volo.Abp.Json/4.3.0": {
      "type": "package",
      "serviceable": true,
      "sha512": "sha512-yZJ/JjJeEO7vaQ/5vH1k0WUDPLjr7rkJ/JkhB6yjRDVirISPWL3y2CbTh6NPSyjTBShkaETCsOeAQBbjDvEbPQ==",
      "path": "volo.abp.json/4.3.0",
      "hashPath": "volo.abp.json.4.3.0.nupkg.sha512"
    },
    "Volo.Abp.Localization/4.3.0": {
      "type": "package",
      "serviceable": true,
      "sha512": "sha512-d5yfg69jxE+rvyhjR1RoeF5KW0gNay2xnhixa6gAOXQ/8ZG7WmgU+G5Aa8GjgFzccL9XgFJYq7Ehzwtz3BS5ZA==",
      "path": "volo.abp.localization/4.3.0",
      "hashPath": "volo.abp.localization.4.3.0.nupkg.sha512"
    },
    "Volo.Abp.Localization.Abstractions/4.3.0": {
      "type": "package",
      "serviceable": true,
      "sha512": "sha512-8edOpld98PimnPODkrWtw/chW+K+1oAQUZccaO6F1DdnUsknQ03k6tXNvdVaXDQft74SsMcaf1tlHrvfrKPhZA==",
      "path": "volo.abp.localization.abstractions/4.3.0",
      "hashPath": "volo.abp.localization.abstractions.4.3.0.nupkg.sha512"
    },
    "Volo.Abp.Minify/4.3.0": {
      "type": "package",
      "serviceable": true,
      "sha512": "sha512-i7XOHJmigo0XsG+Il0AHuwrGnFrdkkgFmAcjeziwMEo52W2FkGZG7DMDQ9n/TD+cBYLQCQ7ckDxxlBvZU51jeg==",
      "path": "volo.abp.minify/4.3.0",
      "hashPath": "volo.abp.minify.4.3.0.nupkg.sha512"
    },
    "Volo.Abp.MultiTenancy/4.3.0": {
      "type": "package",
      "serviceable": true,
      "sha512": "sha512-/DU+5xg+7v889I86EguH+s/2C8wleVaphlTAuRgSPlWIujeOh6O7Dj+ImBb+LOEFK+6PvnzDyDCca57k2lwRsw==",
      "path": "volo.abp.multitenancy/4.3.0",
      "hashPath": "volo.abp.multitenancy.4.3.0.nupkg.sha512"
    },
    "Volo.Abp.ObjectExtending/4.3.0": {
      "type": "package",
      "serviceable": true,
      "sha512": "sha512-CBfao2YPtulP+ZaDrNe0Tx/K9bAiodv+gqYVWQ7UsrVloLIiQ1EMFv0Ln5zI9O111cgQHfLvEVYiFguP2GjSjA==",
      "path": "volo.abp.objectextending/4.3.0",
      "hashPath": "volo.abp.objectextending.4.3.0.nupkg.sha512"
    },
    "Volo.Abp.Security/4.3.0": {
      "type": "package",
      "serviceable": true,
      "sha512": "sha512-HNShcU4urZUP4McuJFqv/X3m2tyJQkrruvuIbV+4MR9a817zo82BPqmzYG7RrZnG2Spyvqaa8GtXBfCGgFVUZA==",
      "path": "volo.abp.security/4.3.0",
      "hashPath": "volo.abp.security.4.3.0.nupkg.sha512"
    },
    "Volo.Abp.Settings/4.3.0": {
      "type": "package",
      "serviceable": true,
      "sha512": "sha512-aCEhagDlTzoS+c/RI/geH7YlK+d3fYvQ/WRI75PLVJMMhMALXT25cZr71BsNwu00LLUnPf6xFfLkfwlsZfIaKA==",
      "path": "volo.abp.settings/4.3.0",
      "hashPath": "volo.abp.settings.4.3.0.nupkg.sha512"
    },
    "Volo.Abp.Threading/4.3.0": {
      "type": "package",
      "serviceable": true,
      "sha512": "sha512-HGZ7MNUNUamMKwhp9taCv8LTnsltA3WchiO0qIuf1BRAg3333muQqrtmraIB/k6T+1ecPoEIpxXzxwgMmTvvxg==",
      "path": "volo.abp.threading/4.3.0",
      "hashPath": "volo.abp.threading.4.3.0.nupkg.sha512"
    },
    "Volo.Abp.Timing/4.3.0": {
      "type": "package",
      "serviceable": true,
      "sha512": "sha512-ohLNz/1T1sKLFV0IXeqxrMlu2sf/qdM3Bj4hOzhse9MGB+jO2l8DKmzOOH70xpH6wWrRELjmRyOoR8U3jwc8Hg==",
      "path": "volo.abp.timing/4.3.0",
      "hashPath": "volo.abp.timing.4.3.0.nupkg.sha512"
    },
    "Volo.Abp.Uow/4.3.0": {
      "type": "package",
      "serviceable": true,
      "sha512": "sha512-CwmJseLIBUcFsAiIVSr9WiNBcn/cqzJDCZmAYqzTLy7etETO+nMXSqohvAt6LlbwmjXHfMO5EZb6mYy4nnTbKQ==",
      "path": "volo.abp.uow/4.3.0",
      "hashPath": "volo.abp.uow.4.3.0.nupkg.sha512"
    },
    "Volo.Abp.Validation/4.3.0": {
      "type": "package",
      "serviceable": true,
      "sha512": "sha512-SIXT7AImi3XRgC1XIs1QJhyEXNOEugYgpR8dpB17sIBcOBdkz9r4XO6lxlSarT5+vo7I9Qut8zmH9S2T76nNWg==",
      "path": "volo.abp.validation/4.3.0",
      "hashPath": "volo.abp.validation.4.3.0.nupkg.sha512"
    },
    "Volo.Abp.Validation.Abstractions/4.3.0": {
      "type": "package",
      "serviceable": true,
      "sha512": "sha512-2dj1wA0YTVxA1wQQ0zE8R3a8nBk4fo/ibUYNV8aMRxkxX83e80BVNHi/5hMabG2ybHmTZrSLxquZyzwKvgSWkw==",
      "path": "volo.abp.validation.abstractions/4.3.0",
      "hashPath": "volo.abp.validation.abstractions.4.3.0.nupkg.sha512"
    },
    "Volo.Abp.VirtualFileSystem/4.3.0": {
      "type": "package",
      "serviceable": true,
      "sha512": "sha512-YL4rsAsqFzDOIOAGmCk78KskDcwLR8EsDxRdtgnztxGIEfok7c3/39nwbpwrkFBrwN5ZP0Qoo03VjFc+49cgqg==",
      "path": "volo.abp.virtualfilesystem/4.3.0",
      "hashPath": "volo.abp.virtualfilesystem.4.3.0.nupkg.sha512"
    },
    "Volo.FileManagement.Application.Contracts/1.0.0": {
      "type": "project",
      "serviceable": false,
      "sha512": ""
    },
    "Volo.FileManagement.Domain.Shared/1.0.0": {
      "type": "project",
      "serviceable": false,
      "sha512": ""
    }
  }
}