{
  "culture": "en",
  "texts": {
    "Feature:IdentityGroup": "Identity",
    "Feature:TwoFactor": "Two factor behaviour",
    "Feature:TwoFactorDescription": "Set two factor behaviour. Optional values: Optional,Disabled,Forced",
    "Feature:TwoFactor.Optional": "Optional",
    "Feature:TwoFactor.Disabled": "Disabled",
    "Feature:TwoFactor.Forced": "Forced",
    "DisplayName:Abp.Identity.TwoFactorBehaviour": "Two Factor behaviour",
    "Description:Abp.Identity.TwoFactorBehaviour": "Two Factor behaviour",
    "DisplayName:Abp.Identity.UsersCanChange": "Allow users to change their Two Factor.",
    "Description:Abp.Identity.UsersCanChange": "Allow users to change their Two Factor."
  }
}
